A2/simulation/qsim/A2.msim.vcd
$comment
	File created using the following command:
		vcd file A2.msim.vcd -direction
$end
$date
	Sun Nov 19 22:52:19 2017
$end
$version
	ModelSim Version 10.1d
$end
$timescale
	1ps
$end
$scope module A2ADD16c_vlg_vec_tst $end
$var reg 16 ! AI [15:0] $end
$var reg 1 " ALUBUS $end
$var reg 16 # BI [15:0] $end
$var reg 1 $ CLKA $end
$var reg 1 % CLKB $end
$var reg 1 & CN $end
$var reg 1 ' M $end
$var reg 1 ( S0 $end
$var reg 1 ) S1 $end
$var reg 1 * S2 $end
$var reg 1 + S3 $end
$var wire 1 , CN4 $end
$var wire 1 - Fo [15] $end
$var wire 1 . Fo [14] $end
$var wire 1 / Fo [13] $end
$var wire 1 0 Fo [12] $end
$var wire 1 1 Fo [11] $end
$var wire 1 2 Fo [10] $end
$var wire 1 3 Fo [9] $end
$var wire 1 4 Fo [8] $end
$var wire 1 5 Fo [7] $end
$var wire 1 6 Fo [6] $end
$var wire 1 7 Fo [5] $end
$var wire 1 8 Fo [4] $end
$var wire 1 9 Fo [3] $end
$var wire 1 : Fo [2] $end
$var wire 1 ; Fo [1] $end
$var wire 1 < Fo [0] $end
$var wire 1 = sampler $end
$scope module i1 $end
$var wire 1 > gnd $end
$var wire 1 ? vcc $end
$var wire 1 @ unknown $end
$var tri1 1 A devclrn $end
$var tri1 1 B devpor $end
$var tri1 1 C devoe $end
$var wire 1 D inst|inst7|78~0_combout $end
$var wire 1 E inst|inst7|78~1_combout $end
$var wire 1 F CLKA~input_o $end
$var wire 1 G CLKB~input_o $end
$var wire 1 H CLKB~inputclkctrl_outclk $end
$var wire 1 I CLKA~inputclkctrl_outclk $end
$var wire 1 J Fo[15]~output_o $end
$var wire 1 K Fo[14]~output_o $end
$var wire 1 L Fo[13]~output_o $end
$var wire 1 M Fo[12]~output_o $end
$var wire 1 N Fo[11]~output_o $end
$var wire 1 O Fo[10]~output_o $end
$var wire 1 P Fo[9]~output_o $end
$var wire 1 Q Fo[8]~output_o $end
$var wire 1 R Fo[7]~output_o $end
$var wire 1 S Fo[6]~output_o $end
$var wire 1 T Fo[5]~output_o $end
$var wire 1 U Fo[4]~output_o $end
$var wire 1 V Fo[3]~output_o $end
$var wire 1 W Fo[2]~output_o $end
$var wire 1 X Fo[1]~output_o $end
$var wire 1 Y Fo[0]~output_o $end
$var wire 1 Z CN4~output_o $end
$var wire 1 [ S1~input_o $end
$var wire 1 \ BI[15]~input_o $end
$var wire 1 ] inst4|inst2|12~q $end
$var wire 1 ^ AI[15]~input_o $end
$var wire 1 _ inst3|inst2|12~q $end
$var wire 1 ` inst|inst8|51~0_combout $end
$var wire 1 a BI[12]~input_o $end
$var wire 1 b inst4|inst2|15~q $end
$var wire 1 c AI[12]~input_o $end
$var wire 1 d inst3|inst2|15~q $end
$var wire 1 e inst|inst8|43~0_combout $end
$var wire 1 f AI[13]~input_o $end
$var wire 1 g inst3|inst2|14~q $end
$var wire 1 h BI[13]~input_o $end
$var wire 1 i inst4|inst2|14~q $end
$var wire 1 j inst|inst8|44~0_combout $end
$var wire 1 k inst|inst8|78~1_combout $end
$var wire 1 l S2~input_o $end
$var wire 1 m inst|inst8|47~0_combout $end
$var wire 1 n S3~input_o $end
$var wire 1 o BI[10]~input_o $end
$var wire 1 p inst4|inst2|17~q $end
$var wire 1 q AI[10]~input_o $end
$var wire 1 r inst3|inst2|17~q $end
$var wire 1 s inst|inst7|48~0_combout $end
$var wire 1 t BI[11]~input_o $end
$var wire 1 u inst4|inst2|16~q $end
$var wire 1 v AI[11]~input_o $end
$var wire 1 w inst3|inst2|16~q $end
$var wire 1 x inst|inst7|52~0_combout $end
$var wire 1 y BI[8]~input_o $end
$var wire 1 z inst4|inst2|19~q $end
$var wire 1 { AI[8]~input_o $end
$var wire 1 | inst3|inst2|19~q $end
$var wire 1 } inst|inst7|46~0_combout $end
$var wire 1 ~ AI[7]~input_o $end
$var wire 1 !! inst3|inst1|12~q $end
$var wire 1 "! inst|inst6|52~0_combout $end
$var wire 1 #! S0~input_o $end
$var wire 1 $! AI[6]~input_o $end
$var wire 1 %! inst3|inst1|13~q $end
$var wire 1 &! inst|inst6|45~0_combout $end
$var wire 1 '! BI[7]~input_o $end
$var wire 1 (! inst4|inst1|12~q $end
$var wire 1 )! inst|inst6|51~0_combout $end
$var wire 1 *! inst|inst6|78~0_combout $end
$var wire 1 +! BI[4]~input_o $end
$var wire 1 ,! inst4|inst1|15~q $end
$var wire 1 -! inst|inst6|46~0_combout $end
$var wire 1 .! BI[5]~input_o $end
$var wire 1 /! inst4|inst1|14~q $end
$var wire 1 0! AI[5]~input_o $end
$var wire 1 1! inst3|inst1|14~q $end
$var wire 1 2! inst|inst6|44~0_combout $end
$var wire 1 3! AI[4]~input_o $end
$var wire 1 4! inst3|inst1|15~q $end
$var wire 1 5! inst|inst6|43~0_combout $end
$var wire 1 6! inst|inst6|78~1_combout $end
$var wire 1 7! BI[3]~input_o $end
$var wire 1 8! inst4|inst1|16~q $end
$var wire 1 9! inst|inst|51~0_combout $end
$var wire 1 :! AI[1]~input_o $end
$var wire 1 ;! inst3|inst1|18~q $end
$var wire 1 <! BI[1]~input_o $end
$var wire 1 =! inst4|inst1|18~q $end
$var wire 1 >! inst|inst|47~0_combout $end
$var wire 1 ?! AI[0]~input_o $end
$var wire 1 @! inst3|inst1|19~q $end
$var wire 1 A! BI[0]~input_o $end
$var wire 1 B! inst4|inst1|19~q $end
$var wire 1 C! inst|inst|43~0_combout $end
$var wire 1 D! CN~input_o $end
$var wire 1 E! inst|inst|78~0_combout $end
$var wire 1 F! AI[3]~input_o $end
$var wire 1 G! inst3|inst1|16~q $end
$var wire 1 H! inst|inst|52~0_combout $end
$var wire 1 I! inst|inst|44~0_combout $end
$var wire 1 J! inst|inst|78~1_combout $end
$var wire 1 K! AI[2]~input_o $end
$var wire 1 L! inst3|inst1|17~q $end
$var wire 1 M! BI[2]~input_o $end
$var wire 1 N! inst4|inst1|17~q $end
$var wire 1 O! inst|inst|45~0_combout $end
$var wire 1 P! inst|inst|78~2_combout $end
$var wire 1 Q! inst|inst6|78~2_combout $end
$var wire 1 R! inst|inst6|78~3_combout $end
$var wire 1 S! AI[9]~input_o $end
$var wire 1 T! inst3|inst2|18~q $end
$var wire 1 U! inst|inst7|47~0_combout $end
$var wire 1 V! inst|inst7|78~2_combout $end
$var wire 1 W! inst|inst7|78~3_combout $end
$var wire 1 X! inst|inst8|78~2_combout $end
$var wire 1 Y! BI[14]~input_o $end
$var wire 1 Z! inst4|inst2|13~q $end
$var wire 1 [! AI[14]~input_o $end
$var wire 1 \! inst3|inst2|13~q $end
$var wire 1 ]! inst|inst8|48~0_combout $end
$var wire 1 ^! M~input_o $end
$var wire 1 _! inst|inst8|74~0_combout $end
$var wire 1 `! inst|inst8|52~0_combout $end
$var wire 1 a! inst|inst8|77~combout $end
$var wire 1 b! ALUBUS~input_o $end
$var wire 1 c! inst|inst8|45~0_combout $end
$var wire 1 d! inst|inst8|82~combout $end
$var wire 1 e! inst|inst8|46~0_combout $end
$var wire 1 f! inst|inst8|79~combout $end
$var wire 1 g! inst|inst8|81~combout $end
$var wire 1 h! inst|inst8|80~combout $end
$var wire 1 i! inst|inst7|51~0_combout $end
$var wire 1 j! inst|inst7|45~0_combout $end
$var wire 1 k! inst|inst7|74~0_combout $end
$var wire 1 l! inst|inst7|77~combout $end
$var wire 1 m! inst|inst7|82~combout $end
$var wire 1 n! BI[9]~input_o $end
$var wire 1 o! inst4|inst2|18~q $end
$var wire 1 p! inst|inst7|44~0_combout $end
$var wire 1 q! inst|inst7|43~0_combout $end
$var wire 1 r! inst|inst7|79~combout $end
$var wire 1 s! inst|inst7|81~combout $end
$var wire 1 t! inst|inst7|80~combout $end
$var wire 1 u! inst|inst6|74~0_combout $end
$var wire 1 v! inst|inst6|77~combout $end
$var wire 1 w! BI[6]~input_o $end
$var wire 1 x! inst4|inst1|13~q $end
$var wire 1 y! inst|inst6|48~0_combout $end
$var wire 1 z! inst|inst6|82~combout $end
$var wire 1 {! inst|inst6|47~0_combout $end
$var wire 1 |! inst|inst6|79~0_combout $end
$var wire 1 }! inst|inst6|81~combout $end
$var wire 1 ~! inst|inst6|80~combout $end
$var wire 1 !" inst|inst|78~3_combout $end
$var wire 1 "" inst|inst|48~0_combout $end
$var wire 1 #" inst|inst|74~0_combout $end
$var wire 1 $" inst|inst|77~combout $end
$var wire 1 %" inst|inst|82~combout $end
$var wire 1 &" inst|inst|79~0_combout $end
$var wire 1 '" inst|inst|81~combout $end
$var wire 1 (" inst|inst|46~0_combout $end
$var wire 1 )" inst|inst|80~0_combout $end
$var wire 1 *" inst|inst8|78~0_combout $end
$var wire 1 +" inst|inst8|78~3_combout $end
$upscope $end
$upscope $end
$enddefinitions $end
#0
$dumpvars
b0 !
1"
b1 #
1$
0%
0&
0'
0(
0)
0*
0+
0w
0x
0y
0z
0{
0|
0}
0~
0!!
0"!
0#!
0$!
0%!
0&!
0'!
0(!
0)!
1*!
0+!
0,!
0-!
0.!
0/!
00!
01!
02!
03!
04!
05!
16!
07!
08!
09!
0:!
0;!
0<!
0=!
0>!
0?!
0@!
1A!
0B!
0C!
0D!
1E!
0F!
0G!
0H!
0I!
1J!
0K!
0L!
0M!
0N!
0O!
1P!
1Q!
1R!
0S!
0T!
1,
z<
z;
z:
z9
z8
z7
z6
z5
z4
z3
z2
z1
z0
z/
z.
z-
x=
0>
1?
x@
1A
1B
1C
1D
1E
1F
0G
0H
1I
zJ
zK
zL
zM
zN
zO
zP
zQ
zR
zS
zT
zU
zV
zW
zX
zY
1Z
0[
0\
0]
0^
0_
0`
0a
0b
0c
0d
0e
0f
0g
0h
0i
0j
1k
0l
0m
0n
0o
0p
0q
0r
0s
0t
0u
0v
0U!
1V!
1W!
1X!
0Y!
0Z!
0[!
0\!
0]!
0^!
1_!
0`!
0a!
1b!
0c!
0d!
0e!
1f!
0g!
0h!
0i!
0j!
1k!
0l!
0m!
0n!
0o!
0p!
0q!
1r!
0s!
0t!
1u!
0v!
0w!
0x!
0y!
0z!
0{!
1|!
0}!
0~!
1!"
0""
1#"
0$"
0%"
1&"
0'"
0("
1)"
1*"
1+"
$end
#33000
0$
1%
0F
1G
0I
1H
0=
1B!
#66000
0"
0%
0b!
0G
0H
1=
0J
0K
0L
0M
0N
0O
0P
0Q
0R
0S
0T
0U
0V
0W
0X
1Y
0-
0.
0/
00
01
02
03
04
05
06
07
08
09
0:
0;
1<
#100000
b1 !
b11 #
1$
1"
1<!
1?!
1F
1b!
1I
0=
zJ
zK
zL
zM
zN
zO
zP
zQ
zR
zS
zT
zU
zV
zW
zX
zY
z-
z.
z/
z0
z1
z2
z3
z4
z5
z6
z7
z8
z9
z:
z;
z<
1@!
1C!
0&"
0E!
0)"
1'"
#133000
1%
0$
1G
0F
1H
0I
1=
1=!
#166000
0"
0%
0b!
0G
0H
0=
0J
0K
0L
0M
0N
0O
0P
0Q
0R
0S
0T
0U
0V
0W
1X
0Y
0-
0.
0/
00
01
02
03
04
05
06
07
08
09
0:
1;
0<
#200000
b11 !
b111 #
b10 !
b101 #
1$
1"
0<!
1M!
0?!
1:!
1F
1b!
1I
1=
zJ
zK
zL
zM
zN
zO
zP
zQ
zR
zS
zT
zU
zV
zW
zX
zY
z-
z.
z/
z0
z1
z2
z3
z4
z5
z6
z7
z8
z9
z:
z;
z<
0@!
1;!
0C!
1I!
1&"
1E!
0!"
0J!
1)"
0'"
1!"
1J!
1'"
1%"
0%"
#233000
1%
0$
1G
0F
1H
0I
0=
1N!
0=!
#266000
0"
0%
0b!
0G
0H
1=
0J
0K
0L
0M
0N
0O
0P
0Q
0R
0S
0T
0U
0V
0W
1X
1Y
0-
0.
0/
00
01
02
03
04
05
06
07
08
09
0:
1;
1<
#300000
b11 !
b111 #
1$
1"
1<!
1?!
1F
1b!
1I
0=
zJ
zK
zL
zM
zN
zO
zP
zQ
zR
zS
zT
zU
zV
zW
zX
zY
z-
z.
z/
z0
z1
z2
z3
z4
z5
z6
z7
z8
z9
z:
z;
z<
1@!
1C!
0&"
0E!
0)"
0!"
0J!
0'"
1%"
#333000
1%
0$
1G
0F
1H
0I
1=
1=!
#366000
0"
0%
0b!
0G
0H
0=
0J
0K
0L
0M
0N
0O
0P
0Q
0R
0S
0T
0U
0V
1W
0X
0Y
0-
0.
0/
00
01
02
03
04
05
06
07
08
09
1:
0;
0<
#400000
b111 !
b1111 #
b101 !
b1011 #
b100 !
b1001 #
1$
1"
0<!
0M!
17!
0?!
0:!
1K!
1F
1b!
1I
1=
zJ
zK
zL
zM
zN
zO
zP
zQ
zR
zS
zT
zU
zV
zW
zX
zY
z-
z.
z/
z0
z1
z2
z3
z4
z5
z6
z7
z8
z9
z:
z;
z<
1L!
0@!
0;!
1O!
0C!
0I!
0#"
1&"
1E!
1!"
1J!
0%"
1)"
1'"
1#"
1$"
0'"
1%"
0$"
#433000
1%
0$
1G
0F
1H
0I
0=
0N!
0=!
18!
#466000
0"
0%
0b!
0G
0H
1=
0J
0K
0L
0M
0N
0O
0P
0Q
0R
0S
0T
0U
0V
1W
0X
1Y
0-
0.
0/
00
01
02
03
04
05
06
07
08
09
1:
0;
1<
#500000
b101 !
b1011 #
1$
1"
1<!
1?!
1F
1b!
1I
0=
zJ
zK
zL
zM
zN
zO
zP
zQ
zR
zS
zT
zU
zV
zW
zX
zY
z-
z.
z/
z0
z1
z2
z3
z4
z5
z6
z7
z8
z9
z:
z;
z<
1@!
1C!
0&"
0E!
0)"
1'"
#533000
1%
0$
1G
0F
1H
0I
1=
1=!
#566000
0"
0%
0b!
0G
0H
0=
0J
0K
0L
0M
0N
0O
0P
0Q
0R
0S
0T
0U
0V
1W
1X
0Y
0-
0.
0/
00
01
02
03
04
05
06
07
08
09
1:
1;
0<
#600000
b111 !
b1111 #
b110 !
b1101 #
1$
1"
0<!
1M!
0?!
1:!
1F
1b!
1I
1=
zJ
zK
zL
zM
zN
zO
zP
zQ
zR
zS
zT
zU
zV
zW
zX
zY
z-
z.
z/
z0
z1
z2
z3
z4
z5
z6
z7
z8
z9
z:
z;
z<
0@!
1;!
0C!
1I!
1&"
1E!
0!"
0J!
1)"
0'"
1!"
1J!
0#"
1'"
0%"
1#"
1%"
1$"
0$"
#633000
1%
0$
1G
0F
1H
0I
0=
1N!
0=!
#666000
0"
0%
0b!
0G
0H
1=
0J
0K
0L
0M
0N
0O
0P
0Q
0R
0S
0T
0U
0V
1W
1X
1Y
0-
0.
0/
00
01
02
03
04
05
06
07
08
09
1:
1;
1<
#700000
b111 !
b1111 #
1$
1"
1<!
1?!
1F
1b!
1I
0=
zJ
zK
zL
zM
zN
zO
zP
zQ
zR
zS
zT
zU
zV
zW
zX
zY
z-
z.
z/
z0
z1
z2
z3
z4
z5
z6
z7
z8
z9
z:
z;
z<
1@!
1C!
0&"
0E!
0)"
0!"
0J!
0'"
0#"
0%"
1$"
#733000
1%
0$
1G
0F
1H
0I
1=
1=!
#766000
0"
0%
0b!
0G
0H
0=
0J
0K
0L
0M
0N
0O
0P
0Q
0R
0S
0T
0U
1V
0W
0X
0Y
0-
0.
0/
00
01
02
03
04
05
06
07
08
19
0:
0;
0<
#800000
b1111 !
b11111 #
b1011 !
b10111 #
b1001 !
b10011 #
b1000 !
b10001 #
1$
1"
0<!
0M!
07!
1+!
0?!
0:!
0K!
1F!
1F
1b!
1I
1=
zJ
zK
zL
zM
zN
zO
zP
zQ
zR
zS
zT
zU
zV
zW
zX
zY
z-
z.
z/
z0
z1
z2
z3
z4
z5
z6
z7
z8
z9
z:
z;
z<
0L!
1G!
0@!
0;!
0O!
19!
0C!
0I!
1#"
1&"
1E!
1!"
1J!
1%"
0$"
1)"
1'"
1$"
0'"
0%"
#833000
1%
0$
1G
0F
1H
0I
0=
0N!
0=!
08!
1,!
#866000
0"
0%
0b!
0G
0H
1=
0J
0K
0L
0M
0N
0O
0P
0Q
0R
0S
0T
0U
1V
0W
0X
1Y
0-
0.
0/
00
01
02
03
04
05
06
07
08
19
0:
0;
1<
#900000
b1001 !
b10011 #
1$
1"
1<!
1?!
1F
1b!
1I
0=
zJ
zK
zL
zM
zN
zO
zP
zQ
zR
zS
zT
zU
zV
zW
zX
zY
z-
z.
z/
z0
z1
z2
z3
z4
z5
z6
z7
z8
z9
z:
z;
z<
1@!
1C!
0&"
0E!
0)"
1'"
#933000
1%
0$
1G
0F
1H
0I
1=
1=!
#966000
0"
0%
0b!
0G
0H
0=
0J
0K
0L
0M
0N
0O
0P
0Q
0R
0S
0T
0U
1V
0W
1X
0Y
0-
0.
0/
00
01
02
03
04
05
06
07
08
19
0:
1;
0<
