A2/simulation/qsim/A2.msim.vcd
$comment
	File created using the following command:
		vcd file A2.msim.vcd -direction
$end
$date
	Thu Nov 16 10:33:53 2017
$end
$version
	ModelSim Version 10.1d
$end
$timescale
	1ps
$end
$scope module A2ADD16b_vlg_vec_tst $end
$var reg 16 ! AI [15:0] $end
$var reg 1 " ALUBUS $end
$var reg 16 # BI [15:0] $end
$var reg 1 $ CLKA $end
$var reg 1 % CLKB $end
$var reg 1 & CLR $end
$var reg 1 ' CN $end
$var reg 1 ( M $end
$var reg 1 ) S0 $end
$var reg 1 * S1 $end
$var reg 1 + S2 $end
$var reg 1 , S3 $end
$var wire 1 - CN4 $end
$var wire 1 . Fo [15] $end
$var wire 1 / Fo [14] $end
$var wire 1 0 Fo [13] $end
$var wire 1 1 Fo [12] $end
$var wire 1 2 Fo [11] $end
$var wire 1 3 Fo [10] $end
$var wire 1 4 Fo [9] $end
$var wire 1 5 Fo [8] $end
$var wire 1 6 Fo [7] $end
$var wire 1 7 Fo [6] $end
$var wire 1 8 Fo [5] $end
$var wire 1 9 Fo [4] $end
$var wire 1 : Fo [3] $end
$var wire 1 ; Fo [2] $end
$var wire 1 < Fo [1] $end
$var wire 1 = Fo [0] $end
$var wire 1 > sampler $end
$scope module i1 $end
$var wire 1 ? gnd $end
$var wire 1 @ vcc $end
$var wire 1 A unknown $end
$var tri1 1 B devclrn $end
$var tri1 1 C devpor $end
$var tri1 1 D devoe $end
$var wire 1 E inst|inst5|31~2_combout $end
$var wire 1 F inst|inst5|29~0_combout $end
$var wire 1 G inst|inst5|29~1_combout $end
$var wire 1 H CLKA~input_o $end
$var wire 1 I CLKB~input_o $end
$var wire 1 J CLKB~inputclkctrl_outclk $end
$var wire 1 K CLKA~inputclkctrl_outclk $end
$var wire 1 L Fo[15]~output_o $end
$var wire 1 M Fo[14]~output_o $end
$var wire 1 N Fo[13]~output_o $end
$var wire 1 O Fo[12]~output_o $end
$var wire 1 P Fo[11]~output_o $end
$var wire 1 Q Fo[10]~output_o $end
$var wire 1 R Fo[9]~output_o $end
$var wire 1 S Fo[8]~output_o $end
$var wire 1 T Fo[7]~output_o $end
$var wire 1 U Fo[6]~output_o $end
$var wire 1 V Fo[5]~output_o $end
$var wire 1 W Fo[4]~output_o $end
$var wire 1 X Fo[3]~output_o $end
$var wire 1 Y Fo[2]~output_o $end
$var wire 1 Z Fo[1]~output_o $end
$var wire 1 [ Fo[0]~output_o $end
$var wire 1 \ CN4~output_o $end
$var wire 1 ] BI[15]~input_o $end
$var wire 1 ^ CLR~input_o $end
$var wire 1 _ CLR~inputclkctrl_outclk $end
$var wire 1 ` inst8|inst2|12~q $end
$var wire 1 a AI[15]~input_o $end
$var wire 1 b inst7|inst2|12~q $end
$var wire 1 c S2~input_o $end
$var wire 1 d inst|inst12|52~0_combout $end
$var wire 1 e S1~input_o $end
$var wire 1 f S0~input_o $end
$var wire 1 g inst|inst12|51~0_combout $end
$var wire 1 h BI[14]~input_o $end
$var wire 1 i inst8|inst2|13~q $end
$var wire 1 j AI[14]~input_o $end
$var wire 1 k inst7|inst2|13~q $end
$var wire 1 l inst|inst12|48~0_combout $end
$var wire 1 m AI[13]~input_o $end
$var wire 1 n inst7|inst2|14~q $end
$var wire 1 o BI[13]~input_o $end
$var wire 1 p inst8|inst2|14~q $end
$var wire 1 q inst|inst12|47~0_combout $end
$var wire 1 r inst|inst12|44~0_combout $end
$var wire 1 s AI[12]~input_o $end
$var wire 1 t inst7|inst2|15~q $end
$var wire 1 u inst|inst12|43~0_combout $end
$var wire 1 v inst|inst12|74~0_combout $end
$var wire 1 w BI[12]~input_o $end
$var wire 1 x inst8|inst2|15~q $end
$var wire 1 y inst|inst12|46~0_combout $end
$var wire 1 z inst|inst12|74~1_combout $end
$var wire 1 { M~input_o $end
$var wire 1 | inst|inst12|74~2_combout $end
$var wire 1 } inst|inst12|77~combout $end
$var wire 1 ~ ALUBUS~input_o $end
$var wire 1 !! inst|inst12|45~0_combout $end
$var wire 1 "! inst|inst12|82~combout $end
$var wire 1 #! inst|inst12|63~0_combout $end
$var wire 1 $! inst|inst12|63~1_combout $end
$var wire 1 %! inst|inst12|79~0_combout $end
$var wire 1 &! inst|inst12|81~combout $end
$var wire 1 '! CN~input_o $end
$var wire 1 (! inst|inst5|31~0_combout $end
$var wire 1 )! inst|inst5|31~1_combout $end
$var wire 1 *! inst|inst12|80~combout $end
$var wire 1 +! BI[11]~input_o $end
$var wire 1 ,! inst8|inst2|16~q $end
$var wire 1 -! inst|inst11|51~0_combout $end
$var wire 1 .! AI[10]~input_o $end
$var wire 1 /! inst7|inst2|17~q $end
$var wire 1 0! inst|inst11|45~0_combout $end
$var wire 1 1! BI[9]~input_o $end
$var wire 1 2! inst8|inst2|18~q $end
$var wire 1 3! inst|inst11|44~0_combout $end
$var wire 1 4! AI[8]~input_o $end
$var wire 1 5! inst7|inst2|19~q $end
$var wire 1 6! inst|inst11|43~0_combout $end
$var wire 1 7! AI[9]~input_o $end
$var wire 1 8! inst7|inst2|18~q $end
$var wire 1 9! S3~input_o $end
$var wire 1 :! inst|inst11|47~0_combout $end
$var wire 1 ;! inst|inst11|74~0_combout $end
$var wire 1 <! inst|inst11|75~0_combout $end
$var wire 1 =! inst|inst11|74~2_combout $end
$var wire 1 >! AI[11]~input_o $end
$var wire 1 ?! inst7|inst2|16~q $end
$var wire 1 @! inst|inst11|52~0_combout $end
$var wire 1 A! inst|inst11|77~combout $end
$var wire 1 B! BI[10]~input_o $end
$var wire 1 C! inst8|inst2|17~q $end
$var wire 1 D! inst|inst11|48~0_combout $end
$var wire 1 E! inst|inst11|82~combout $end
$var wire 1 F! BI[8]~input_o $end
$var wire 1 G! inst8|inst2|19~q $end
$var wire 1 H! inst|inst11|46~0_combout $end
$var wire 1 I! inst|inst5|29~2_combout $end
$var wire 1 J! inst|inst11|74~1_combout $end
$var wire 1 K! inst|inst11|81~0_combout $end
$var wire 1 L! inst|inst11|81~combout $end
$var wire 1 M! inst|inst11|80~combout $end
$var wire 1 N! BI[7]~input_o $end
$var wire 1 O! inst8|inst1|12~q $end
$var wire 1 P! AI[7]~input_o $end
$var wire 1 Q! inst7|inst1|12~q $end
$var wire 1 R! inst|inst10|52~0_combout $end
$var wire 1 S! inst|inst10|51~0_combout $end
$var wire 1 T! BI[4]~input_o $end
$var wire 1 U! inst8|inst1|15~q $end
$var wire 1 V! AI[4]~input_o $end
$var wire 1 W! inst7|inst1|15~q $end
$var wire 1 X! inst|inst10|46~0_combout $end
$var wire 1 Y! inst|inst10|43~0_combout $end
$var wire 1 Z! inst|inst5|27~0_combout $end
$var wire 1 [! BI[5]~input_o $end
$var wire 1 \! inst8|inst1|14~q $end
$var wire 1 ]! inst|inst10|44~0_combout $end
$var wire 1 ^! AI[5]~input_o $end
$var wire 1 _! inst7|inst1|14~q $end
$var wire 1 `! inst|inst10|47~0_combout $end
$var wire 1 a! inst|inst5|27~1_combout $end
$var wire 1 b! inst|inst5|27~2_combout $end
$var wire 1 c! inst|inst10|75~0_combout $end
$var wire 1 d! inst|inst10|75~1_combout $end
$var wire 1 e! BI[6]~input_o $end
$var wire 1 f! inst8|inst1|13~q $end
$var wire 1 g! AI[6]~input_o $end
$var wire 1 h! inst7|inst1|13~q $end
$var wire 1 i! inst|inst10|45~0_combout $end
$var wire 1 j! inst|inst10|74~0_combout $end
$var wire 1 k! inst|inst10|77~combout $end
$var wire 1 l! inst|inst10|48~0_combout $end
$var wire 1 m! inst|inst10|82~combout $end
$var wire 1 n! inst|inst10|79~combout $end
$var wire 1 o! inst|inst10|81~combout $end
$var wire 1 p! inst|inst10|80~combout $end
$var wire 1 q! AI[3]~input_o $end
$var wire 1 r! inst7|inst1|16~q $end
$var wire 1 s! inst|inst9|52~0_combout $end
$var wire 1 t! BI[3]~input_o $end
$var wire 1 u! inst8|inst1|16~q $end
$var wire 1 v! inst|inst9|51~0_combout $end
$var wire 1 w! AI[0]~input_o $end
$var wire 1 x! inst7|inst1|19~q $end
$var wire 1 y! BI[0]~input_o $end
$var wire 1 z! inst8|inst1|19~q $end
$var wire 1 {! inst|inst9|46~0_combout $end
$var wire 1 |! inst|inst9|43~0_combout $end
$var wire 1 }! inst|inst9|79~0_combout $end
$var wire 1 ~! AI[1]~input_o $end
$var wire 1 !" inst7|inst1|18~q $end
$var wire 1 "" BI[1]~input_o $end
$var wire 1 #" inst8|inst1|18~q $end
$var wire 1 $" inst|inst9|44~0_combout $end
$var wire 1 %" inst|inst9|47~0_combout $end
$var wire 1 &" inst|inst9|74~0_combout $end
$var wire 1 '" AI[2]~input_o $end
$var wire 1 (" inst7|inst1|17~q $end
$var wire 1 )" BI[2]~input_o $end
$var wire 1 *" inst8|inst1|17~q $end
$var wire 1 +" inst|inst9|45~0_combout $end
$var wire 1 ," inst|inst9|48~0_combout $end
$var wire 1 -" inst|inst9|74~1_combout $end
$var wire 1 ." inst|inst9|77~combout $end
$var wire 1 /" inst|inst9|82~combout $end
$var wire 1 0" inst|inst9|81~combout $end
$var wire 1 1" inst|inst9|80~0_combout $end
$var wire 1 2" inst|inst12|78~combout $end
$upscope $end
$upscope $end
$enddefinitions $end
#0
$dumpvars
b0 !
1"
b111 #
0$
1%
1&
0'
0(
0)
0*
0+
0,
1-
z=
z<
z;
z:
z9
z8
z7
z6
z5
z4
z3
z2
z1
z0
z/
z.
x>
0?
1@
xA
1B
1C
1D
1E
0F
0G
0H
1I
1J
0K
zL
zM
zN
zO
zP
zQ
zR
zS
zT
zU
zV
zW
zX
zY
zZ
z[
1\
0]
1^
1_
0`
0a
0b
0c
0d
0e
0f
0g
0h
0i
0j
0k
0l
0m
0n
0o
0p
0q
0r
0s
0t
0u
0v
0w
0x
0y
1z
0{
1|
0}
1~
0!!
0"!
1#!
1$!
1%!
0&!
0'!
0(!
0)!
0*!
0+!
0,!
0-!
0.!
0/!
00!
01!
02!
03!
04!
05!
06!
07!
08!
09!
0:!
1;!
1<!
1=!
0>!
0?!
0@!
0A!
0B!
0C!
0D!
0E!
0F!
0G!
0H!
0I!
1J!
0K!
0L!
0M!
0N!
0O!
0P!
0Q!
0R!
0S!
0T!
0U!
0V!
0W!
0X!
0Y!
0Z!
0[!
0\!
0]!
0^!
0_!
0`!
0a!
0b!
0c!
1d!
0e!
0f!
0g!
0h!
0i!
1j!
0k!
0l!
0m!
1n!
0o!
0p!
0q!
0r!
0s!
0t!
0u!
0v!
0w!
0x!
1y!
0z!
0{!
0|!
1}!
0~!
0!"
1""
0#"
0$"
0%"
1&"
0'"
0("
1)"
0*"
0+"
0,"
1-"
0."
0/"
00"
11"
12"
$end
#3000
1$
0%
1H
0I
1K
0J
0>
#6000
0"
0$
0~
0H
0K
1>
0L
0M
0N
0O
0P
0Q
0R
0S
0T
0U
0V
0W
0X
0Y
0Z
1[
0.
0/
00
01
02
03
04
05
06
07
08
09
0:
0;
0<
1=
#10000
b1 !
b1111 #
b1011 #
b1001 #
b1000 #
1%
1"
0y!
0""
0)"
1t!
1w!
1I
1~
1J
0>
zL
zM
zN
zO
zP
zQ
zR
zS
zT
zU
zV
zW
zX
zY
zZ
z[
z.
z/
z0
z1
z2
z3
z4
z5
z6
z7
z8
z9
z:
z;
z<
z=
1u!
#13000
1$
0%
1H
0I
1K
0J
1>
1x!
1|!
0}!
01"
10"
#16000
0"
0$
0~
0H
0K
0>
0L
0M
0N
0O
0P
0Q
0R
0S
0T
0U
0V
0W
0X
0Y
1Z
0[
0.
0/
00
01
02
03
04
05
06
07
08
09
0:
0;
1<
0=
#20000
b11 !
b10 !
b1001 #
1%
1"
1y!
0w!
1~!
1I
1~
1J
1>
zL
zM
zN
zO
zP
zQ
zR
zS
zT
zU
zV
zW
zX
zY
zZ
z[
z.
z/
z0
z1
z2
z3
z4
z5
z6
z7
z8
z9
z:
z;
z<
z=
1z!
#23000
1$
0%
1H
0I
1K
0J
0>
1!"
0x!
1$"
0|!
0&"
1}!
00"
11"
1&"
1/"
10"
0/"
#26000
0"
0$
0~
0H
0K
1>
0L
0M
0N
0O
0P
0Q
0R
0S
0T
0U
0V
0W
0X
0Y
1Z
1[
0.
0/
00
01
02
03
04
05
06
07
08
09
0:
0;
1<
1=
#30000
b1011 #
b11 !
b1010 #
1%
1"
1w!
0y!
1""
1I
1~
1J
0>
zL
zM
zN
zO
zP
zQ
zR
zS
zT
zU
zV
zW
zX
zY
zZ
z[
z.
z/
z0
z1
z2
z3
z4
z5
z6
z7
z8
z9
z:
z;
z<
z=
1#"
0z!
#33000
1$
0%
1H
0I
1K
0J
1>
1x!
1|!
0}!
01"
0&"
00"
1/"
#36000
0"
0$
0~
0H
0K
0>
0L
0M
0N
0O
0P
0Q
0R
0S
0T
0U
0V
0W
0X
1Y
0Z
0[
0.
0/
00
01
02
03
04
05
06
07
08
09
0:
1;
0<
0=
#40000
b111 !
b101 !
b100 !
b1011 #
1%
1"
1y!
0w!
0~!
1'"
1I
1~
1J
1>
zL
zM
zN
zO
zP
zQ
zR
zS
zT
zU
zV
zW
zX
zY
zZ
z[
z.
z/
z0
z1
z2
z3
z4
z5
z6
z7
z8
z9
z:
z;
z<
z=
1z!
#43000
1$
0%
1H
0I
1K
0J
0>
1("
0!"
0x!
1+"
0$"
0|!
0-"
1&"
1}!
0/"
10"
11"
1-"
1."
1/"
00"
0."
#46000
0"
0$
0~
0H
0K
1>
0L
0M
0N
0O
0P
0Q
0R
0S
0T
0U
0V
0W
0X
1Y
0Z
1[
0.
0/
00
01
02
03
04
05
06
07
08
09
0:
1;
0<
1=
#50000
b1111 #
b1101 #
b101 !
b1100 #
1%
1"
1w!
0y!
0""
1)"
1I
1~
1J
0>
zL
zM
zN
zO
zP
zQ
zR
zS
zT
zU
zV
zW
zX
zY
zZ
z[
z.
z/
z0
z1
z2
z3
z4
z5
z6
z7
z8
z9
z:
z;
z<
z=
1*"
0#"
0z!
#53000
1$
0%
1H
0I
1K
0J
1>
1x!
1|!
0}!
01"
10"
#56000
0"
0$
0~
0H
0K
0>
0L
0M
0N
0O
0P
0Q
0R
0S
0T
0U
0V
0W
0X
1Y
1Z
0[
0.
0/
00
01
02
03
04
05
06
07
08
09
0:
1;
1<
0=
#60000
b111 !
b110 !
b1101 #
1%
1"
1y!
0w!
1~!
1I
1~
1J
1>
zL
zM
zN
zO
zP
zQ
zR
zS
zT
zU
zV
zW
zX
zY
zZ
z[
z.
z/
z0
z1
z2
z3
z4
z5
z6
z7
z8
z9
z:
z;
z<
z=
1z!
#63000
1$
0%
1H
0I
1K
0J
0>
1!"
0x!
1$"
0|!
0&"
1}!
00"
11"
0-"
1&"
0/"
10"
1-"
1."
1/"
0."
#66000
0"
0$
0~
0H
0K
1>
0L
0M
0N
0O
0P
0Q
0R
0S
0T
0U
0V
0W
0X
1Y
1Z
1[
0.
0/
00
01
02
03
04
05
06
07
08
09
0:
1;
1<
1=
#70000
b1111 #
b111 !
b1110 #
1%
1"
1w!
0y!
1""
1I
1~
1J
0>
zL
zM
zN
zO
zP
zQ
zR
zS
zT
zU
zV
zW
zX
zY
zZ
z[
z.
z/
z0
z1
z2
z3
z4
z5
z6
z7
z8
z9
z:
z;
z<
z=
1#"
0z!
#73000
1$
0%
1H
0I
1K
0J
1>
1x!
1|!
0}!
01"
0&"
00"
0-"
0/"
1."
#76000
0"
0$
0~
0H
0K
0>
0L
0M
0N
0O
0P
0Q
0R
0S
0T
0U
0V
0W
1X
0Y
0Z
0[
0.
0/
00
01
02
03
04
05
06
07
08
09
1:
0;
0<
0=
#80000
b1111 !
b1011 !
b1001 !
b1000 !
b1111 #
1%
1"
1y!
0w!
0~!
0'"
1q!
1I
1~
1J
1>
zL
zM
zN
zO
zP
zQ
zR
zS
zT
zU
zV
zW
zX
zY
zZ
z[
z.
z/
z0
z1
z2
z3
z4
z5
z6
z7
z8
z9
z:
z;
z<
z=
1z!
#83000
1$
0%
1H
0I
1K
0J
0>
0("
0!"
0x!
1r!
0+"
0$"
0|!
1v!
1-"
1&"
1}!
1/"
10"
11"
0."
1."
0/"
00"
#86000
0"
0$
0~
0H
0K
1>
0L
0M
0N
0O
0P
0Q
0R
0S
0T
0U
0V
0W
1X
0Y
0Z
1[
0.
0/
00
01
02
03
04
05
06
07
08
09
1:
0;
0<
1=
#90000
b11111 #
b10111 #
b10011 #
b10001 #
b1001 !
b10000 #
1%
1"
1w!
0y!
0""
0)"
0t!
1T!
1I
1~
1J
0>
zL
zM
zN
zO
zP
zQ
zR
zS
zT
zU
zV
zW
zX
zY
zZ
z[
z.
z/
z0
z1
z2
z3
z4
z5
z6
z7
z8
z9
z:
z;
z<
z=
0*"
0#"
0z!
0u!
1U!
#93000
1$
0%
1H
0I
1K
0J
1>
1x!
1|!
0}!
01"
10"
#96000
0"
0$
0~
0H
0K
0>
0L
0M
0N
0O
0P
0Q
0R
0S
0T
0U
0V
0W
1X
0Y
1Z
0[
0.
0/
00
01
02
03
04
05
06
07
08
09
1:
0;
1<
0=
#100000
b1011 !
b1010 !
b10001 #
1%
1"
1y!
0w!
1~!
1I
1~
1J
1>
zL
zM
zN
zO
zP
zQ
zR
zS
zT
zU
zV
zW
zX
zY
zZ
z[
z.
z/
z0
z1
z2
z3
z4
z5
z6
z7
z8
z9
z:
z;
z<
z=
1z!
#103000
1$
0%
1H
0I
1K
0J
0>
1!"
0x!
1$"
0|!
0&"
1}!
00"
11"
1&"
1/"
10"
0/"
#106000
0"
0$
0~
0H
0K
1>
0L
0M
0N
0O
0P
0Q
0R
0S
0T
0U
0V
0W
1X
0Y
1Z
1[
0.
0/
00
01
02
03
04
05
06
07
08
09
1:
0;
1<
1=
#110000
b10011 #
b1011 !
b10010 #
1%
1"
1w!
0y!
1""
1I
1~
1J
0>
zL
zM
zN
zO
zP
zQ
zR
zS
zT
zU
zV
zW
zX
zY
zZ
z[
z.
z/
z0
z1
z2
z3
z4
z5
z6
z7
z8
z9
z:
z;
z<
z=
1#"
0z!
#113000
1$
0%
1H
0I
1K
0J
1>
1x!
1|!
0}!
01"
0&"
00"
1/"
#116000
0"
0$
0~
0H
0K
0>
0L
0M
0N
0O
0P
0Q
0R
0S
0T
0U
0V
0W
1X
1Y
0Z
0[
0.
0/
00
01
02
03
04
05
06
07
08
09
1:
1;
0<
0=
#120000
b1111 !
b1101 !
b1100 !
b10011 #
1%
1"
1y!
0w!
0~!
1'"
1I
1~
1J
1>
zL
zM
zN
zO
zP
zQ
zR
zS
zT
zU
zV
zW
zX
zY
zZ
z[
z.
z/
z0
z1
z2
z3
z4
z5
z6
z7
z8
z9
z:
z;
z<
z=
1z!
#123000
1$
0%
1H
0I
1K
0J
0>
1("
0!"
0x!
1+"
0$"
0|!
0-"
1&"
1}!
0/"
10"
11"
1-"
0."
1/"
00"
1."
#126000
0"
0$
0~
0H
0K
1>
0L
0M
0N
0O
0P
0Q
0R
0S
0T
0U
0V
0W
1X
1Y
0Z
1[
0.
0/
00
01
02
03
04
05
06
07
08
09
1:
1;
0<
1=
#130000
b10111 #
b10101 #
b1101 !
b10100 #
1%
1"
1w!
0y!
0""
1)"
1I
1~
1J
0>
zL
zM
zN
zO
zP
zQ
zR
zS
zT
zU
zV
zW
zX
zY
zZ
z[
z.
z/
z0
z1
z2
z3
z4
z5
z6
z7
z8
z9
z:
z;
z<
z=
1*"
0#"
0z!
#133000
1$
0%
1H
0I
1K
0J
1>
1x!
1|!
0}!
01"
10"
#136000
0"
0$
0~
0H
0K
0>
0L
0M
0N
0O
0P
0Q
0R
0S
0T
0U
0V
0W
1X
1Y
1Z
0[
0.
0/
00
01
02
03
04
05
06
07
08
09
1:
1;
1<
0=
#140000
b1111 !
b1110 !
b10101 #
1%
1"
1y!
0w!
1~!
1I
1~
1J
1>
zL
zM
zN
zO
zP
zQ
zR
zS
zT
zU
zV
zW
zX
zY
zZ
z[
z.
z/
z0
z1
z2
z3
z4
z5
z6
z7
z8
z9
z:
z;
z<
z=
1z!
#143000
1$
0%
1H
0I
1K
0J
0>
1!"
0x!
1$"
0|!
0&"
1}!
00"
11"
0-"
1&"
0/"
10"
1-"
0."
1/"
1."
#146000
0"
0$
0~
0H
0K
1>
0L
0M
0N
0O
0P
0Q
0R
0S
0T
0U
0V
0W
1X
1Y
1Z
1[
0.
0/
00
01
02
03
04
05
06
07
08
09
1:
1;
1<
1=
#150000
b10111 #
b1111 !
b10110 #
1%
1"
1w!
0y!
1""
1I
1~
1J
0>
zL
zM
zN
zO
zP
zQ
zR
zS
zT
zU
zV
zW
zX
zY
zZ
z[
z.
z/
z0
z1
z2
z3
z4
z5
z6
z7
z8
z9
z:
z;
z<
z=
1#"
0z!
#153000
1$
0%
1H
0I
1K
0J
1>
1x!
1|!
0}!
01"
0&"
00"
0-"
0/"
0."
#156000
0"
0$
0~
0H
0K
0>
0L
0M
0N
0O
0P
0Q
0R
0S
0T
0U
0V
0W
0X
0Y
0Z
0[
0.
0/
00
01
02
03
04
05
06
07
08
09
0:
0;
0<
0=
#160000
b11111 !
b10111 !
b10011 !
b10001 !
b10000 !
b10111 #
1%
1"
1y!
0w!
0~!
0'"
0q!
1V!
1I
1~
1J
1>
zL
zM
zN
zO
zP
zQ
zR
zS
zT
zU
zV
zW
zX
zY
zZ
z[
z.
z/
z0
z1
z2
z3
z4
z5
z6
z7
z8
z9
z:
z;
z<
z=
1z!
#163000
1$
0%
1H
0I
1K
0J
0>
0("
0!"
0x!
0r!
1W!
0+"
0$"
0|!
0v!
1Y!
1-"
1&"
1}!
1/"
10"
11"
1."
1p!
0."
0/"
00"
#166000
0"
0$
0~
0H
0K
1>
0L
0M
0N
0O
0P
0Q
0R
0S
0T
0U
0V
1W
0X
0Y
0Z
1[
0.
0/
00
01
02
03
04
05
06
07
08
19
0:
0;
0<
1=
#170000
b11111 #
b11011 #
b11001 #
b10001 !
b11000 #
1%
1"
1w!
0y!
0""
0)"
1t!
1I
1~
1J
0>
zL
zM
zN
zO
zP
zQ
zR
zS
zT
zU
zV
zW
zX
zY
zZ
z[
z.
z/
z0
z1
z2
z3
z4
z5
z6
z7
z8
z9
z:
z;
z<
z=
0*"
0#"
0z!
1u!
#173000
1$
0%
1H
0I
1K
0J
1>
1x!
1|!
0}!
01"
10"
#176000
0"
0$
0~
0H
0K
0>
0L
0M
0N
0O
0P
0Q
0R
0S
0T
0U
0V
1W
0X
0Y
1Z
0[
0.
0/
00
01
02
03
04
05
06
07
08
19
0:
0;
1<
0=
#180000
b10011 !
b10010 !
b11001 #
1%
1"
1y!
0w!
1~!
1I
1~
1J
1>
zL
zM
zN
zO
zP
zQ
zR
zS
zT
zU
zV
zW
zX
zY
zZ
z[
z.
z/
z0
z1
z2
z3
z4
z5
z6
z7
z8
z9
z:
z;
z<
z=
1z!
#183000
1$
0%
1H
0I
1K
0J
0>
1!"
0x!
1$"
0|!
0&"
1}!
00"
11"
1&"
1/"
10"
0/"
#186000
0"
0$
0~
0H
0K
1>
0L
0M
0N
0O
0P
0Q
0R
0S
0T
0U
0V
1W
0X
0Y
1Z
1[
0.
0/
00
01
02
03
04
05
06
07
08
19
0:
0;
1<
1=
#190000
b11011 #
b10011 !
b11010 #
1%
1"
1w!
0y!
1""
1I
1~
1J
0>
zL
zM
zN
zO
zP
zQ
zR
zS
zT
zU
zV
zW
zX
zY
zZ
z[
z.
z/
z0
z1
z2
z3
z4
z5
z6
z7
z8
z9
z:
z;
z<
z=
1#"
0z!
#193000
1$
0%
1H
0I
1K
0J
1>
1x!
1|!
0}!
01"
0&"
00"
1/"
#196000
0"
0$
0~
0H
0K
0>
0L
0M
0N
0O
0P
0Q
0R
0S
0T
0U
0V
1W
0X
1Y
0Z
0[
0.
0/
00
01
02
03
04
05
06
07
08
19
0:
1;
0<
0=
#200000
b10111 !
b10101 !
b10100 !
b11011 #
1%
1"
1y!
0w!
0~!
1'"
1I
1~
1J
1>
zL
zM
zN
zO
zP
zQ
zR
zS
zT
zU
zV
zW
zX
zY
zZ
z[
z.
z/
z0
z1
z2
z3
z4
z5
z6
z7
z8
z9
z:
z;
z<
z=
1z!
#203000
1$
0%
1H
0I
1K
0J
0>
1("
0!"
0x!
1+"
0$"
0|!
0-"
1&"
1}!
0/"
10"
11"
1-"
1."
1/"
00"
0."
#206000
0"
0$
0~
0H
0K
1>
0L
0M
0N
0O
0P
0Q
0R
0S
0T
0U
0V
1W
0X
1Y
0Z
1[
0.
0/
00
01
02
03
04
05
06
07
08
19
0:
1;
0<
1=
#210000
b11111 #
b11101 #
b10101 !
b11100 #
1%
1"
1w!
0y!
0""
1)"
1I
1~
1J
0>
zL
zM
zN
zO
zP
zQ
zR
zS
zT
zU
zV
zW
zX
zY
zZ
z[
z.
z/
z0
z1
z2
z3
z4
z5
z6
z7
z8
z9
z:
z;
z<
z=
1*"
0#"
0z!
#213000
1$
0%
1H
0I
1K
0J
1>
1x!
1|!
0}!
01"
10"
#216000
0"
0$
0~
0H
0K
0>
0L
0M
0N
0O
0P
0Q
0R
0S
0T
0U
0V
1W
0X
1Y
1Z
0[
0.
0/
00
01
02
03
04
05
06
07
08
19
0:
1;
1<
0=
#220000
b10111 !
b10110 !
b11101 #
1%
1"
1y!
0w!
1~!
1I
1~
1J
1>
zL
zM
zN
zO
zP
zQ
zR
zS
zT
zU
zV
zW
zX
zY
zZ
z[
z.
z/
z0
z1
z2
z3
z4
z5
z6
z7
z8
z9
z:
z;
z<
z=
1z!
#223000
1$
0%
1H
0I
1K
0J
0>
1!"
0x!
1$"
0|!
0&"
1}!
00"
11"
0-"
1&"
0/"
10"
1-"
1."
1/"
0."
#226000
0"
0$
0~
0H
0K
1>
0L
0M
0N
0O
0P
0Q
0R
0S
0T
0U
0V
1W
0X
1Y
1Z
1[
0.
0/
00
01
02
03
04
05
06
07
08
19
0:
1;
1<
1=
#230000
b11111 #
b10111 !
b11110 #
1%
1"
1w!
0y!
1""
1I
1~
1J
0>
zL
zM
zN
zO
zP
zQ
zR
zS
zT
zU
zV
zW
zX
zY
zZ
z[
z.
z/
z0
z1
z2
z3
z4
z5
z6
z7
z8
z9
z:
z;
z<
z=
1#"
0z!
#233000
1$
0%
1H
0I
1K
0J
1>
1x!
1|!
0}!
01"
0&"
00"
0-"
0/"
1."
#236000
0"
0$
0~
0H
0K
0>
0L
0M
0N
0O
0P
0Q
0R
0S
0T
0U
0V
1W
1X
0Y
0Z
0[
0.
0/
00
01
02
03
04
05
06
07
08
19
1:
0;
0<
0=
#240000
b11111 !
b11011 !
b11001 !
b11000 !
b11111 #
1%
1"
1y!
0w!
0~!
0'"
1q!
1I
1~
1J
1>
zL
zM
zN
zO
zP
zQ
zR
zS
zT
zU
zV
zW
zX
zY
zZ
z[
z.
z/
z0
z1
z2
z3
z4
z5
z6
z7
z8
z9
z:
z;
z<
z=
1z!
#243000
1$
0%
1H
0I
1K
0J
0>
0("
0!"
0x!
1r!
0+"
0$"
0|!
1v!
1-"
1&"
1}!
1/"
10"
11"
0."
1."
0/"
00"
#246000
0"
0$
0~
0H
0K
1>
0L
0M
0N
0O
0P
0Q
0R
0S
0T
0U
0V
1W
1X
0Y
0Z
1[
0.
0/
00
01
02
03
04
05
06
07
08
19
1:
0;
0<
1=
#250000
b111111 #
b101111 #
b100111 #
b100011 #
b100001 #
b11001 !
b100000 #
1%
1"
1w!
0y!
0""
0)"
0t!
0T!
1[!
1I
1~
1J
0>
zL
zM
zN
zO
zP
zQ
zR
zS
zT
zU
zV
zW
zX
zY
zZ
z[
z.
z/
z0
z1
z2
z3
z4
z5
z6
z7
z8
z9
z:
z;
z<
z=
0*"
0#"
0z!
0u!
1\!
0U!
#253000
1$
0%
1H
0I
1K
0J
1>
1x!
1|!
0}!
01"
10"
#256000
0"
0$
0~
0H
0K
0>
0L
0M
0N
0O
0P
0Q
0R
0S
0T
0U
0V
1W
1X
0Y
1Z
0[
0.
0/
00
01
02
03
04
05
06
07
08
19
1:
0;
1<
0=
#260000
b11011 !
b11010 !
b100001 #
1%
1"
1y!
0w!
1~!
1I
1~
1J
1>
zL
zM
zN
zO
zP
zQ
zR
zS
zT
zU
zV
zW
zX
zY
zZ
z[
z.
z/
z0
z1
z2
z3
z4
z5
z6
z7
z8
z9
z:
z;
z<
z=
1z!
#263000
1$
0%
1H
0I
1K
0J
0>
1!"
0x!
1$"
0|!
0&"
1}!
00"
11"
1&"
1/"
10"
0/"
#266000
0"
0$
0~
0H
0K
1>
0L
0M
0N
0O
0P
0Q
0R
0S
0T
0U
0V
1W
1X
0Y
1Z
1[
0.
0/
00
01
02
03
04
05
06
07
08
19
1:
0;
1<
1=
#270000
b100011 #
b11011 !
b100010 #
1%
1"
1w!
0y!
1""
1I
1~
1J
0>
zL
zM
zN
zO
zP
zQ
zR
zS
zT
zU
zV
zW
zX
zY
zZ
z[
z.
z/
z0
z1
z2
z3
z4
z5
z6
z7
z8
z9
z:
z;
z<
z=
1#"
0z!
#273000
1$
0%
1H
0I
1K
0J
1>
1x!
1|!
0}!
01"
0&"
00"
1/"
#276000
0"
0$
0~
0H
0K
0>
0L
0M
0N
0O
0P
0Q
0R
0S
0T
0U
0V
1W
1X
1Y
0Z
0[
0.
0/
00
01
02
03
04
05
06
07
08
19
1:
1;
0<
0=
#280000
b11111 !
b11101 !
b11100 !
b100011 #
1%
1"
1y!
0w!
0~!
1'"
1I
1~
1J
1>
zL
zM
zN
zO
zP
zQ
zR
zS
zT
zU
zV
zW
zX
zY
zZ
z[
z.
z/
z0
z1
z2
z3
z4
z5
z6
z7
z8
z9
z:
z;
z<
z=
1z!
#283000
1$
0%
1H
0I
1K
0J
0>
1("
0!"
0x!
1+"
0$"
0|!
0-"
1&"
1}!
0/"
10"
11"
1-"
0."
1/"
00"
1."
