A2/simulation/qsim/A2.msim.vcd
$comment
	File created using the following command:
		vcd file A2.msim.vcd -direction
$end
$date
	Thu Nov 16 10:23:15 2017
$end
$version
	ModelSim Version 10.1d
$end
$timescale
	1ps
$end
$scope module A2ADD16b_vlg_vec_tst $end
$var reg 16 ! AI [15:0] $end
$var reg 1 " ALUBUS $end
$var reg 16 # BI [15:0] $end
$var reg 1 $ CLKA $end
$var reg 1 % CLKB $end
$var reg 1 & CLR $end
$var reg 1 ' CN $end
$var reg 1 ( M $end
$var reg 1 ) S0 $end
$var reg 1 * S1 $end
$var reg 1 + S2 $end
$var reg 1 , S3 $end
$var wire 1 - CN4 $end
$var wire 1 . Fo [15] $end
$var wire 1 / Fo [14] $end
$var wire 1 0 Fo [13] $end
$var wire 1 1 Fo [12] $end
$var wire 1 2 Fo [11] $end
$var wire 1 3 Fo [10] $end
$var wire 1 4 Fo [9] $end
$var wire 1 5 Fo [8] $end
$var wire 1 6 Fo [7] $end
$var wire 1 7 Fo [6] $end
$var wire 1 8 Fo [5] $end
$var wire 1 9 Fo [4] $end
$var wire 1 : Fo [3] $end
$var wire 1 ; Fo [2] $end
$var wire 1 < Fo [1] $end
$var wire 1 = Fo [0] $end
$var wire 1 > sampler $end
$scope module i1 $end
$var wire 1 ? gnd $end
$var wire 1 @ vcc $end
$var wire 1 A unknown $end
$var tri1 1 B devclrn $end
$var tri1 1 C devpor $end
$var tri1 1 D devoe $end
$var wire 1 E inst|inst5|31~2_combout $end
$var wire 1 F inst|inst5|29~0_combout $end
$var wire 1 G inst|inst5|29~1_combout $end
$var wire 1 H CLKA~input_o $end
$var wire 1 I CLKB~input_o $end
$var wire 1 J CLKB~inputclkctrl_outclk $end
$var wire 1 K CLKA~inputclkctrl_outclk $end
$var wire 1 L Fo[15]~output_o $end
$var wire 1 M Fo[14]~output_o $end
$var wire 1 N Fo[13]~output_o $end
$var wire 1 O Fo[12]~output_o $end
$var wire 1 P Fo[11]~output_o $end
$var wire 1 Q Fo[10]~output_o $end
$var wire 1 R Fo[9]~output_o $end
$var wire 1 S Fo[8]~output_o $end
$var wire 1 T Fo[7]~output_o $end
$var wire 1 U Fo[6]~output_o $end
$var wire 1 V Fo[5]~output_o $end
$var wire 1 W Fo[4]~output_o $end
$var wire 1 X Fo[3]~output_o $end
$var wire 1 Y Fo[2]~output_o $end
$var wire 1 Z Fo[1]~output_o $end
$var wire 1 [ Fo[0]~output_o $end
$var wire 1 \ CN4~output_o $end
$var wire 1 ] BI[15]~input_o $end
$var wire 1 ^ CLR~input_o $end
$var wire 1 _ CLR~inputclkctrl_outclk $end
$var wire 1 ` inst8|inst2|12~q $end
$var wire 1 a AI[15]~input_o $end
$var wire 1 b inst7|inst2|12~q $end
$var wire 1 c S2~input_o $end
$var wire 1 d inst|inst12|52~0_combout $end
$var wire 1 e S1~input_o $end
$var wire 1 f S0~input_o $end
$var wire 1 g inst|inst12|51~0_combout $end
$var wire 1 h BI[14]~input_o $end
$var wire 1 i inst8|inst2|13~q $end
$var wire 1 j AI[14]~input_o $end
$var wire 1 k inst7|inst2|13~q $end
$var wire 1 l inst|inst12|48~0_combout $end
$var wire 1 m AI[13]~input_o $end
$var wire 1 n inst7|inst2|14~q $end
$var wire 1 o BI[13]~input_o $end
$var wire 1 p inst8|inst2|14~q $end
$var wire 1 q inst|inst12|47~0_combout $end
$var wire 1 r inst|inst12|44~0_combout $end
$var wire 1 s AI[12]~input_o $end
$var wire 1 t inst7|inst2|15~q $end
$var wire 1 u inst|inst12|43~0_combout $end
$var wire 1 v inst|inst12|74~0_combout $end
$var wire 1 w BI[12]~input_o $end
$var wire 1 x inst8|inst2|15~q $end
$var wire 1 y inst|inst12|46~0_combout $end
$var wire 1 z inst|inst12|74~1_combout $end
$var wire 1 { M~input_o $end
$var wire 1 | inst|inst12|74~2_combout $end
$var wire 1 } inst|inst12|77~combout $end
$var wire 1 ~ ALUBUS~input_o $end
$var wire 1 !! inst|inst12|45~0_combout $end
$var wire 1 "! inst|inst12|82~combout $end
$var wire 1 #! inst|inst12|63~0_combout $end
$var wire 1 $! inst|inst12|63~1_combout $end
$var wire 1 %! inst|inst12|79~0_combout $end
$var wire 1 &! inst|inst12|81~combout $end
$var wire 1 '! CN~input_o $end
$var wire 1 (! inst|inst5|31~0_combout $end
$var wire 1 )! inst|inst5|31~1_combout $end
$var wire 1 *! inst|inst12|80~combout $end
$var wire 1 +! BI[11]~input_o $end
$var wire 1 ,! inst8|inst2|16~q $end
$var wire 1 -! inst|inst11|51~0_combout $end
$var wire 1 .! AI[10]~input_o $end
$var wire 1 /! inst7|inst2|17~q $end
$var wire 1 0! inst|inst11|45~0_combout $end
$var wire 1 1! BI[9]~input_o $end
$var wire 1 2! inst8|inst2|18~q $end
$var wire 1 3! inst|inst11|44~0_combout $end
$var wire 1 4! AI[8]~input_o $end
$var wire 1 5! inst7|inst2|19~q $end
$var wire 1 6! inst|inst11|43~0_combout $end
$var wire 1 7! AI[9]~input_o $end
$var wire 1 8! inst7|inst2|18~q $end
$var wire 1 9! S3~input_o $end
$var wire 1 :! inst|inst11|47~0_combout $end
$var wire 1 ;! inst|inst11|74~0_combout $end
$var wire 1 <! inst|inst11|75~0_combout $end
$var wire 1 =! inst|inst11|74~2_combout $end
$var wire 1 >! AI[11]~input_o $end
$var wire 1 ?! inst7|inst2|16~q $end
$var wire 1 @! inst|inst11|52~0_combout $end
$var wire 1 A! inst|inst11|77~combout $end
$var wire 1 B! BI[10]~input_o $end
$var wire 1 C! inst8|inst2|17~q $end
$var wire 1 D! inst|inst11|48~0_combout $end
$var wire 1 E! inst|inst11|82~combout $end
$var wire 1 F! BI[8]~input_o $end
$var wire 1 G! inst8|inst2|19~q $end
$var wire 1 H! inst|inst11|46~0_combout $end
$var wire 1 I! inst|inst5|29~2_combout $end
$var wire 1 J! inst|inst11|74~1_combout $end
$var wire 1 K! inst|inst11|81~0_combout $end
$var wire 1 L! inst|inst11|81~combout $end
$var wire 1 M! inst|inst11|80~combout $end
$var wire 1 N! BI[7]~input_o $end
$var wire 1 O! inst8|inst1|12~q $end
$var wire 1 P! AI[7]~input_o $end
$var wire 1 Q! inst7|inst1|12~q $end
$var wire 1 R! inst|inst10|52~0_combout $end
$var wire 1 S! inst|inst10|51~0_combout $end
$var wire 1 T! BI[4]~input_o $end
$var wire 1 U! inst8|inst1|15~q $end
$var wire 1 V! AI[4]~input_o $end
$var wire 1 W! inst7|inst1|15~q $end
$var wire 1 X! inst|inst10|46~0_combout $end
$var wire 1 Y! inst|inst10|43~0_combout $end
$var wire 1 Z! inst|inst5|27~0_combout $end
$var wire 1 [! BI[5]~input_o $end
$var wire 1 \! inst8|inst1|14~q $end
$var wire 1 ]! inst|inst10|44~0_combout $end
$var wire 1 ^! AI[5]~input_o $end
$var wire 1 _! inst7|inst1|14~q $end
$var wire 1 `! inst|inst10|47~0_combout $end
$var wire 1 a! inst|inst5|27~1_combout $end
$var wire 1 b! inst|inst5|27~2_combout $end
$var wire 1 c! inst|inst10|75~0_combout $end
$var wire 1 d! inst|inst10|75~1_combout $end
$var wire 1 e! BI[6]~input_o $end
$var wire 1 f! inst8|inst1|13~q $end
$var wire 1 g! AI[6]~input_o $end
$var wire 1 h! inst7|inst1|13~q $end
$var wire 1 i! inst|inst10|45~0_combout $end
$var wire 1 j! inst|inst10|74~0_combout $end
$var wire 1 k! inst|inst10|77~combout $end
$var wire 1 l! inst|inst10|48~0_combout $end
$var wire 1 m! inst|inst10|82~combout $end
$var wire 1 n! inst|inst10|79~combout $end
$var wire 1 o! inst|inst10|81~combout $end
$var wire 1 p! inst|inst10|80~combout $end
$var wire 1 q! AI[3]~input_o $end
$var wire 1 r! inst7|inst1|16~q $end
$var wire 1 s! inst|inst9|52~0_combout $end
$var wire 1 t! BI[3]~input_o $end
$var wire 1 u! inst8|inst1|16~q $end
$var wire 1 v! inst|inst9|51~0_combout $end
$var wire 1 w! AI[0]~input_o $end
$var wire 1 x! inst7|inst1|19~q $end
$var wire 1 y! BI[0]~input_o $end
$var wire 1 z! inst8|inst1|19~q $end
$var wire 1 {! inst|inst9|46~0_combout $end
$var wire 1 |! inst|inst9|43~0_combout $end
$var wire 1 }! inst|inst9|79~0_combout $end
$var wire 1 ~! AI[1]~input_o $end
$var wire 1 !" inst7|inst1|18~q $end
$var wire 1 "" BI[1]~input_o $end
$var wire 1 #" inst8|inst1|18~q $end
$var wire 1 $" inst|inst9|44~0_combout $end
$var wire 1 %" inst|inst9|47~0_combout $end
$var wire 1 &" inst|inst9|74~0_combout $end
$var wire 1 '" AI[2]~input_o $end
$var wire 1 (" inst7|inst1|17~q $end
$var wire 1 )" BI[2]~input_o $end
$var wire 1 *" inst8|inst1|17~q $end
$var wire 1 +" inst|inst9|45~0_combout $end
$var wire 1 ," inst|inst9|48~0_combout $end
$var wire 1 -" inst|inst9|74~1_combout $end
$var wire 1 ." inst|inst9|77~combout $end
$var wire 1 /" inst|inst9|82~combout $end
$var wire 1 0" inst|inst9|81~combout $end
$var wire 1 1" inst|inst9|80~0_combout $end
$var wire 1 2" inst|inst12|78~combout $end
$upscope $end
$upscope $end
$enddefinitions $end
#0
$dumpvars
b0 !
1"
b1 #
1$
0%
1&
1'
0(
0)
0*
0+
0,
1-
z=
z<
z;
z:
z9
z8
z7
z6
z5
z4
z3
z2
z1
z0
z/
z.
x>
0?
1@
xA
1B
1C
1D
0E
0F
0G
1H
0I
0J
1K
zL
zM
zN
zO
zP
zQ
zR
zS
zT
zU
zV
zW
zX
zY
zZ
z[
1\
0]
1^
1_
0`
0a
0b
0c
0d
0e
0f
0g
0h
0i
0j
0k
0l
0m
0n
0o
0p
0q
0r
0s
0t
0u
0v
0w
0x
0y
1z
0{
1|
0}
1~
0!!
0"!
1#!
1$!
1%!
0&!
1'!
0(!
0)!
0*!
0+!
0,!
0-!
0.!
0/!
00!
01!
02!
03!
04!
05!
06!
07!
08!
09!
0:!
1;!
1<!
1=!
0>!
0?!
0@!
0A!
0B!
0C!
0D!
0E!
0F!
0G!
0H!
0I!
1J!
0K!
0L!
0M!
0N!
0O!
0P!
0Q!
0R!
0S!
0T!
0U!
0V!
0W!
0X!
0Y!
0Z!
0[!
0\!
0]!
0^!
0_!
0`!
0a!
0b!
0c!
1d!
0e!
0f!
0g!
0h!
0i!
1j!
0k!
0l!
0m!
1n!
0o!
0p!
0q!
0r!
0s!
0t!
0u!
0v!
0w!
0x!
1y!
0z!
0{!
0|!
1}!
0~!
0!"
0""
0#"
0$"
0%"
1&"
0'"
0("
0)"
0*"
0+"
0,"
1-"
0."
0/"
00"
01"
12"
$end
#3000
0$
1%
0H
1I
0K
1J
0>
1z!
#6000
0"
0%
0~
0I
0J
1>
0L
0M
0N
0O
0P
0Q
0R
0S
0T
0U
0V
0W
0X
0Y
0Z
0[
0.
0/
00
01
02
03
04
05
06
07
08
09
0:
0;
0<
0=
#10000
b1 !
b11 #
b10 #
1$
1"
0y!
1""
1w!
1H
1~
1K
0>
zL
zM
zN
zO
zP
zQ
zR
zS
zT
zU
zV
zW
zX
zY
zZ
z[
z.
z/
z0
z1
z2
z3
z4
z5
z6
z7
z8
z9
z:
z;
z<
z=
1x!
1|!
11"
#13000
1%
0$
1I
0H
1J
0K
1>
1#"
0z!
#16000
0"
0%
0~
0I
0J
0>
0L
0M
0N
0O
0P
0Q
0R
0S
0T
0U
0V
0W
0X
0Y
0Z
1[
0.
0/
00
01
02
03
04
05
06
07
08
09
0:
0;
0<
1=
#20000
b11 !
b10 !
b11 #
1$
1"
1y!
0w!
1~!
1H
1~
1K
1>
zL
zM
zN
zO
zP
zQ
zR
zS
zT
zU
zV
zW
zX
zY
zZ
z[
z.
z/
z0
z1
z2
z3
z4
z5
z6
z7
z8
z9
z:
z;
z<
z=
1!"
0x!
1$"
0|!
10"
01"
#23000
1%
0$
1I
0H
1J
0K
0>
1z!
#26000
0"
0%
0~
0I
0J
1>
0L
0M
0N
0O
0P
0Q
0R
0S
0T
0U
0V
0W
0X
0Y
1Z
0[
0.
0/
00
01
02
03
04
05
06
07
08
09
0:
0;
1<
0=
#30000
b111 #
b101 #
b11 !
b100 #
1$
1"
1w!
0y!
0""
1)"
1H
1~
1K
0>
zL
zM
zN
zO
zP
zQ
zR
zS
zT
zU
zV
zW
zX
zY
zZ
z[
z.
z/
z0
z1
z2
z3
z4
z5
z6
z7
z8
z9
z:
z;
z<
z=
1x!
1|!
11"
#33000
1%
0$
1I
0H
1J
0K
1>
1*"
0#"
0z!
#36000
0"
0%
0~
0I
0J
0>
0L
0M
0N
0O
0P
0Q
0R
0S
0T
0U
0V
0W
0X
0Y
1Z
1[
0.
0/
00
01
02
03
04
05
06
07
08
09
0:
0;
1<
1=
#40000
b111 !
b101 !
b100 !
b101 #
1$
1"
1y!
0w!
0~!
1'"
1H
1~
1K
1>
zL
zM
zN
zO
zP
zQ
zR
zS
zT
zU
zV
zW
zX
zY
zZ
z[
z.
z/
z0
z1
z2
z3
z4
z5
z6
z7
z8
z9
z:
z;
z<
z=
1("
0!"
0x!
1+"
0$"
0|!
1/"
00"
01"
#43000
1%
0$
1I
0H
1J
0K
0>
1z!
#46000
0"
0%
0~
0I
0J
1>
0L
0M
0N
0O
0P
0Q
0R
0S
0T
0U
0V
0W
0X
1Y
0Z
0[
0.
0/
00
01
02
03
04
05
06
07
08
09
0:
1;
0<
0=
#50000
1)
b111 #
b101 !
b110 #
1$
1"
1f
1w!
0y!
1""
1H
1~
1K
0>
1|!
zL
zM
zN
zO
zP
zQ
zR
zS
zT
zU
zV
zW
zX
zY
zZ
z[
z.
z/
z0
z1
z2
z3
z4
z5
z6
z7
z8
z9
z:
z;
z<
z=
11"
1x!
#53000
1%
0$
1I
0H
1J
0K
1>
1#"
0z!
1$"
10"
#56000
0"
0%
0~
0I
0J
0>
0L
0M
0N
0O
0P
0Q
0R
0S
0T
0U
0V
0W
0X
1Y
1Z
1[
0.
0/
00
01
02
03
04
05
06
07
08
09
0:
1;
1<
1=
#60000
b111 !
b110 !
b111 #
1$
1"
1y!
0w!
1~!
1H
1~
1K
1>
zL
zM
zN
zO
zP
zQ
zR
zS
zT
zU
zV
zW
zX
zY
zZ
z[
z.
z/
z0
z1
z2
z3
z4
z5
z6
z7
z8
z9
z:
z;
z<
z=
1!"
0x!
0|!
01"
#63000
1%
0$
1I
0H
1J
0K
0>
1z!
1|!
11"
#66000
0"
0%
0~
0I
0J
1>
0L
0M
0N
0O
0P
0Q
0R
0S
0T
0U
0V
0W
0X
1Y
1Z
1[
0.
0/
00
01
02
03
04
05
06
07
08
09
0:
1;
1<
1=
#70000
b1111 #
b1011 #
b1001 #
b111 !
b1000 #
1$
1"
1w!
0y!
0""
0)"
1t!
1H
1~
1K
0>
zL
zM
zN
zO
zP
zQ
zR
zS
zT
zU
zV
zW
zX
zY
zZ
z[
z.
z/
z0
z1
z2
z3
z4
z5
z6
z7
z8
z9
z:
z;
z<
z=
1x!
#73000
1%
0$
1I
0H
1J
0K
1>
0*"
0#"
0z!
1u!
1v!
1."
#76000
0"
0%
0~
0I
0J
0>
0L
0M
0N
0O
0P
0Q
0R
0S
0T
0U
0V
0W
1X
1Y
1Z
1[
0.
0/
00
01
02
03
04
05
06
07
08
09
1:
1;
1<
1=
#80000
b1111 !
b1011 !
b1001 !
b1000 !
b1001 #
1$
1"
1y!
0w!
0~!
0'"
1q!
1H
1~
1K
1>
zL
zM
zN
zO
zP
zQ
zR
zS
zT
zU
zV
zW
zX
zY
zZ
z[
z.
z/
z0
z1
z2
z3
z4
z5
z6
z7
z8
z9
z:
z;
z<
z=
0("
0!"
0x!
1r!
0+"
0$"
0|!
0/"
00"
01"
#83000
1%
0$
1I
0H
1J
0K
0>
1z!
1|!
11"
#86000
0"
0%
0~
0I
0J
1>
0L
0M
0N
0O
0P
0Q
0R
0S
0T
0U
0V
0W
1X
0Y
0Z
1[
0.
0/
00
01
02
03
04
05
06
07
08
09
1:
0;
0<
1=
#90000
b1011 #
b1001 !
b1010 #
1$
1"
1w!
0y!
1""
1H
1~
1K
0>
zL
zM
zN
zO
zP
zQ
zR
zS
zT
zU
zV
zW
zX
zY
zZ
z[
z.
z/
z0
z1
z2
z3
z4
z5
z6
z7
z8
z9
z:
z;
z<
z=
1x!
#93000
1%
0$
1I
0H
1J
0K
1>
1#"
0z!
1$"
10"
#96000
0"
0%
0~
0I
0J
0>
0L
0M
0N
0O
0P
0Q
0R
0S
0T
0U
0V
0W
1X
0Y
1Z
1[
0.
0/
00
01
02
03
04
05
06
07
08
09
1:
0;
1<
1=
#100000
1*
0)
b1011 !
b1010 !
b1011 #
1$
1"
1e
0f
1y!
0w!
1~!
1H
1~
1K
1>
1+"
0$"
1i!
1]!
1Y!
1S!
16!
13!
10!
1-!
1!!
1u
1r
1g
zL
zM
zN
zO
zP
zQ
zR
zS
zT
zU
zV
zW
zX
zY
zZ
z[
z.
z/
z0
z1
z2
z3
z4
z5
z6
z7
z8
z9
z:
z;
z<
z=
0;!
1K!
0#!
1v
1/"
00"
1m!
1o!
1p!
1k!
1M!
1E!
1A!
1"!
1*!
1&!
1}
0$!
1L!
1!"
0x!
1$"
10"
#103000
1%
0$
1I
0H
1J
0K
0>
1z!
0|!
01"
#106000
0"
0%
0~
0I
0J
1>
1L
1M
1N
1O
1P
1Q
1R
1S
1T
1U
1V
1W
1X
1Y
1Z
0[
1.
1/
10
11
12
13
14
15
16
17
18
19
1:
1;
1<
0=
#110000
b1111 #
b1101 #
b1011 !
b1100 #
1$
1"
1w!
0y!
0""
1)"
1H
1~
1K
0>
zL
zM
zN
zO
zP
zQ
zR
zS
zT
zU
zV
zW
zX
zY
zZ
z[
z.
z/
z0
z1
z2
z3
z4
z5
z6
z7
z8
z9
z:
z;
z<
z=
1x!
1|!
11"
#113000
1%
0$
1I
0H
1J
0K
1>
1*"
0#"
0z!
0+"
0/"
#116000
0"
0%
0~
0I
0J
0>
1L
1M
1N
1O
1P
1Q
1R
1S
1T
1U
1V
1W
1X
0Y
1Z
1[
1.
1/
10
11
12
13
14
15
16
17
18
19
1:
0;
1<
1=
#120000
b1111 !
b1101 !
b1100 !
b1101 #
1$
1"
1y!
0w!
0~!
1'"
1H
1~
1K
1>
zL
zM
zN
zO
zP
zQ
zR
zS
zT
zU
zV
zW
zX
zY
zZ
z[
z.
z/
z0
z1
z2
z3
z4
z5
z6
z7
z8
z9
z:
z;
z<
z=
1("
0!"
0x!
1+"
1/"
#123000
1%
0$
1I
0H
1J
0K
0>
1z!
0|!
01"
#126000
0"
0%
0~
0I
0J
1>
1L
1M
1N
1O
1P
1Q
1R
1S
1T
1U
1V
1W
1X
1Y
1Z
0[
1.
1/
10
11
12
13
14
15
16
17
18
19
1:
1;
1<
0=
#130000
b1111 #
b1101 !
b1110 #
1$
1"
1w!
0y!
1""
1H
1~
1K
0>
zL
zM
zN
zO
zP
zQ
zR
zS
zT
zU
zV
zW
zX
zY
zZ
z[
z.
z/
z0
z1
z2
z3
z4
z5
z6
z7
z8
z9
z:
z;
z<
z=
1x!
1|!
11"
#133000
1%
0$
1I
0H
1J
0K
1>
1#"
0z!
0$"
00"
#136000
0"
0%
0~
0I
0J
0>
1L
1M
1N
1O
1P
1Q
1R
1S
1T
1U
1V
1W
1X
1Y
0Z
1[
1.
1/
10
11
12
13
14
15
16
17
18
19
1:
1;
0<
1=
#140000
b1111 !
b1110 !
b1111 #
1$
1"
1y!
0w!
1~!
1H
1~
1K
1>
zL
zM
zN
zO
zP
zQ
zR
zS
zT
zU
zV
zW
zX
zY
zZ
z[
z.
z/
z0
z1
z2
z3
z4
z5
z6
z7
z8
z9
z:
z;
z<
z=
1!"
0x!
1$"
10"
#143000
1%
0$
1I
0H
1J
0K
0>
1z!
0|!
01"
#146000
0"
0%
0~
0I
0J
1>
1L
1M
1N
1O
1P
1Q
1R
1S
1T
1U
1V
1W
1X
1Y
1Z
0[
1.
1/
10
11
12
13
14
15
16
17
18
19
1:
1;
1<
0=
#150000
b11111 #
b10111 #
1)
b10011 #
b10001 #
b1111 !
b10000 #
1$
1"
1f
1w!
0y!
0""
0)"
0t!
1T!
1H
1~
1K
0>
1|!
zL
zM
zN
zO
zP
zQ
zR
zS
zT
zU
zV
zW
zX
zY
zZ
z[
z.
z/
z0
z1
z2
z3
z4
z5
z6
z7
z8
z9
z:
z;
z<
z=
11"
1x!
#153000
1%
0$
1I
0H
1J
0K
1>
0*"
0#"
0z!
0u!
1U!
#156000
0"
0%
0~
0I
0J
0>
1L
1M
1N
1O
1P
1Q
1R
1S
1T
1U
1V
1W
1X
1Y
1Z
1[
1.
1/
10
11
12
13
14
15
16
17
18
19
1:
1;
1<
1=
#160000
b11111 !
b10111 !
b10011 !
b10001 !
b10000 !
b10001 #
1$
1"
1y!
0w!
0~!
0'"
0q!
1V!
1H
1~
1K
1>
zL
zM
zN
zO
zP
zQ
zR
zS
zT
zU
zV
zW
zX
zY
zZ
z[
z.
z/
z0
z1
z2
z3
z4
z5
z6
z7
z8
z9
z:
z;
z<
z=
0("
0!"
0x!
0r!
1W!
#163000
1%
0$
1I
0H
1J
0K
0>
1z!
#166000
0"
0%
0~
0I
0J
1>
1L
1M
1N
1O
1P
1Q
1R
1S
1T
1U
1V
1W
1X
1Y
1Z
1[
1.
1/
10
11
12
13
14
15
16
17
18
19
1:
1;
1<
1=
#170000
b10011 #
b10001 !
b10010 #
1$
1"
1w!
0y!
1""
1H
1~
1K
0>
zL
zM
zN
zO
zP
zQ
zR
zS
zT
zU
zV
zW
zX
zY
zZ
z[
z.
z/
z0
z1
z2
z3
z4
z5
z6
z7
z8
z9
z:
z;
z<
z=
1x!
#173000
1%
0$
1I
0H
1J
0K
1>
1#"
0z!
#176000
0"
0%
0~
0I
0J
0>
1L
1M
1N
1O
1P
1Q
1R
1S
1T
1U
1V
1W
1X
1Y
1Z
1[
1.
1/
10
11
12
13
14
15
16
17
18
19
1:
1;
1<
1=
#180000
b10011 !
b10010 !
b10011 #
1$
1"
1y!
0w!
1~!
1H
1~
1K
1>
zL
zM
zN
zO
zP
zQ
zR
zS
zT
zU
zV
zW
zX
zY
zZ
z[
z.
z/
z0
z1
z2
z3
z4
z5
z6
z7
z8
z9
z:
z;
z<
z=
1!"
0x!
#183000
1%
0$
1I
0H
1J
0K
0>
1z!
#186000
0"
0%
0~
0I
0J
1>
1L
1M
1N
1O
1P
1Q
1R
1S
1T
1U
1V
1W
1X
1Y
1Z
1[
1.
1/
10
11
12
13
14
15
16
17
18
19
1:
1;
1<
1=
#190000
b10111 #
b10101 #
b10011 !
b10100 #
1$
1"
1w!
0y!
0""
1)"
1H
1~
1K
0>
zL
zM
zN
zO
zP
zQ
zR
zS
zT
zU
zV
zW
zX
zY
zZ
z[
z.
z/
z0
z1
z2
z3
z4
z5
z6
z7
z8
z9
z:
z;
z<
z=
1x!
#193000
1%
0$
1I
0H
1J
0K
1>
1*"
0#"
0z!
#196000
0"
0%
0~
0I
0J
0>
1L
1M
1N
1O
1P
1Q
1R
1S
1T
1U
1V
1W
1X
1Y
1Z
1[
1.
1/
10
11
12
13
14
15
16
17
18
19
1:
1;
1<
1=
#200000
1+
0*
0)
b10111 !
b10101 !
b10100 !
b10101 #
1$
1"
1c
0e
0f
1y!
0w!
0~!
1'"
1H
1~
1K
1>
1%"
1{!
0+"
0v!
0i!
0]!
0S!
06!
03!
00!
0-!
0!!
0u
0r
0g
zL
zM
zN
zO
zP
zQ
zR
zS
zT
zU
zV
zW
zX
zY
zZ
z[
z.
z/
z0
z1
z2
z3
z4
z5
z6
z7
z8
z9
z:
z;
z<
z=
0&"
0}!
1;!
0K!
1#!
0v
00"
01"
0/"
0."
0m!
0o!
0k!
0M!
0E!
0A!
0"!
0*!
0&!
0}
1$!
1/"
10"
0L!
1("
0!"
0x!
1+"
0%"
0$"
0|!
0{!
0-"
1&"
1}!
0/"
1-"
1."
1/"
00"
0."
#203000
1%
0$
1I
0H
1J
0K
0>
1z!
#206000
0"
0%
0~
0I
0J
1>
0L
0M
0N
0O
0P
0Q
0R
0S
0T
0U
0V
1W
0X
1Y
0Z
0[
0.
0/
00
01
02
03
04
05
06
07
08
19
0:
1;
0<
0=
#210000
b10111 #
b10101 !
b10110 #
1$
1"
1w!
0y!
1""
1H
1~
1K
0>
zL
zM
zN
zO
zP
zQ
zR
zS
zT
zU
zV
zW
zX
zY
zZ
z[
z.
z/
z0
z1
z2
z3
z4
z5
z6
z7
z8
z9
z:
z;
z<
z=
1x!
1|!
11"
#213000
1%
0$
1I
0H
1J
0K
1>
1#"
0z!
1{!
0}!
01"
10"
#216000
0"
0%
0~
0I
0J
0>
0L
0M
0N
0O
0P
0Q
0R
0S
0T
0U
0V
1W
0X
1Y
1Z
0[
0.
0/
00
01
02
03
04
05
06
07
08
19
0:
1;
1<
0=
#220000
b10111 !
b10110 !
b10111 #
1$
1"
1y!
0w!
1~!
1H
1~
1K
1>
zL
zM
zN
zO
zP
zQ
zR
zS
zT
zU
zV
zW
zX
zY
zZ
z[
z.
z/
z0
z1
z2
z3
z4
z5
z6
z7
z8
z9
z:
z;
z<
z=
1!"
0x!
1$"
0|!
0{!
0&"
1}!
00"
0-"
1&"
0/"
10"
1-"
1."
1/"
0."
#223000
1%
0$
1I
0H
1J
0K
0>
1z!
#226000
0"
0%
0~
0I
0J
1>
0L
0M
0N
0O
0P
0Q
0R
0S
0T
0U
0V
1W
0X
1Y
1Z
0[
0.
0/
00
01
02
03
04
05
06
07
08
19
0:
1;
1<
0=
#230000
b11111 #
b11011 #
b11001 #
b10111 !
b11000 #
1$
1"
1w!
0y!
0""
0)"
1t!
1H
1~
1K
0>
zL
zM
zN
zO
zP
zQ
zR
zS
zT
zU
zV
zW
zX
zY
zZ
z[
z.
z/
z0
z1
z2
z3
z4
z5
z6
z7
z8
z9
z:
z;
z<
z=
1x!
1|!
11"
#233000
1%
0$
1I
0H
1J
0K
1>
0*"
0#"
0z!
1u!
1,"
1%"
1{!
0-"
0&"
0}!
0/"
00"
01"
1."
1/"
10"
#236000
0"
0%
0~
0I
0J
0>
0L
0M
0N
0O
0P
0Q
0R
0S
0T
0U
0V
1W
1X
1Y
1Z
0[
0.
0/
00
01
02
03
04
05
06
07
08
19
1:
1;
1<
0=
#240000
b11111 !
b11011 !
b11001 !
b11000 !
b11001 #
1$
1"
1y!
0w!
0~!
0'"
1q!
1H
1~
1K
1>
zL
zM
zN
zO
zP
zQ
zR
zS
zT
zU
zV
zW
zX
zY
zZ
z[
z.
z/
z0
z1
z2
z3
z4
z5
z6
z7
z8
z9
z:
z;
z<
z=
0("
0!"
0x!
1r!
0,"
0+"
0%"
0$"
0|!
0{!
1v!
1-"
1&"
1}!
0."
1."
0/"
00"
#243000
1%
0$
1I
0H
1J
0K
0>
1z!
#246000
0"
0%
0~
0I
0J
1>
0L
0M
0N
0O
0P
0Q
0R
0S
0T
0U
0V
1W
1X
0Y
0Z
0[
0.
0/
00
01
02
03
04
05
06
07
08
19
1:
0;
0<
0=
#250000
1)
b11011 #
b11001 !
b11010 #
1$
1"
1f
1w!
0y!
1""
1H
1~
1K
0>
1|!
zL
zM
zN
zO
zP
zQ
zR
zS
zT
zU
zV
zW
zX
zY
zZ
z[
z.
z/
z0
z1
z2
z3
z4
z5
z6
z7
z8
z9
z:
z;
z<
z=
11"
1x!
#253000
1%
0$
1I
0H
1J
0K
1>
1#"
0z!
1$"
1{!
0}!
10"
01"
0&"
00"
1/"
#256000
0"
0%
0~
0I
0J
0>
0L
0M
0N
0O
0P
0Q
0R
0S
0T
0U
0V
1W
1X
1Y
0Z
0[
0.
0/
00
01
02
03
04
05
06
07
08
19
1:
1;
0<
0=
#260000
b11011 !
b11010 !
b11011 #
1$
1"
1y!
0w!
1~!
1H
1~
1K
1>
zL
zM
zN
zO
zP
zQ
zR
zS
zT
zU
zV
zW
zX
zY
zZ
z[
z.
z/
z0
z1
z2
z3
z4
z5
z6
z7
z8
z9
z:
z;
z<
z=
1!"
0x!
0|!
0{!
1}!
1&"
10"
0/"
#263000
1%
0$
1I
0H
1J
0K
0>
1z!
1|!
11"
#266000
0"
0%
0~
0I
0J
1>
0L
0M
0N
0O
0P
0Q
0R
0S
0T
0U
0V
1W
1X
0Y
1Z
1[
0.
0/
00
01
02
03
04
05
06
07
08
19
1:
0;
1<
1=
#270000
b11111 #
b11101 #
b11011 !
b11100 #
1$
1"
1w!
0y!
0""
1)"
1H
1~
1K
0>
zL
zM
zN
zO
zP
zQ
zR
zS
zT
zU
zV
zW
zX
zY
zZ
z[
z.
z/
z0
z1
z2
z3
z4
z5
z6
z7
z8
z9
z:
z;
z<
z=
1x!
#273000
1%
0$
1I
0H
1J
0K
1>
1*"
0#"
0z!
1+"
1%"
1{!
0&"
0}!
1/"
00"
01"
0-"
0/"
10"
0."
#276000
0"
0%
0~
0I
0J
0>
0L
0M
0N
0O
0P
0Q
0R
0S
0T
0U
0V
1W
0X
0Y
1Z
0[
0.
0/
00
01
02
03
04
05
06
07
08
19
0:
0;
1<
0=
#280000
b11111 !
b11101 !
b11100 !
b11101 #
1$
1"
1y!
0w!
0~!
1'"
1H
1~
1K
1>
zL
zM
zN
zO
zP
zQ
zR
zS
zT
zU
zV
zW
zX
zY
zZ
z[
z.
z/
z0
z1
z2
z3
z4
z5
z6
z7
z8
z9
z:
z;
z<
z=
1("
0!"
0x!
0%"
0$"
0|!
0{!
1&"
1}!
1-"
1/"
00"
1."
#283000
1%
0$
1I
0H
1J
0K
0>
1z!
1|!
11"
