A3/simulation/qsim/A3.msim.vcd
$comment
	File created using the following command:
		vcd file A3.msim.vcd -direction
$end
$date
	Thu Nov 23 16:34:10 2017
$end
$version
	ModelSim Version 10.1d
$end
$timescale
	1ps
$end
$scope module A3_vlg_vec_tst $end
$var reg 8 ! addr [7:0] $end
$var reg 1 " CLK $end
$var reg 16 # dataIn [15:0] $end
$var reg 1 $ GN $end
$var reg 1 % inclock $end
$var reg 1 & outclock $end
$var reg 1 ' wren $end
$var wire 1 ( dataOut [15] $end
$var wire 1 ) dataOut [14] $end
$var wire 1 * dataOut [13] $end
$var wire 1 + dataOut [12] $end
$var wire 1 , dataOut [11] $end
$var wire 1 - dataOut [10] $end
$var wire 1 . dataOut [9] $end
$var wire 1 / dataOut [8] $end
$var wire 1 0 dataOut [7] $end
$var wire 1 1 dataOut [6] $end
$var wire 1 2 dataOut [5] $end
$var wire 1 3 dataOut [4] $end
$var wire 1 4 dataOut [3] $end
$var wire 1 5 dataOut [2] $end
$var wire 1 6 dataOut [1] $end
$var wire 1 7 dataOut [0] $end
$var wire 1 8 sampler $end
$scope module i1 $end
$var wire 1 9 gnd $end
$var wire 1 : vcc $end
$var wire 1 ; unknown $end
$var tri1 1 < devclrn $end
$var tri1 1 = devpor $end
$var tri1 1 > devoe $end
$var wire 1 ? CLK~input_o $end
$var wire 1 @ CLK~inputclkctrl_outclk $end
$var wire 1 A dataOut[15]~output_o $end
$var wire 1 B dataOut[14]~output_o $end
$var wire 1 C dataOut[13]~output_o $end
$var wire 1 D dataOut[12]~output_o $end
$var wire 1 E dataOut[11]~output_o $end
$var wire 1 F dataOut[10]~output_o $end
$var wire 1 G dataOut[9]~output_o $end
$var wire 1 H dataOut[8]~output_o $end
$var wire 1 I dataOut[7]~output_o $end
$var wire 1 J dataOut[6]~output_o $end
$var wire 1 K dataOut[5]~output_o $end
$var wire 1 L dataOut[4]~output_o $end
$var wire 1 M dataOut[3]~output_o $end
$var wire 1 N dataOut[2]~output_o $end
$var wire 1 O dataOut[1]~output_o $end
$var wire 1 P dataOut[0]~output_o $end
$var wire 1 Q wren~input_o $end
$var wire 1 R inclock~input_o $end
$var wire 1 S inclock~inputclkctrl_outclk $end
$var wire 1 T outclock~input_o $end
$var wire 1 U outclock~inputclkctrl_outclk $end
$var wire 1 V dataIn[0]~input_o $end
$var wire 1 W inst|inst1|19~q $end
$var wire 1 X addr[0]~input_o $end
$var wire 1 Y inst7|inst|19~feeder_combout $end
$var wire 1 Z inst7|inst|19~q $end
$var wire 1 [ addr[1]~input_o $end
$var wire 1 \ inst7|inst|18~q $end
$var wire 1 ] addr[2]~input_o $end
$var wire 1 ^ inst7|inst|17~feeder_combout $end
$var wire 1 _ inst7|inst|17~q $end
$var wire 1 ` addr[3]~input_o $end
$var wire 1 a inst7|inst|16~feeder_combout $end
$var wire 1 b inst7|inst|16~q $end
$var wire 1 c addr[4]~input_o $end
$var wire 1 d inst7|inst|15~feeder_combout $end
$var wire 1 e inst7|inst|15~q $end
$var wire 1 f addr[5]~input_o $end
$var wire 1 g inst7|inst|14~feeder_combout $end
$var wire 1 h inst7|inst|14~q $end
$var wire 1 i addr[6]~input_o $end
$var wire 1 j inst7|inst|13~feeder_combout $end
$var wire 1 k inst7|inst|13~q $end
$var wire 1 l addr[7]~input_o $end
$var wire 1 m inst7|inst|12~q $end
$var wire 1 n dataIn[1]~input_o $end
$var wire 1 o inst|inst1|18~feeder_combout $end
$var wire 1 p inst|inst1|18~q $end
$var wire 1 q dataIn[2]~input_o $end
$var wire 1 r inst|inst1|17~feeder_combout $end
$var wire 1 s inst|inst1|17~q $end
$var wire 1 t dataIn[3]~input_o $end
$var wire 1 u inst|inst1|16~feeder_combout $end
$var wire 1 v inst|inst1|16~q $end
$var wire 1 w dataIn[4]~input_o $end
$var wire 1 x inst|inst1|15~feeder_combout $end
$var wire 1 y inst|inst1|15~q $end
$var wire 1 z dataIn[5]~input_o $end
$var wire 1 { inst|inst1|14~feeder_combout $end
$var wire 1 | inst|inst1|14~q $end
$var wire 1 } dataIn[6]~input_o $end
$var wire 1 ~ inst|inst1|13~feeder_combout $end
$var wire 1 !! inst|inst1|13~q $end
$var wire 1 "! dataIn[7]~input_o $end
$var wire 1 #! inst|inst1|12~q $end
$var wire 1 $! dataIn[8]~input_o $end
$var wire 1 %! inst|inst2|19~feeder_combout $end
$var wire 1 &! inst|inst2|19~q $end
$var wire 1 '! dataIn[9]~input_o $end
$var wire 1 (! inst|inst2|18~q $end
$var wire 1 )! dataIn[10]~input_o $end
$var wire 1 *! inst|inst2|17~feeder_combout $end
$var wire 1 +! inst|inst2|17~q $end
$var wire 1 ,! dataIn[11]~input_o $end
$var wire 1 -! inst|inst2|16~feeder_combout $end
$var wire 1 .! inst|inst2|16~q $end
$var wire 1 /! dataIn[12]~input_o $end
$var wire 1 0! inst|inst2|15~feeder_combout $end
$var wire 1 1! inst|inst2|15~q $end
$var wire 1 2! dataIn[13]~input_o $end
$var wire 1 3! inst|inst2|14~q $end
$var wire 1 4! dataIn[14]~input_o $end
$var wire 1 5! inst|inst2|13~feeder_combout $end
$var wire 1 6! inst|inst2|13~q $end
$var wire 1 7! dataIn[15]~input_o $end
$var wire 1 8! inst|inst2|12~q $end
$var wire 1 9! GN~input_o $end
$var wire 1 :! inst5|altsyncram_component|auto_generated|q_a [15] $end
$var wire 1 ;! inst5|altsyncram_component|auto_generated|q_a [14] $end
$var wire 1 <! inst5|altsyncram_component|auto_generated|q_a [13] $end
$var wire 1 =! inst5|altsyncram_component|auto_generated|q_a [12] $end
$var wire 1 >! inst5|altsyncram_component|auto_generated|q_a [11] $end
$var wire 1 ?! inst5|altsyncram_component|auto_generated|q_a [10] $end
$var wire 1 @! inst5|altsyncram_component|auto_generated|q_a [9] $end
$var wire 1 A! inst5|altsyncram_component|auto_generated|q_a [8] $end
$var wire 1 B! inst5|altsyncram_component|auto_generated|q_a [7] $end
$var wire 1 C! inst5|altsyncram_component|auto_generated|q_a [6] $end
$var wire 1 D! inst5|altsyncram_component|auto_generated|q_a [5] $end
$var wire 1 E! inst5|altsyncram_component|auto_generated|q_a [4] $end
$var wire 1 F! inst5|altsyncram_component|auto_generated|q_a [3] $end
$var wire 1 G! inst5|altsyncram_component|auto_generated|q_a [2] $end
$var wire 1 H! inst5|altsyncram_component|auto_generated|q_a [1] $end
$var wire 1 I! inst5|altsyncram_component|auto_generated|q_a [0] $end
$var wire 1 J! inst5|altsyncram_component|auto_generated|ram_block1a0_PORTADATAOUT_bus [17] $end
$var wire 1 K! inst5|altsyncram_component|auto_generated|ram_block1a0_PORTADATAOUT_bus [16] $end
$var wire 1 L! inst5|altsyncram_component|auto_generated|ram_block1a0_PORTADATAOUT_bus [15] $end
$var wire 1 M! inst5|altsyncram_component|auto_generated|ram_block1a0_PORTADATAOUT_bus [14] $end
$var wire 1 N! inst5|altsyncram_component|auto_generated|ram_block1a0_PORTADATAOUT_bus [13] $end
$var wire 1 O! inst5|altsyncram_component|auto_generated|ram_block1a0_PORTADATAOUT_bus [12] $end
$var wire 1 P! inst5|altsyncram_component|auto_generated|ram_block1a0_PORTADATAOUT_bus [11] $end
$var wire 1 Q! inst5|altsyncram_component|auto_generated|ram_block1a0_PORTADATAOUT_bus [10] $end
$var wire 1 R! inst5|altsyncram_component|auto_generated|ram_block1a0_PORTADATAOUT_bus [9] $end
$var wire 1 S! inst5|altsyncram_component|auto_generated|ram_block1a0_PORTADATAOUT_bus [8] $end
$var wire 1 T! inst5|altsyncram_component|auto_generated|ram_block1a0_PORTADATAOUT_bus [7] $end
$var wire 1 U! inst5|altsyncram_component|auto_generated|ram_block1a0_PORTADATAOUT_bus [6] $end
$var wire 1 V! inst5|altsyncram_component|auto_generated|ram_block1a0_PORTADATAOUT_bus [5] $end
$var wire 1 W! inst5|altsyncram_component|auto_generated|ram_block1a0_PORTADATAOUT_bus [4] $end
$var wire 1 X! inst5|altsyncram_component|auto_generated|ram_block1a0_PORTADATAOUT_bus [3] $end
$var wire 1 Y! inst5|altsyncram_component|auto_generated|ram_block1a0_PORTADATAOUT_bus [2] $end
$var wire 1 Z! inst5|altsyncram_component|auto_generated|ram_block1a0_PORTADATAOUT_bus [1] $end
$var wire 1 [! inst5|altsyncram_component|auto_generated|ram_block1a0_PORTADATAOUT_bus [0] $end
$upscope $end
$upscope $end
$enddefinitions $end
#0
$dumpvars
b0 !
1"
b110 #
0$
0%
1&
0'
07
06
05
04
03
02
01
00
0/
0.
0-
0,
0+
0*
0)
0(
x8
09
1:
x;
1<
1=
1>
1?
1@
0A
0B
0C
0D
0E
0F
0G
0H
0I
0J
0K
0L
0M
0N
0O
0P
0Q
0R
0S
1T
1U
0V
0W
0X
0Y
0Z
0[
0\
0]
0^
0_
0`
0a
0b
0c
0d
0e
0f
0g
0h
0i
0j
0k
0l
0m
1n
1o
0p
1q
1r
0s
0t
0u
0v
0w
0x
0y
0z
0{
0|
0}
0~
0!!
0"!
0#!
0$!
0%!
0&!
0'!
0(!
0)!
0*!
0+!
0,!
0-!
0.!
0/!
00!
01!
02!
03!
04!
05!
06!
07!
08!
09!
0I!
0H!
0G!
0F!
0E!
0D!
0C!
0B!
0A!
0@!
0?!
0>!
0=!
0<!
0;!
0:!
0[!
0Z!
0Y!
0X!
0W!
0V!
0U!
0T!
0S!
0R!
0Q!
0P!
0O!
0N!
0M!
0L!
0K!
0J!
$end
#1000
1$
1%
0&
1'
19!
1R
0T
1Q
1S
0U
08
zA
zB
zC
zD
zE
zF
zG
zH
zI
zJ
zK
zL
zM
zN
zO
zP
z(
z)
z*
z+
z,
z-
z.
z/
z0
z1
z2
z3
z4
z5
z6
z7
#26000
0$
0%
1&
0'
09!
0R
1T
0Q
0S
1U
18
0A
0B
0C
0D
0E
0F
0G
0H
0I
0J
0K
0L
0M
0N
0O
0P
0(
0)
0*
0+
0,
0-
0.
0/
00
01
02
03
04
05
06
07
#40000
0"
0?
0@
08
#50000
b111 #
1"
1V
1?
1@
18
1s
1p
1W
#51000
1$
1%
0&
1'
19!
1R
0T
1Q
1S
0U
08
zA
zB
zC
zD
zE
zF
zG
zH
zI
zJ
zK
zL
zM
zN
zO
zP
z(
z)
z*
z+
z,
z-
z.
z/
z0
z1
z2
z3
z4
z5
z6
z7
#76000
0$
0%
1&
0'
09!
0R
1T
0Q
0S
1U
18
0A
0B
0C
0D
0E
0F
0G
0H
0I
0J
0K
0L
0M
0N
0O
0P
0(
0)
0*
0+
0,
0-
0.
0/
00
01
02
03
04
05
06
07
1[!
1Z!
1Y!
1I!
1H!
1G!
1P
1O
1N
17
16
15
#90000
0"
0?
0@
08
#100000
b1111 #
b1011 #
b1001 #
b1000 #
1"
0V
0n
0q
1t
1?
1@
18
0o
0r
1u
0W
#101000
1$
1%
0&
1'
19!
1R
0T
1Q
1S
0U
08
zA
zB
zC
zD
zE
zF
zG
zH
zI
zJ
zK
zL
zM
zN
zO
zP
z(
z)
z*
z+
z,
z-
z.
z/
z0
z1
z2
z3
z4
z5
z6
z7
#126000
0$
0%
1&
0'
09!
0R
1T
0Q
0S
1U
18
0A
0B
0C
0D
0E
0F
0G
0H
0I
0J
0K
0L
0M
1N
1O
1P
0(
0)
0*
0+
0,
0-
0.
0/
00
01
02
03
04
15
16
17
0[!
0I!
0P
07
#140000
0"
0?
0@
08
#150000
b1001 #
1"
1V
1?
1@
18
1v
0s
0p
1W
#151000
1$
1%
0&
1'
19!
1R
0T
1Q
1S
0U
08
zA
zB
zC
zD
zE
zF
zG
zH
zI
zJ
zK
zL
zM
zN
zO
zP
z(
z)
z*
z+
z,
z-
z.
z/
z0
z1
z2
z3
z4
z5
z6
z7
#176000
0$
0%
1&
0'
09!
0R
1T
0Q
0S
1U
18
0A
0B
0C
0D
0E
0F
0G
0H
0I
0J
0K
0L
0M
1N
1O
0P
0(
0)
0*
0+
0,
0-
0.
0/
00
01
02
03
04
15
16
07
1[!
0Z!
0Y!
1X!
1I!
0H!
0G!
1F!
1P
0O
0N
1M
17
06
05
14
#190000
0"
0?
0@
08
#200000
b1011 #
b1010 #
1"
0V
1n
1?
1@
18
1o
0W
#201000
1$
1%
0&
1'
19!
1R
0T
1Q
1S
0U
08
zA
zB
zC
zD
zE
zF
zG
zH
zI
zJ
zK
zL
zM
zN
zO
zP
z(
z)
z*
z+
z,
z-
z.
z/
z0
z1
z2
z3
z4
z5
z6
z7
#226000
0$
0%
1&
0'
09!
0R
1T
0Q
0S
1U
18
0A
0B
0C
0D
0E
0F
0G
0H
0I
0J
0K
0L
1M
0N
0O
1P
0(
0)
0*
0+
0,
0-
0.
0/
00
01
02
03
14
05
06
17
0[!
0I!
0P
07
#240000
0"
0?
0@
08
#250000
b1011 #
1"
1V
1?
1@
18
1p
1W
#251000
1$
1%
0&
1'
19!
1R
0T
1Q
1S
0U
08
zA
zB
zC
zD
zE
zF
zG
zH
zI
zJ
zK
zL
zM
zN
zO
zP
z(
z)
z*
z+
z,
z-
z.
z/
z0
z1
z2
z3
z4
z5
z6
z7
#276000
0$
0%
1&
0'
09!
0R
1T
0Q
0S
1U
18
0A
0B
0C
0D
0E
0F
0G
0H
0I
0J
0K
0L
1M
0N
0O
0P
0(
0)
0*
0+
0,
0-
0.
0/
00
01
02
03
14
05
06
07
1[!
1Z!
1I!
1H!
1P
1O
17
16
#290000
0"
0?
0@
08
#300000
b1111 #
b1101 #
b1100 #
1"
0V
0n
1q
1?
1@
18
0o
1r
0W
#301000
1$
1%
0&
1'
19!
1R
0T
1Q
1S
0U
08
zA
zB
zC
zD
zE
zF
zG
zH
zI
zJ
zK
zL
zM
zN
zO
zP
z(
z)
z*
z+
z,
z-
z.
z/
z0
z1
z2
z3
z4
z5
z6
z7
#326000
0$
0%
1&
0'
09!
0R
1T
0Q
0S
1U
18
0A
0B
0C
0D
0E
0F
0G
0H
0I
0J
0K
0L
1M
0N
1O
1P
0(
0)
0*
0+
0,
0-
0.
0/
00
01
02
03
14
05
16
17
0[!
0I!
0P
07
#340000
0"
0?
0@
08
#350000
b1101 #
1"
1V
1?
1@
18
1s
0p
1W
#351000
1$
1%
0&
1'
19!
1R
0T
1Q
1S
0U
08
zA
zB
zC
zD
zE
zF
zG
zH
zI
zJ
zK
zL
zM
zN
zO
zP
z(
z)
z*
z+
z,
z-
z.
z/
z0
z1
z2
z3
z4
z5
z6
z7
#376000
0$
0%
1&
0'
09!
0R
1T
0Q
0S
1U
18
0A
0B
0C
0D
0E
0F
0G
0H
0I
0J
0K
0L
1M
0N
1O
0P
0(
0)
0*
0+
0,
0-
0.
0/
00
01
02
03
14
05
16
07
1[!
0Z!
1Y!
1I!
0H!
1G!
1P
0O
1N
17
06
15
#390000
0"
0?
0@
08
#400000
b1111 #
b1110 #
1"
0V
1n
1?
1@
18
1o
0W
#401000
1$
1%
0&
1'
19!
1R
0T
1Q
1S
0U
08
zA
zB
zC
zD
zE
zF
zG
zH
zI
zJ
zK
zL
zM
zN
zO
zP
z(
z)
z*
z+
z,
z-
z.
z/
z0
z1
z2
z3
z4
z5
z6
z7
#426000
0$
0%
1&
0'
09!
0R
1T
0Q
0S
1U
18
0A
0B
0C
0D
0E
0F
0G
0H
0I
0J
0K
0L
1M
1N
0O
1P
0(
0)
0*
0+
0,
0-
0.
0/
00
01
02
03
14
15
06
17
0[!
0I!
0P
07
#440000
0"
0?
0@
08
#450000
b1111 #
1"
1V
1?
1@
18
1p
1W
#451000
1$
1%
0&
1'
19!
1R
0T
1Q
1S
0U
08
zA
zB
zC
zD
zE
zF
zG
zH
zI
zJ
zK
zL
zM
zN
zO
zP
z(
z)
z*
z+
z,
z-
z.
z/
z0
z1
z2
z3
z4
z5
z6
z7
#476000
0$
0%
1&
0'
09!
0R
1T
0Q
0S
1U
18
0A
0B
0C
0D
0E
0F
0G
0H
0I
0J
0K
0L
1M
1N
0O
0P
0(
0)
0*
0+
0,
0-
0.
0/
00
01
02
03
14
15
06
07
1[!
1Z!
1I!
1H!
1P
1O
17
16
#490000
0"
0?
0@
08
#500000
b1 !
b11111 #
b10111 #
b10011 #
b10001 #
b10000 #
1"
0V
0n
0q
0t
1w
1X
1?
1@
18
0o
0r
0u
1x
1Y
0W
#501000
1$
1%
0&
1'
19!
1R
0T
1Q
1S
0U
08
zA
zB
zC
zD
zE
zF
zG
zH
zI
zJ
zK
zL
zM
zN
zO
zP
z(
z)
z*
z+
z,
z-
z.
z/
z0
z1
z2
z3
z4
z5
z6
z7
#526000
0$
0%
1&
0'
09!
0R
1T
0Q
0S
1U
18
0A
0B
0C
0D
0E
0F
0G
0H
0I
0J
0K
0L
1M
1N
1O
1P
0(
0)
0*
0+
0,
0-
0.
0/
00
01
02
03
14
15
16
17
0[!
0I!
0P
07
#540000
0"
0?
0@
08
#550000
b10001 #
1"
1V
1?
1@
18
1y
0v
0s
0p
1Z
1W
#551000
1$
1%
0&
1'
19!
1R
0T
1Q
1S
0U
08
zA
zB
zC
zD
zE
zF
zG
zH
zI
zJ
zK
zL
zM
zN
zO
zP
z(
z)
z*
z+
z,
z-
z.
z/
z0
z1
z2
z3
z4
z5
z6
z7
#576000
0$
0%
1&
0'
09!
0R
1T
0Q
0S
1U
18
0A
0B
0C
0D
0E
0F
0G
0H
0I
0J
0K
0L
1M
1N
1O
0P
0(
0)
0*
0+
0,
0-
0.
0/
00
01
02
03
14
15
16
07
1[!
0Z!
0Y!
0X!
1W!
1I!
0H!
0G!
0F!
1E!
1P
0O
0N
0M
1L
17
06
05
04
13
#590000
0"
0?
0@
08
#600000
b10011 #
b10010 #
1"
0V
1n
1?
1@
18
1o
0W
#601000
1$
1%
0&
1'
19!
1R
0T
1Q
1S
0U
08
zA
zB
zC
zD
zE
zF
zG
zH
zI
zJ
zK
zL
zM
zN
zO
zP
z(
z)
z*
z+
z,
z-
z.
z/
z0
z1
z2
z3
z4
z5
z6
z7
#626000
0$
0%
1&
0'
09!
0R
1T
0Q
0S
1U
18
0A
0B
0C
0D
0E
0F
0G
0H
0I
0J
0K
1L
0M
0N
0O
1P
0(
0)
0*
0+
0,
0-
0.
0/
00
01
02
13
04
05
06
17
0[!
0I!
0P
07
#640000
0"
0?
0@
08
#650000
b10011 #
1"
1V
1?
1@
18
1p
1W
#651000
1$
1%
0&
1'
19!
1R
0T
1Q
1S
0U
08
zA
zB
zC
zD
zE
zF
zG
zH
zI
zJ
zK
zL
zM
zN
zO
zP
z(
z)
z*
z+
z,
z-
z.
z/
z0
z1
z2
z3
z4
z5
z6
z7
#676000
0$
0%
1&
0'
09!
0R
1T
0Q
0S
1U
18
0A
0B
0C
0D
0E
0F
0G
0H
0I
0J
0K
1L
0M
0N
0O
0P
0(
0)
0*
0+
0,
0-
0.
0/
00
01
02
13
04
05
06
07
1[!
1Z!
1I!
1H!
1P
1O
17
16
#690000
0"
0?
0@
08
#700000
b10111 #
b10101 #
b10100 #
1"
0V
0n
1q
1?
1@
18
0o
1r
0W
#701000
1$
1%
0&
1'
19!
1R
0T
1Q
1S
0U
08
zA
zB
zC
zD
zE
zF
zG
zH
zI
zJ
zK
zL
zM
zN
zO
zP
z(
z)
z*
z+
z,
z-
z.
z/
z0
z1
z2
z3
z4
z5
z6
z7
#726000
0$
0%
1&
0'
09!
0R
1T
0Q
0S
1U
18
0A
0B
0C
0D
0E
0F
0G
0H
0I
0J
0K
1L
0M
0N
1O
1P
0(
0)
0*
0+
0,
0-
0.
0/
00
01
02
13
04
05
16
17
0[!
0I!
0P
07
#740000
0"
0?
0@
08
#750000
b10101 #
1"
1V
1?
1@
18
1s
0p
1W
#751000
1$
1%
0&
1'
19!
1R
0T
1Q
1S
0U
08
zA
zB
zC
zD
zE
zF
zG
zH
zI
zJ
zK
zL
zM
zN
zO
zP
z(
z)
z*
z+
z,
z-
z.
z/
z0
z1
z2
z3
z4
z5
z6
z7
#776000
0$
0%
1&
0'
09!
0R
1T
0Q
0S
1U
18
0A
0B
0C
0D
0E
0F
0G
0H
0I
0J
0K
1L
0M
0N
1O
0P
0(
0)
0*
0+
0,
0-
0.
0/
00
01
02
13
04
05
16
07
1[!
0Z!
1Y!
1I!
0H!
1G!
1P
0O
1N
17
06
15
#790000
0"
0?
0@
08
#800000
b10111 #
b10110 #
1"
0V
1n
1?
1@
18
1o
0W
#801000
1$
1%
0&
1'
19!
1R
0T
1Q
1S
0U
08
zA
zB
zC
zD
zE
zF
zG
zH
zI
zJ
zK
zL
zM
zN
zO
zP
z(
z)
z*
z+
z,
z-
z.
z/
z0
z1
z2
z3
z4
z5
z6
z7
#826000
0$
0%
1&
0'
09!
0R
1T
0Q
0S
1U
18
0A
0B
0C
0D
0E
0F
0G
0H
0I
0J
0K
1L
0M
1N
0O
1P
0(
0)
0*
0+
0,
0-
0.
0/
00
01
02
13
04
15
06
17
0[!
0I!
0P
07
#840000
0"
0?
0@
08
#850000
b10111 #
1"
1V
1?
1@
18
1p
1W
#851000
1$
1%
0&
1'
19!
1R
0T
1Q
1S
0U
08
zA
zB
zC
zD
zE
zF
zG
zH
zI
zJ
zK
zL
zM
zN
zO
zP
z(
z)
z*
z+
z,
z-
z.
z/
z0
z1
z2
z3
z4
z5
z6
z7
#876000
0$
0%
1&
0'
09!
0R
1T
0Q
0S
1U
18
0A
0B
0C
0D
0E
0F
0G
0H
0I
0J
0K
1L
0M
1N
0O
0P
0(
0)
0*
0+
0,
0-
0.
0/
00
01
02
13
04
15
06
07
1[!
1Z!
1I!
1H!
1P
1O
17
16
#890000
0"
0?
0@
08
#900000
b11111 #
b11011 #
b11001 #
b11000 #
1"
0V
0n
0q
1t
1?
1@
18
0o
0r
1u
0W
#901000
1$
1%
0&
1'
19!
1R
0T
1Q
1S
0U
08
zA
zB
zC
zD
zE
zF
zG
zH
zI
zJ
zK
zL
zM
zN
zO
zP
z(
z)
z*
z+
z,
z-
z.
z/
z0
z1
z2
z3
z4
z5
z6
z7
#926000
0$
0%
1&
0'
09!
0R
1T
0Q
0S
1U
18
0A
0B
0C
0D
0E
0F
0G
0H
0I
0J
0K
1L
0M
1N
1O
1P
0(
0)
0*
0+
0,
0-
0.
0/
00
01
02
13
04
15
16
17
0[!
0I!
0P
07
#940000
0"
0?
0@
08
#950000
b11001 #
1"
1V
1?
1@
18
1v
0s
0p
1W
#951000
1$
1%
0&
1'
19!
1R
0T
1Q
1S
0U
08
zA
zB
zC
zD
zE
zF
zG
zH
zI
zJ
zK
zL
zM
zN
zO
zP
z(
z)
z*
z+
z,
z-
z.
z/
z0
z1
z2
z3
z4
z5
z6
z7
#976000
0$
0%
1&
0'
09!
0R
1T
0Q
0S
1U
18
0A
0B
0C
0D
0E
0F
0G
0H
0I
0J
0K
1L
0M
1N
1O
0P
0(
0)
0*
0+
0,
0-
0.
0/
00
01
02
13
04
15
16
07
1[!
0Z!
0Y!
1X!
1I!
0H!
0G!
1F!
1P
0O
0N
1M
17
06
05
14
#990000
0"
0?
0@
08
