A3/simulation/qsim/A3.msim.vcd
$comment
	File created using the following command:
		vcd file A3.msim.vcd -direction
$end
$date
	Thu Nov 23 12:28:43 2017
$end
$version
	ModelSim Version 10.1d
$end
$timescale
	1ps
$end
$scope module A3_vlg_vec_tst $end
$var reg 8 ! addr [7:0] $end
$var reg 1 " CLK $end
$var reg 16 # dataIn [15:0] $end
$var reg 1 $ GN $end
$var reg 1 % inclock $end
$var reg 1 & outclock $end
$var reg 1 ' wren $end
$var wire 1 ( dataOut [15] $end
$var wire 1 ) dataOut [14] $end
$var wire 1 * dataOut [13] $end
$var wire 1 + dataOut [12] $end
$var wire 1 , dataOut [11] $end
$var wire 1 - dataOut [10] $end
$var wire 1 . dataOut [9] $end
$var wire 1 / dataOut [8] $end
$var wire 1 0 dataOut [7] $end
$var wire 1 1 dataOut [6] $end
$var wire 1 2 dataOut [5] $end
$var wire 1 3 dataOut [4] $end
$var wire 1 4 dataOut [3] $end
$var wire 1 5 dataOut [2] $end
$var wire 1 6 dataOut [1] $end
$var wire 1 7 dataOut [0] $end
$var wire 1 8 sampler $end
$scope module i1 $end
$var wire 1 9 gnd $end
$var wire 1 : vcc $end
$var wire 1 ; unknown $end
$var tri1 1 < devclrn $end
$var tri1 1 = devpor $end
$var tri1 1 > devoe $end
$var wire 1 ? CLK~input_o $end
$var wire 1 @ CLK~inputclkctrl_outclk $end
$var wire 1 A dataOut[15]~output_o $end
$var wire 1 B dataOut[14]~output_o $end
$var wire 1 C dataOut[13]~output_o $end
$var wire 1 D dataOut[12]~output_o $end
$var wire 1 E dataOut[11]~output_o $end
$var wire 1 F dataOut[10]~output_o $end
$var wire 1 G dataOut[9]~output_o $end
$var wire 1 H dataOut[8]~output_o $end
$var wire 1 I dataOut[7]~output_o $end
$var wire 1 J dataOut[6]~output_o $end
$var wire 1 K dataOut[5]~output_o $end
$var wire 1 L dataOut[4]~output_o $end
$var wire 1 M dataOut[3]~output_o $end
$var wire 1 N dataOut[2]~output_o $end
$var wire 1 O dataOut[1]~output_o $end
$var wire 1 P dataOut[0]~output_o $end
$var wire 1 Q wren~input_o $end
$var wire 1 R inclock~input_o $end
$var wire 1 S inclock~inputclkctrl_outclk $end
$var wire 1 T outclock~input_o $end
$var wire 1 U outclock~inputclkctrl_outclk $end
$var wire 1 V dataIn[0]~input_o $end
$var wire 1 W inst|inst1|19~q $end
$var wire 1 X addr[0]~input_o $end
$var wire 1 Y inst7|inst|19~feeder_combout $end
$var wire 1 Z inst7|inst|19~q $end
$var wire 1 [ addr[1]~input_o $end
$var wire 1 \ inst7|inst|18~q $end
$var wire 1 ] addr[2]~input_o $end
$var wire 1 ^ inst7|inst|17~feeder_combout $end
$var wire 1 _ inst7|inst|17~q $end
$var wire 1 ` addr[3]~input_o $end
$var wire 1 a inst7|inst|16~feeder_combout $end
$var wire 1 b inst7|inst|16~q $end
$var wire 1 c addr[4]~input_o $end
$var wire 1 d inst7|inst|15~feeder_combout $end
$var wire 1 e inst7|inst|15~q $end
$var wire 1 f addr[5]~input_o $end
$var wire 1 g inst7|inst|14~feeder_combout $end
$var wire 1 h inst7|inst|14~q $end
$var wire 1 i addr[6]~input_o $end
$var wire 1 j inst7|inst|13~feeder_combout $end
$var wire 1 k inst7|inst|13~q $end
$var wire 1 l addr[7]~input_o $end
$var wire 1 m inst7|inst|12~q $end
$var wire 1 n dataIn[1]~input_o $end
$var wire 1 o inst|inst1|18~feeder_combout $end
$var wire 1 p inst|inst1|18~q $end
$var wire 1 q dataIn[2]~input_o $end
$var wire 1 r inst|inst1|17~feeder_combout $end
$var wire 1 s inst|inst1|17~q $end
$var wire 1 t dataIn[3]~input_o $end
$var wire 1 u inst|inst1|16~feeder_combout $end
$var wire 1 v inst|inst1|16~q $end
$var wire 1 w dataIn[4]~input_o $end
$var wire 1 x inst|inst1|15~feeder_combout $end
$var wire 1 y inst|inst1|15~q $end
$var wire 1 z dataIn[5]~input_o $end
$var wire 1 { inst|inst1|14~feeder_combout $end
$var wire 1 | inst|inst1|14~q $end
$var wire 1 } dataIn[6]~input_o $end
$var wire 1 ~ inst|inst1|13~feeder_combout $end
$var wire 1 !! inst|inst1|13~q $end
$var wire 1 "! dataIn[7]~input_o $end
$var wire 1 #! inst|inst1|12~q $end
$var wire 1 $! dataIn[8]~input_o $end
$var wire 1 %! inst|inst2|19~feeder_combout $end
$var wire 1 &! inst|inst2|19~q $end
$var wire 1 '! dataIn[9]~input_o $end
$var wire 1 (! inst|inst2|18~q $end
$var wire 1 )! dataIn[10]~input_o $end
$var wire 1 *! inst|inst2|17~feeder_combout $end
$var wire 1 +! inst|inst2|17~q $end
$var wire 1 ,! dataIn[11]~input_o $end
$var wire 1 -! inst|inst2|16~feeder_combout $end
$var wire 1 .! inst|inst2|16~q $end
$var wire 1 /! dataIn[12]~input_o $end
$var wire 1 0! inst|inst2|15~feeder_combout $end
$var wire 1 1! inst|inst2|15~q $end
$var wire 1 2! dataIn[13]~input_o $end
$var wire 1 3! inst|inst2|14~q $end
$var wire 1 4! dataIn[14]~input_o $end
$var wire 1 5! inst|inst2|13~feeder_combout $end
$var wire 1 6! inst|inst2|13~q $end
$var wire 1 7! dataIn[15]~input_o $end
$var wire 1 8! inst|inst2|12~q $end
$var wire 1 9! GN~input_o $end
$var wire 1 :! inst5|altsyncram_component|auto_generated|q_a [15] $end
$var wire 1 ;! inst5|altsyncram_component|auto_generated|q_a [14] $end
$var wire 1 <! inst5|altsyncram_component|auto_generated|q_a [13] $end
$var wire 1 =! inst5|altsyncram_component|auto_generated|q_a [12] $end
$var wire 1 >! inst5|altsyncram_component|auto_generated|q_a [11] $end
$var wire 1 ?! inst5|altsyncram_component|auto_generated|q_a [10] $end
$var wire 1 @! inst5|altsyncram_component|auto_generated|q_a [9] $end
$var wire 1 A! inst5|altsyncram_component|auto_generated|q_a [8] $end
$var wire 1 B! inst5|altsyncram_component|auto_generated|q_a [7] $end
$var wire 1 C! inst5|altsyncram_component|auto_generated|q_a [6] $end
$var wire 1 D! inst5|altsyncram_component|auto_generated|q_a [5] $end
$var wire 1 E! inst5|altsyncram_component|auto_generated|q_a [4] $end
$var wire 1 F! inst5|altsyncram_component|auto_generated|q_a [3] $end
$var wire 1 G! inst5|altsyncram_component|auto_generated|q_a [2] $end
$var wire 1 H! inst5|altsyncram_component|auto_generated|q_a [1] $end
$var wire 1 I! inst5|altsyncram_component|auto_generated|q_a [0] $end
$var wire 1 J! inst5|altsyncram_component|auto_generated|ram_block1a0_PORTADATAOUT_bus [17] $end
$var wire 1 K! inst5|altsyncram_component|auto_generated|ram_block1a0_PORTADATAOUT_bus [16] $end
$var wire 1 L! inst5|altsyncram_component|auto_generated|ram_block1a0_PORTADATAOUT_bus [15] $end
$var wire 1 M! inst5|altsyncram_component|auto_generated|ram_block1a0_PORTADATAOUT_bus [14] $end
$var wire 1 N! inst5|altsyncram_component|auto_generated|ram_block1a0_PORTADATAOUT_bus [13] $end
$var wire 1 O! inst5|altsyncram_component|auto_generated|ram_block1a0_PORTADATAOUT_bus [12] $end
$var wire 1 P! inst5|altsyncram_component|auto_generated|ram_block1a0_PORTADATAOUT_bus [11] $end
$var wire 1 Q! inst5|altsyncram_component|auto_generated|ram_block1a0_PORTADATAOUT_bus [10] $end
$var wire 1 R! inst5|altsyncram_component|auto_generated|ram_block1a0_PORTADATAOUT_bus [9] $end
$var wire 1 S! inst5|altsyncram_component|auto_generated|ram_block1a0_PORTADATAOUT_bus [8] $end
$var wire 1 T! inst5|altsyncram_component|auto_generated|ram_block1a0_PORTADATAOUT_bus [7] $end
$var wire 1 U! inst5|altsyncram_component|auto_generated|ram_block1a0_PORTADATAOUT_bus [6] $end
$var wire 1 V! inst5|altsyncram_component|auto_generated|ram_block1a0_PORTADATAOUT_bus [5] $end
$var wire 1 W! inst5|altsyncram_component|auto_generated|ram_block1a0_PORTADATAOUT_bus [4] $end
$var wire 1 X! inst5|altsyncram_component|auto_generated|ram_block1a0_PORTADATAOUT_bus [3] $end
$var wire 1 Y! inst5|altsyncram_component|auto_generated|ram_block1a0_PORTADATAOUT_bus [2] $end
$var wire 1 Z! inst5|altsyncram_component|auto_generated|ram_block1a0_PORTADATAOUT_bus [1] $end
$var wire 1 [! inst5|altsyncram_component|auto_generated|ram_block1a0_PORTADATAOUT_bus [0] $end
$upscope $end
$upscope $end
$enddefinitions $end
#0
$dumpvars
b0 !
1"
b10 #
0$
0%
1&
0'
07
06
05
04
03
02
01
00
0/
0.
0-
0,
0+
0*
0)
0(
x8
09
1:
x;
1<
1=
1>
1?
1@
0A
0B
0C
0D
0E
0F
0G
0H
0I
0J
0K
0L
0M
0N
0O
0P
0Q
0R
0S
1T
1U
0V
0W
0X
0Y
0Z
0[
0\
0]
0^
0_
0`
0a
0b
0c
0d
0e
0f
0g
0h
0i
0j
0k
0l
0m
1n
1o
0p
0q
0r
0s
0t
0u
0v
0w
0x
0y
0z
0{
0|
0}
0~
0!!
0"!
0#!
0$!
0%!
0&!
0'!
0(!
0)!
0*!
0+!
0,!
0-!
0.!
0/!
00!
01!
02!
03!
04!
05!
06!
07!
08!
09!
0I!
0H!
0G!
0F!
0E!
0D!
0C!
0B!
0A!
0@!
0?!
0>!
0=!
0<!
0;!
0:!
0[!
0Z!
0Y!
0X!
0W!
0V!
0U!
0T!
0S!
0R!
0Q!
0P!
0O!
0N!
0M!
0L!
0K!
0J!
$end
#2500
1$
19!
08
zA
zB
zC
zD
zE
zF
zG
zH
zI
zJ
zK
zL
zM
zN
zO
zP
z(
z)
z*
z+
z,
z-
z.
z/
z0
z1
z2
z3
z4
z5
z6
z7
#5000
1%
0&
1'
0$
1R
0T
1Q
09!
1S
0U
18
0A
0B
0C
0D
0E
0F
0G
0H
0I
0J
0K
0L
0M
0N
0O
0P
0(
0)
0*
0+
0,
0-
0.
0/
00
01
02
03
04
05
06
07
#7500
1$
19!
08
zA
zB
zC
zD
zE
zF
zG
zH
zI
zJ
zK
zL
zM
zN
zO
zP
z(
z)
z*
z+
z,
z-
z.
z/
z0
z1
z2
z3
z4
z5
z6
z7
#10000
b11 #
0%
1&
0'
0$
1V
0R
1T
0Q
09!
0S
1U
18
0A
0B
0C
0D
0E
0F
0G
0H
0I
0J
0K
0L
0M
0N
0O
0P
0(
0)
0*
0+
0,
0-
0.
0/
00
01
02
03
04
05
06
07
#12500
1$
19!
08
zA
zB
zC
zD
zE
zF
zG
zH
zI
zJ
zK
zL
zM
zN
zO
zP
z(
z)
z*
z+
z,
z-
z.
z/
z0
z1
z2
z3
z4
z5
z6
z7
#15000
1%
0&
1'
0$
1R
0T
1Q
09!
1S
0U
18
0A
0B
0C
0D
0E
0F
0G
0H
0I
0J
0K
0L
0M
0N
0O
0P
0(
0)
0*
0+
0,
0-
0.
0/
00
01
02
03
04
05
06
07
#17500
1$
19!
08
zA
zB
zC
zD
zE
zF
zG
zH
zI
zJ
zK
zL
zM
zN
zO
zP
z(
z)
z*
z+
z,
z-
z.
z/
z0
z1
z2
z3
z4
z5
z6
z7
#20000
b111 #
b101 #
b100 #
0%
1&
0'
0$
0V
0n
1q
0R
1T
0Q
09!
0S
1U
18
0o
1r
0A
0B
0C
0D
0E
0F
0G
0H
0I
0J
0K
0L
0M
0N
0O
0P
0(
0)
0*
0+
0,
0-
0.
0/
00
01
02
03
04
05
06
07
#22500
1$
19!
08
zA
zB
zC
zD
zE
zF
zG
zH
zI
zJ
zK
zL
zM
zN
zO
zP
z(
z)
z*
z+
z,
z-
z.
z/
z0
z1
z2
z3
z4
z5
z6
z7
#25000
1%
0&
1'
0$
1R
0T
1Q
09!
1S
0U
18
0A
0B
0C
0D
0E
0F
0G
0H
0I
0J
0K
0L
0M
0N
0O
0P
0(
0)
0*
0+
0,
0-
0.
0/
00
01
02
03
04
05
06
07
#27500
1$
19!
08
zA
zB
zC
zD
zE
zF
zG
zH
zI
zJ
zK
zL
zM
zN
zO
zP
z(
z)
z*
z+
z,
z-
z.
z/
z0
z1
z2
z3
z4
z5
z6
z7
#30000
b101 #
0%
1&
0'
0$
1V
0R
1T
0Q
09!
0S
1U
18
0A
0B
0C
0D
0E
0F
0G
0H
0I
0J
0K
0L
0M
0N
0O
0P
0(
0)
0*
0+
0,
0-
0.
0/
00
01
02
03
04
05
06
07
#32500
1$
19!
08
zA
zB
zC
zD
zE
zF
zG
zH
zI
zJ
zK
zL
zM
zN
zO
zP
z(
z)
z*
z+
z,
z-
z.
z/
z0
z1
z2
z3
z4
z5
z6
z7
#35000
1%
0&
1'
0$
1R
0T
1Q
09!
1S
0U
18
0A
0B
0C
0D
0E
0F
0G
0H
0I
0J
0K
0L
0M
0N
0O
0P
0(
0)
0*
0+
0,
0-
0.
0/
00
01
02
03
04
05
06
07
#37500
1$
19!
08
zA
zB
zC
zD
zE
zF
zG
zH
zI
zJ
zK
zL
zM
zN
zO
zP
z(
z)
z*
z+
z,
z-
z.
z/
z0
z1
z2
z3
z4
z5
z6
z7
#40000
b111 #
b110 #
0%
1&
0'
0$
0V
1n
0R
1T
0Q
09!
0S
1U
18
1o
0A
0B
0C
0D
0E
0F
0G
0H
0I
0J
0K
0L
0M
0N
0O
0P
0(
0)
0*
0+
0,
0-
0.
0/
00
01
02
03
04
05
06
07
#42500
1$
19!
08
zA
zB
zC
zD
zE
zF
zG
zH
zI
zJ
zK
zL
zM
zN
zO
zP
z(
z)
z*
z+
z,
z-
z.
z/
z0
z1
z2
z3
z4
z5
z6
z7
#45000
1%
0&
1'
0$
1R
0T
1Q
09!
1S
0U
18
0A
0B
0C
0D
0E
0F
0G
0H
0I
0J
0K
0L
0M
0N
0O
0P
0(
0)
0*
0+
0,
0-
0.
0/
00
01
02
03
04
05
06
07
#47500
1$
19!
08
zA
zB
zC
zD
zE
zF
zG
zH
zI
zJ
zK
zL
zM
zN
zO
zP
z(
z)
z*
z+
z,
z-
z.
z/
z0
z1
z2
z3
z4
z5
z6
z7
#50000
b111 #
0%
1&
0'
0$
1V
0R
1T
0Q
09!
0S
1U
18
0A
0B
0C
0D
0E
0F
0G
0H
0I
0J
0K
0L
0M
0N
0O
0P
0(
0)
0*
0+
0,
0-
0.
0/
00
01
02
03
04
05
06
07
#52500
1$
19!
08
zA
zB
zC
zD
zE
zF
zG
zH
zI
zJ
zK
zL
zM
zN
zO
zP
z(
z)
z*
z+
z,
z-
z.
z/
z0
z1
z2
z3
z4
z5
z6
z7
#55000
1%
0&
1'
0$
1R
0T
1Q
09!
1S
0U
18
0A
0B
0C
0D
0E
0F
0G
0H
0I
0J
0K
0L
0M
0N
0O
0P
0(
0)
0*
0+
0,
0-
0.
0/
00
01
02
03
04
05
06
07
#57500
1$
19!
08
zA
zB
zC
zD
zE
zF
zG
zH
zI
zJ
zK
zL
zM
zN
zO
zP
z(
z)
z*
z+
z,
z-
z.
z/
z0
z1
z2
z3
z4
z5
z6
z7
#60000
b1111 #
b1011 #
b1001 #
b1000 #
0%
1&
0'
0$
0V
0n
0q
1t
0R
1T
0Q
09!
0S
1U
18
0o
0r
1u
0A
0B
0C
0D
0E
0F
0G
0H
0I
0J
0K
0L
0M
0N
0O
0P
0(
0)
0*
0+
0,
0-
0.
0/
00
01
02
03
04
05
06
07
#62500
1$
19!
08
zA
zB
zC
zD
zE
zF
zG
zH
zI
zJ
zK
zL
zM
zN
zO
zP
z(
z)
z*
z+
z,
z-
z.
z/
z0
z1
z2
z3
z4
z5
z6
z7
#65000
1%
0&
1'
0$
1R
0T
1Q
09!
1S
0U
18
0A
0B
0C
0D
0E
0F
0G
0H
0I
0J
0K
0L
0M
0N
0O
0P
0(
0)
0*
0+
0,
0-
0.
0/
00
01
02
03
04
05
06
07
#67500
1$
19!
08
zA
zB
zC
zD
zE
zF
zG
zH
zI
zJ
zK
zL
zM
zN
zO
zP
z(
z)
z*
z+
z,
z-
z.
z/
z0
z1
z2
z3
z4
z5
z6
z7
#70000
b1001 #
0%
1&
0'
0$
1V
0R
1T
0Q
09!
0S
1U
18
0A
0B
0C
0D
0E
0F
0G
0H
0I
0J
0K
0L
0M
0N
0O
0P
0(
0)
0*
0+
0,
0-
0.
0/
00
01
02
03
04
05
06
07
#72500
1$
19!
08
zA
zB
zC
zD
zE
zF
zG
zH
zI
zJ
zK
zL
zM
zN
zO
zP
z(
z)
z*
z+
z,
z-
z.
z/
z0
z1
z2
z3
z4
z5
z6
z7
#75000
1%
0&
1'
0$
1R
0T
1Q
09!
1S
0U
18
0A
0B
0C
0D
0E
0F
0G
0H
0I
0J
0K
0L
0M
0N
0O
0P
0(
0)
0*
0+
0,
0-
0.
0/
00
01
02
03
04
05
06
07
#77500
1$
19!
08
zA
zB
zC
zD
zE
zF
zG
zH
zI
zJ
zK
zL
zM
zN
zO
zP
z(
z)
z*
z+
z,
z-
z.
z/
z0
z1
z2
z3
z4
z5
z6
z7
#80000
b1011 #
b1010 #
0%
1&
0'
0$
0V
1n
0R
1T
0Q
09!
0S
1U
18
1o
0A
0B
0C
0D
0E
0F
0G
0H
0I
0J
0K
0L
0M
0N
0O
0P
0(
0)
0*
0+
0,
0-
0.
0/
00
01
02
03
04
05
06
07
#82500
1$
19!
08
zA
zB
zC
zD
zE
zF
zG
zH
zI
zJ
zK
zL
zM
zN
zO
zP
z(
z)
z*
z+
z,
z-
z.
z/
z0
z1
z2
z3
z4
z5
z6
z7
#85000
1%
0&
1'
0$
1R
0T
1Q
09!
1S
0U
18
0A
0B
0C
0D
0E
0F
0G
0H
0I
0J
0K
0L
0M
0N
0O
0P
0(
0)
0*
0+
0,
0-
0.
0/
00
01
02
03
04
05
06
07
#87500
1$
19!
08
zA
zB
zC
zD
zE
zF
zG
zH
zI
zJ
zK
zL
zM
zN
zO
zP
z(
z)
z*
z+
z,
z-
z.
z/
z0
z1
z2
z3
z4
z5
z6
z7
#90000
b1011 #
0%
1&
0'
0$
1V
0R
1T
0Q
09!
0S
1U
18
0A
0B
0C
0D
0E
0F
0G
0H
0I
0J
0K
0L
0M
0N
0O
0P
0(
0)
0*
0+
0,
0-
0.
0/
00
01
02
03
04
05
06
07
#92500
1$
19!
08
zA
zB
zC
zD
zE
zF
zG
zH
zI
zJ
zK
zL
zM
zN
zO
zP
z(
z)
z*
z+
z,
z-
z.
z/
z0
z1
z2
z3
z4
z5
z6
z7
#95000
1%
0&
1'
0$
1R
0T
1Q
09!
1S
0U
18
0A
0B
0C
0D
0E
0F
0G
0H
0I
0J
0K
0L
0M
0N
0O
0P
0(
0)
0*
0+
0,
0-
0.
0/
00
01
02
03
04
05
06
07
#97500
1$
19!
08
zA
zB
zC
zD
zE
zF
zG
zH
zI
zJ
zK
zL
zM
zN
zO
zP
z(
z)
z*
z+
z,
z-
z.
z/
z0
z1
z2
z3
z4
z5
z6
z7
#100000
b1111 #
b1101 #
b1100 #
0%
1&
0'
0$
0V
0n
1q
0R
1T
0Q
09!
0S
1U
18
0o
1r
0A
0B
0C
0D
0E
0F
0G
0H
0I
0J
0K
0L
0M
0N
0O
0P
0(
0)
0*
0+
0,
0-
0.
0/
00
01
02
03
04
05
06
07
#102500
1$
19!
08
zA
zB
zC
zD
zE
zF
zG
zH
zI
zJ
zK
zL
zM
zN
zO
zP
z(
z)
z*
z+
z,
z-
z.
z/
z0
z1
z2
z3
z4
z5
z6
z7
#105000
1%
0&
1'
0$
1R
0T
1Q
09!
1S
0U
18
0A
0B
0C
0D
0E
0F
0G
0H
0I
0J
0K
0L
0M
0N
0O
0P
0(
0)
0*
0+
0,
0-
0.
0/
00
01
02
03
04
05
06
07
#107500
1$
19!
08
zA
zB
zC
zD
zE
zF
zG
zH
zI
zJ
zK
zL
zM
zN
zO
zP
z(
z)
z*
z+
z,
z-
z.
z/
z0
z1
z2
z3
z4
z5
z6
z7
#110000
b1101 #
0%
1&
0'
0$
1V
0R
1T
0Q
09!
0S
1U
18
0A
0B
0C
0D
0E
0F
0G
0H
0I
0J
0K
0L
0M
0N
0O
0P
0(
0)
0*
0+
0,
0-
0.
0/
00
01
02
03
04
05
06
07
#112500
1$
19!
08
zA
zB
zC
zD
zE
zF
zG
zH
zI
zJ
zK
zL
zM
zN
zO
zP
z(
z)
z*
z+
z,
z-
z.
z/
z0
z1
z2
z3
z4
z5
z6
z7
#115000
1%
0&
1'
0$
1R
0T
1Q
09!
1S
0U
18
0A
0B
0C
0D
0E
0F
0G
0H
0I
0J
0K
0L
0M
0N
0O
0P
0(
0)
0*
0+
0,
0-
0.
0/
00
01
02
03
04
05
06
07
#117500
1$
19!
08
zA
zB
zC
zD
zE
zF
zG
zH
zI
zJ
zK
zL
zM
zN
zO
zP
z(
z)
z*
z+
z,
z-
z.
z/
z0
z1
z2
z3
z4
z5
z6
z7
#120000
b1111 #
b1110 #
0%
1&
0'
0$
0V
1n
0R
1T
0Q
09!
0S
1U
18
1o
0A
0B
0C
0D
0E
0F
0G
0H
0I
0J
0K
0L
0M
0N
0O
0P
0(
0)
0*
0+
0,
0-
0.
0/
00
01
02
03
04
05
06
07
#122500
1$
19!
08
zA
zB
zC
zD
zE
zF
zG
zH
zI
zJ
zK
zL
zM
zN
zO
zP
z(
z)
z*
z+
z,
z-
z.
z/
z0
z1
z2
z3
z4
z5
z6
z7
#125000
1%
0&
1'
0$
1R
0T
1Q
09!
1S
0U
18
0A
0B
0C
0D
0E
0F
0G
0H
0I
0J
0K
0L
0M
0N
0O
0P
0(
0)
0*
0+
0,
0-
0.
0/
00
01
02
03
04
05
06
07
#127500
1$
19!
08
zA
zB
zC
zD
zE
zF
zG
zH
zI
zJ
zK
zL
zM
zN
zO
zP
z(
z)
z*
z+
z,
z-
z.
z/
z0
z1
z2
z3
z4
z5
z6
z7
#130000
b1111 #
0%
1&
0'
0$
1V
0R
1T
0Q
09!
0S
1U
18
0A
0B
0C
0D
0E
0F
0G
0H
0I
0J
0K
0L
0M
0N
0O
0P
0(
0)
0*
0+
0,
0-
0.
0/
00
01
02
03
04
05
06
07
#132500
1$
19!
08
zA
zB
zC
zD
zE
zF
zG
zH
zI
zJ
zK
zL
zM
zN
zO
zP
z(
z)
z*
z+
z,
z-
z.
z/
z0
z1
z2
z3
z4
z5
z6
z7
#135000
1%
0&
1'
0$
1R
0T
1Q
09!
1S
0U
18
0A
0B
0C
0D
0E
0F
0G
0H
0I
0J
0K
0L
0M
0N
0O
0P
0(
0)
0*
0+
0,
0-
0.
0/
00
01
02
03
04
05
06
07
#137500
1$
19!
08
zA
zB
zC
zD
zE
zF
zG
zH
zI
zJ
zK
zL
zM
zN
zO
zP
z(
z)
z*
z+
z,
z-
z.
z/
z0
z1
z2
z3
z4
z5
z6
z7
#140000
b11111 #
b10111 #
b10011 #
b10001 #
b10000 #
0%
1&
0'
0$
0V
0n
0q
0t
1w
0R
1T
0Q
09!
0S
1U
18
0o
0r
0u
1x
0A
0B
0C
0D
0E
0F
0G
0H
0I
0J
0K
0L
0M
0N
0O
0P
0(
0)
0*
0+
0,
0-
0.
0/
00
01
02
03
04
05
06
07
#142500
1$
19!
08
zA
zB
zC
zD
zE
zF
zG
zH
zI
zJ
zK
zL
zM
zN
zO
zP
z(
z)
z*
z+
z,
z-
z.
z/
z0
z1
z2
z3
z4
z5
z6
z7
#145000
1%
0&
1'
0$
1R
0T
1Q
09!
1S
0U
18
0A
0B
0C
0D
0E
0F
0G
0H
0I
0J
0K
0L
0M
0N
0O
0P
0(
0)
0*
0+
0,
0-
0.
0/
00
01
02
03
04
05
06
07
#147500
1$
19!
08
zA
zB
zC
zD
zE
zF
zG
zH
zI
zJ
zK
zL
zM
zN
zO
zP
z(
z)
z*
z+
z,
z-
z.
z/
z0
z1
z2
z3
z4
z5
z6
z7
#150000
b10001 #
0%
1&
0'
0$
1V
0R
1T
0Q
09!
0S
1U
18
0A
0B
0C
0D
0E
0F
0G
0H
0I
0J
0K
0L
0M
0N
0O
0P
0(
0)
0*
0+
0,
0-
0.
0/
00
01
02
03
04
05
06
07
#152500
1$
19!
08
zA
zB
zC
zD
zE
zF
zG
zH
zI
zJ
zK
zL
zM
zN
zO
zP
z(
z)
z*
z+
z,
z-
z.
z/
z0
z1
z2
z3
z4
z5
z6
z7
#155000
1%
0&
1'
0$
1R
0T
1Q
09!
1S
0U
18
0A
0B
0C
0D
0E
0F
0G
0H
0I
0J
0K
0L
0M
0N
0O
0P
0(
0)
0*
0+
0,
0-
0.
0/
00
01
02
03
04
05
06
07
#157500
1$
19!
08
zA
zB
zC
zD
zE
zF
zG
zH
zI
zJ
zK
zL
zM
zN
zO
zP
z(
z)
z*
z+
z,
z-
z.
z/
z0
z1
z2
z3
z4
z5
z6
z7
#160000
b10011 #
b10010 #
0%
1&
0'
0$
0V
1n
0R
1T
0Q
09!
0S
1U
18
1o
0A
0B
0C
0D
0E
0F
0G
0H
0I
0J
0K
0L
0M
0N
0O
0P
0(
0)
0*
0+
0,
0-
0.
0/
00
01
02
03
04
05
06
07
#162500
1$
19!
08
zA
zB
zC
zD
zE
zF
zG
zH
zI
zJ
zK
zL
zM
zN
zO
zP
z(
z)
z*
z+
z,
z-
z.
z/
z0
z1
z2
z3
z4
z5
z6
z7
#165000
1%
0&
1'
0$
1R
0T
1Q
09!
1S
0U
18
0A
0B
0C
0D
0E
0F
0G
0H
0I
0J
0K
0L
0M
0N
0O
0P
0(
0)
0*
0+
0,
0-
0.
0/
00
01
02
03
04
05
06
07
#167500
1$
19!
08
zA
zB
zC
zD
zE
zF
zG
zH
zI
zJ
zK
zL
zM
zN
zO
zP
z(
z)
z*
z+
z,
z-
z.
z/
z0
z1
z2
z3
z4
z5
z6
z7
#170000
b10011 #
0%
1&
0'
0$
1V
0R
1T
0Q
09!
0S
1U
18
0A
0B
0C
0D
0E
0F
0G
0H
0I
0J
0K
0L
0M
0N
0O
0P
0(
0)
0*
0+
0,
0-
0.
0/
00
01
02
03
04
05
06
07
#172500
1$
19!
08
zA
zB
zC
zD
zE
zF
zG
zH
zI
zJ
zK
zL
zM
zN
zO
zP
z(
z)
z*
z+
z,
z-
z.
z/
z0
z1
z2
z3
z4
z5
z6
z7
#175000
1%
0&
1'
0$
1R
0T
1Q
09!
1S
0U
18
0A
0B
0C
0D
0E
0F
0G
0H
0I
0J
0K
0L
0M
0N
0O
0P
0(
0)
0*
0+
0,
0-
0.
0/
00
01
02
03
04
05
06
07
#177500
1$
19!
08
zA
zB
zC
zD
zE
zF
zG
zH
zI
zJ
zK
zL
zM
zN
zO
zP
z(
z)
z*
z+
z,
z-
z.
z/
z0
z1
z2
z3
z4
z5
z6
z7
#180000
b10111 #
b10101 #
b10100 #
0%
1&
0'
0$
0V
0n
1q
0R
1T
0Q
09!
0S
1U
18
0o
1r
0A
0B
0C
0D
0E
0F
0G
0H
0I
0J
0K
0L
0M
0N
0O
0P
0(
0)
0*
0+
0,
0-
0.
0/
00
01
02
03
04
05
06
07
#182500
1$
19!
08
zA
zB
zC
zD
zE
zF
zG
zH
zI
zJ
zK
zL
zM
zN
zO
zP
z(
z)
z*
z+
z,
z-
z.
z/
z0
z1
z2
z3
z4
z5
z6
z7
#185000
1%
0&
1'
0$
1R
0T
1Q
09!
1S
0U
18
0A
0B
0C
0D
0E
0F
0G
0H
0I
0J
0K
0L
0M
0N
0O
0P
0(
0)
0*
0+
0,
0-
0.
0/
00
01
02
03
04
05
06
07
#187500
1$
19!
08
zA
zB
zC
zD
zE
zF
zG
zH
zI
zJ
zK
zL
zM
zN
zO
zP
z(
z)
z*
z+
z,
z-
z.
z/
z0
z1
z2
z3
z4
z5
z6
z7
#190000
b10101 #
0%
1&
0'
0$
1V
0R
1T
0Q
09!
0S
1U
18
0A
0B
0C
0D
0E
0F
0G
0H
0I
0J
0K
0L
0M
0N
0O
0P
0(
0)
0*
0+
0,
0-
0.
0/
00
01
02
03
04
05
06
07
#192500
1$
19!
08
zA
zB
zC
zD
zE
zF
zG
zH
zI
zJ
zK
zL
zM
zN
zO
zP
z(
z)
z*
z+
z,
z-
z.
z/
z0
z1
z2
z3
z4
z5
z6
z7
#195000
1%
0&
1'
0$
1R
0T
1Q
09!
1S
0U
18
0A
0B
0C
0D
0E
0F
0G
0H
0I
0J
0K
0L
0M
0N
0O
0P
0(
0)
0*
0+
0,
0-
0.
0/
00
01
02
03
04
05
06
07
#197500
1$
19!
08
zA
zB
zC
zD
zE
zF
zG
zH
zI
zJ
zK
zL
zM
zN
zO
zP
z(
z)
z*
z+
z,
z-
z.
z/
z0
z1
z2
z3
z4
z5
z6
z7
#200000
b10111 #
b10110 #
0%
1&
0'
0$
0V
1n
0R
1T
0Q
09!
0S
1U
18
1o
0A
0B
0C
0D
0E
0F
0G
0H
0I
0J
0K
0L
0M
0N
0O
0P
0(
0)
0*
0+
0,
0-
0.
0/
00
01
02
03
04
05
06
07
#202500
1$
19!
08
zA
zB
zC
zD
zE
zF
zG
zH
zI
zJ
zK
zL
zM
zN
zO
zP
z(
z)
z*
z+
z,
z-
z.
z/
z0
z1
z2
z3
z4
z5
z6
z7
#205000
1%
0&
1'
0$
1R
0T
1Q
09!
1S
0U
18
0A
0B
0C
0D
0E
0F
0G
0H
0I
0J
0K
0L
0M
0N
0O
0P
0(
0)
0*
0+
0,
0-
0.
0/
00
01
02
03
04
05
06
07
#207500
1$
19!
08
zA
zB
zC
zD
zE
zF
zG
zH
zI
zJ
zK
zL
zM
zN
zO
zP
z(
z)
z*
z+
z,
z-
z.
z/
z0
z1
z2
z3
z4
z5
z6
z7
#210000
b10111 #
0%
1&
0'
0$
1V
0R
1T
0Q
09!
0S
1U
18
0A
0B
0C
0D
0E
0F
0G
0H
0I
0J
0K
0L
0M
0N
0O
0P
0(
0)
0*
0+
0,
0-
0.
0/
00
01
02
03
04
05
06
07
