simulation/qsim/A.msim.vcd
$comment
	File created using the following command:
		vcd file A.msim.vcd -direction
$end
$date
	Tue Dec 12 17:42:47 2017
$end
$version
	ModelSim Version 10.1d
$end
$timescale
	1ps
$end
$scope module A2_vlg_vec_tst $end
$var reg 1 ! ALUBUS $end
$var reg 1 " CLKA $end
$var reg 1 # CLKB $end
$var reg 1 $ CLR $end
$var reg 1 % CN $end
$var reg 16 & treg_io [15:0] $end
$var reg 2 ' latch_clk [1:0] $end
$var reg 2 ( latch_OEN [1:0] $end
$var reg 1 ) M $end
$var reg 1 * S0 $end
$var reg 1 + S1 $end
$var reg 1 , S2 $end
$var reg 1 - S3 $end
$var wire 1 . CN4 $end
$var wire 1 / fa [15] $end
$var wire 1 0 fa [14] $end
$var wire 1 1 fa [13] $end
$var wire 1 2 fa [12] $end
$var wire 1 3 fa [11] $end
$var wire 1 4 fa [10] $end
$var wire 1 5 fa [9] $end
$var wire 1 6 fa [8] $end
$var wire 1 7 fa [7] $end
$var wire 1 8 fa [6] $end
$var wire 1 9 fa [5] $end
$var wire 1 : fa [4] $end
$var wire 1 ; fa [3] $end
$var wire 1 < fa [2] $end
$var wire 1 = fa [1] $end
$var wire 1 > fa [0] $end
$var wire 1 ? fb [15] $end
$var wire 1 @ fb [14] $end
$var wire 1 A fb [13] $end
$var wire 1 B fb [12] $end
$var wire 1 C fb [11] $end
$var wire 1 D fb [10] $end
$var wire 1 E fb [9] $end
$var wire 1 F fb [8] $end
$var wire 1 G fb [7] $end
$var wire 1 H fb [6] $end
$var wire 1 I fb [5] $end
$var wire 1 J fb [4] $end
$var wire 1 K fb [3] $end
$var wire 1 L fb [2] $end
$var wire 1 M fb [1] $end
$var wire 1 N fb [0] $end
$var wire 1 O io [15] $end
$var wire 1 P io [14] $end
$var wire 1 Q io [13] $end
$var wire 1 R io [12] $end
$var wire 1 S io [11] $end
$var wire 1 T io [10] $end
$var wire 1 U io [9] $end
$var wire 1 V io [8] $end
$var wire 1 W io [7] $end
$var wire 1 X io [6] $end
$var wire 1 Y io [5] $end
$var wire 1 Z io [4] $end
$var wire 1 [ io [3] $end
$var wire 1 \ io [2] $end
$var wire 1 ] io [1] $end
$var wire 1 ^ io [0] $end
$var wire 1 _ sampler $end
$scope module i1 $end
$var wire 1 ` gnd $end
$var wire 1 a vcc $end
$var wire 1 b unknown $end
$var tri1 1 c devclrn $end
$var tri1 1 d devpor $end
$var tri1 1 e devoe $end
$var wire 1 f inst13|inst3|inst12|43~0_combout $end
$var wire 1 g inst13|inst3|inst12|74~0_combout $end
$var wire 1 h inst13|inst3|inst5|29~0_combout $end
$var wire 1 i inst13|inst3|inst5|29~1_combout $end
$var wire 1 j inst13|inst3|inst10|43~0_combout $end
$var wire 1 k inst13|inst3|inst5|27~0_combout $end
$var wire 1 l inst13|inst3|inst5|27~1_combout $end
$var wire 1 m inst13|inst3|inst5|27~3_combout $end
$var wire 1 n inst13|inst3|inst10|75~0_combout $end
$var wire 1 o inst13|inst3|inst10|75~1_combout $end
$var wire 1 p inst13|inst3|inst9|46~0_combout $end
$var wire 1 q inst13|inst3|inst9|47~0_combout $end
$var wire 1 r inst13|inst3|inst9|74~0_combout $end
$var wire 1 s inst10|inst1|19~combout $end
$var wire 1 t inst10|inst1|18~combout $end
$var wire 1 u inst|inst1|15~combout $end
$var wire 1 v inst10|inst1|14~combout $end
$var wire 1 w inst10|inst1|13~combout $end
$var wire 1 x inst|inst1|12~combout $end
$var wire 1 y inst10|inst|18~combout $end
$var wire 1 z inst10|inst|17~combout $end
$var wire 1 { inst10|inst|16~combout $end
$var wire 1 | inst10|inst|14~combout $end
$var wire 1 } inst10|inst|12~combout $end
$var wire 1 ~ io[15]~output_o $end
$var wire 1 !! io[14]~output_o $end
$var wire 1 "! io[13]~output_o $end
$var wire 1 #! io[12]~output_o $end
$var wire 1 $! io[11]~output_o $end
$var wire 1 %! io[10]~output_o $end
$var wire 1 &! io[9]~output_o $end
$var wire 1 '! io[8]~output_o $end
$var wire 1 (! io[7]~output_o $end
$var wire 1 )! io[6]~output_o $end
$var wire 1 *! io[5]~output_o $end
$var wire 1 +! io[4]~output_o $end
$var wire 1 ,! io[3]~output_o $end
$var wire 1 -! io[2]~output_o $end
$var wire 1 .! io[1]~output_o $end
$var wire 1 /! io[0]~output_o $end
$var wire 1 0! CN4~output_o $end
$var wire 1 1! fa[15]~output_o $end
$var wire 1 2! fa[14]~output_o $end
$var wire 1 3! fa[13]~output_o $end
$var wire 1 4! fa[12]~output_o $end
$var wire 1 5! fa[11]~output_o $end
$var wire 1 6! fa[10]~output_o $end
$var wire 1 7! fa[9]~output_o $end
$var wire 1 8! fa[8]~output_o $end
$var wire 1 9! fa[7]~output_o $end
$var wire 1 :! fa[6]~output_o $end
$var wire 1 ;! fa[5]~output_o $end
$var wire 1 <! fa[4]~output_o $end
$var wire 1 =! fa[3]~output_o $end
$var wire 1 >! fa[2]~output_o $end
$var wire 1 ?! fa[1]~output_o $end
$var wire 1 @! fa[0]~output_o $end
$var wire 1 A! fb[15]~output_o $end
$var wire 1 B! fb[14]~output_o $end
$var wire 1 C! fb[13]~output_o $end
$var wire 1 D! fb[12]~output_o $end
$var wire 1 E! fb[11]~output_o $end
$var wire 1 F! fb[10]~output_o $end
$var wire 1 G! fb[9]~output_o $end
$var wire 1 H! fb[8]~output_o $end
$var wire 1 I! fb[7]~output_o $end
$var wire 1 J! fb[6]~output_o $end
$var wire 1 K! fb[5]~output_o $end
$var wire 1 L! fb[4]~output_o $end
$var wire 1 M! fb[3]~output_o $end
$var wire 1 N! fb[2]~output_o $end
$var wire 1 O! fb[1]~output_o $end
$var wire 1 P! fb[0]~output_o $end
$var wire 1 Q! ALUBUS~input_o $end
$var wire 1 R! io[15]~input_o $end
$var wire 1 S! CLR~input_o $end
$var wire 1 T! CLR~inputclkctrl_outclk $end
$var wire 1 U! inst13|inst|inst2|12~q $end
$var wire 1 V! inst13|inst2|inst2|12~q $end
$var wire 1 W! S3~input_o $end
$var wire 1 X! inst13|inst3|inst12|52~0_combout $end
$var wire 1 Y! S1~input_o $end
$var wire 1 Z! inst13|inst3|inst12|51~0_combout $end
$var wire 1 [! inst13|inst3|inst12|77~0_combout $end
$var wire 1 \! M~input_o $end
$var wire 1 ]! io[14]~input_o $end
$var wire 1 ^! inst13|inst2|inst2|13~q $end
$var wire 1 _! S2~input_o $end
$var wire 1 `! inst13|inst3|inst12|48~0_combout $end
$var wire 1 a! io[12]~input_o $end
$var wire 1 b! inst13|inst|inst2|15~q $end
$var wire 1 c! inst13|inst2|inst2|15~q $end
$var wire 1 d! inst13|inst3|inst12|46~0_combout $end
$var wire 1 e! io[13]~input_o $end
$var wire 1 f! inst13|inst2|inst2|14~q $end
$var wire 1 g! inst13|inst|inst2|14~q $end
$var wire 1 h! inst13|inst3|inst12|47~0_combout $end
$var wire 1 i! CN~input_o $end
$var wire 1 j! inst13|inst3|inst5|31~0_combout $end
$var wire 1 k! inst13|inst3|inst5|31~1_combout $end
$var wire 1 l! inst13|inst3|inst5|31~2_combout $end
$var wire 1 m! inst13|inst3|inst12|74~1_combout $end
$var wire 1 n! inst13|inst3|inst12|74~2_combout $end
$var wire 1 o! latch_clk[0]~input_o $end
$var wire 1 p! latch_clk[0]~inputclkctrl_outclk $end
$var wire 1 q! inst|inst1|19~combout $end
$var wire 1 r! latch_OEN[0]~input_o $end
$var wire 1 s! latch_OEN[1]~input_o $end
$var wire 1 t! inst13|inst6|inst1|26~1_combout $end
$var wire 1 u! inst13|inst6|inst1|26~2_combout $end
$var wire 1 v! inst13|inst6|inst1|26~3_combout $end
$var wire 1 w! inst|inst1|18~combout $end
$var wire 1 x! inst13|inst6|inst1|27~1_combout $end
$var wire 1 y! inst13|inst6|inst1|27~2_combout $end
$var wire 1 z! inst13|inst|inst2|13~q $end
$var wire 1 {! inst13|inst3|inst12|45~0_combout $end
$var wire 1 |! inst13|inst6|inst1|27~3_combout $end
$var wire 1 }! latch_clk[1]~input_o $end
$var wire 1 ~! latch_clk[1]~inputclkctrl_outclk $end
$var wire 1 !" inst10|inst1|17~combout $end
$var wire 1 "" inst|inst1|17~combout $end
$var wire 1 #" inst13|inst6|inst1|31~2_combout $end
$var wire 1 $" S0~input_o $end
$var wire 1 %" inst13|inst3|inst12|44~0_combout $end
$var wire 1 &" inst13|inst3|inst12|79~combout $end
$var wire 1 '" inst13|inst6|inst1|31~1_combout $end
$var wire 1 (" inst13|inst6|inst1|31~3_combout $end
$var wire 1 )" inst|inst1|16~combout $end
$var wire 1 *" inst10|inst1|16~combout $end
$var wire 1 +" inst13|inst6|inst1|36~1_combout $end
$var wire 1 ," inst13|inst6|inst1|36~2_combout $end
$var wire 1 -" inst13|inst6|inst1|36~3_combout $end
$var wire 1 ." io[11]~input_o $end
$var wire 1 /" inst13|inst2|inst2|16~q $end
$var wire 1 0" inst13|inst|inst2|16~q $end
$var wire 1 1" inst13|inst3|inst11|51~0_combout $end
$var wire 1 2" inst13|inst3|inst11|52~0_combout $end
$var wire 1 3" inst13|inst3|inst11|77~0_combout $end
$var wire 1 4" io[10]~input_o $end
$var wire 1 5" inst13|inst|inst2|17~q $end
$var wire 1 6" inst13|inst3|inst11|48~0_combout $end
$var wire 1 7" inst13|inst2|inst2|17~q $end
$var wire 1 8" inst13|inst3|inst11|45~0_combout $end
$var wire 1 9" io[9]~input_o $end
$var wire 1 :" inst13|inst2|inst2|18~q $end
$var wire 1 ;" inst13|inst|inst2|18~q $end
$var wire 1 <" inst13|inst3|inst11|44~0_combout $end
$var wire 1 =" io[8]~input_o $end
$var wire 1 >" inst13|inst|inst2|19~q $end
$var wire 1 ?" inst13|inst3|inst11|43~0_combout $end
$var wire 1 @" inst13|inst3|inst11|47~0_combout $end
$var wire 1 A" inst13|inst3|inst11|74~0_combout $end
$var wire 1 B" inst13|inst3|inst11|74~1_combout $end
$var wire 1 C" inst10|inst1|15~combout $end
$var wire 1 D" inst13|inst6|inst1|11~1_combout $end
$var wire 1 E" inst13|inst6|inst1|11~2_combout $end
$var wire 1 F" inst|inst1|14~combout $end
$var wire 1 G" inst13|inst6|inst1|10~1_combout $end
$var wire 1 H" inst13|inst6|inst1|10~2_combout $end
$var wire 1 I" inst13|inst6|inst1|10~3_combout $end
$var wire 1 J" inst|inst1|13~combout $end
$var wire 1 K" inst13|inst6|inst1|6~1_combout $end
$var wire 1 L" inst13|inst2|inst2|19~q $end
$var wire 1 M" inst13|inst3|inst11|46~0_combout $end
$var wire 1 N" inst13|inst3|inst11|63~0_combout $end
$var wire 1 O" inst13|inst3|inst11|66~0_combout $end
$var wire 1 P" inst13|inst6|inst1|6~2_combout $end
$var wire 1 Q" inst13|inst6|inst1|6~3_combout $end
$var wire 1 R" inst10|inst1|12~combout $end
$var wire 1 S" inst13|inst6|inst1|1~1_combout $end
$var wire 1 T" inst13|inst3|inst5|29~2_combout $end
$var wire 1 U" inst13|inst3|inst11|80~combout $end
$var wire 1 V" inst13|inst6|inst1|1~2_combout $end
$var wire 1 W" io[7]~input_o $end
$var wire 1 X" inst13|inst|inst1|12~q $end
$var wire 1 Y" inst13|inst2|inst1|12~q $end
$var wire 1 Z" inst13|inst3|inst10|51~0_combout $end
$var wire 1 [" inst13|inst3|inst10|52~0_combout $end
$var wire 1 \" inst13|inst3|inst10|77~0_combout $end
$var wire 1 ]" inst|inst|19~combout $end
$var wire 1 ^" inst10|inst|19~combout $end
$var wire 1 _" inst13|inst6|inst|26~1_combout $end
$var wire 1 `" io[6]~input_o $end
$var wire 1 a" inst13|inst2|inst1|13~q $end
$var wire 1 b" inst13|inst3|inst10|48~0_combout $end
$var wire 1 c" io[5]~input_o $end
$var wire 1 d" inst13|inst2|inst1|14~q $end
$var wire 1 e" inst13|inst|inst1|14~q $end
$var wire 1 f" inst13|inst3|inst10|44~0_combout $end
$var wire 1 g" inst13|inst3|inst10|47~0_combout $end
$var wire 1 h" inst13|inst3|inst10|75~2_combout $end
$var wire 1 i" inst13|inst3|inst10|74~0_combout $end
$var wire 1 j" inst13|inst6|inst|26~2_combout $end
$var wire 1 k" inst13|inst|inst1|13~q $end
$var wire 1 l" inst13|inst3|inst10|45~0_combout $end
$var wire 1 m" inst13|inst3|inst10|82~0_combout $end
$var wire 1 n" inst|inst|18~combout $end
$var wire 1 o" inst13|inst6|inst|27~1_combout $end
$var wire 1 p" inst13|inst6|inst|27~2_combout $end
$var wire 1 q" inst|inst|17~combout $end
$var wire 1 r" inst13|inst6|inst|31~1_combout $end
$var wire 1 s" io[4]~input_o $end
$var wire 1 t" inst13|inst2|inst1|15~q $end
$var wire 1 u" inst13|inst3|inst10|46~0_combout $end
$var wire 1 v" inst13|inst3|inst5|27~2_combout $end
$var wire 1 w" inst13|inst3|inst10|66~0_combout $end
$var wire 1 x" inst13|inst3|inst10|79~combout $end
$var wire 1 y" inst13|inst3|inst10|81~0_combout $end
$var wire 1 z" inst13|inst6|inst|31~2_combout $end
$var wire 1 {" inst13|inst6|inst|36~1_combout $end
$var wire 1 |" inst|inst|16~combout $end
$var wire 1 }" inst13|inst6|inst|36~2_combout $end
$var wire 1 ~" inst13|inst6|inst|36~3_combout $end
$var wire 1 !# io[2]~input_o $end
$var wire 1 "# inst13|inst2|inst1|17~q $end
$var wire 1 ## inst13|inst3|inst9|45~0_combout $end
$var wire 1 $# inst13|inst|inst1|17~q $end
$var wire 1 %# inst13|inst3|inst9|48~0_combout $end
$var wire 1 &# inst13|inst3|inst9|74~1_combout $end
$var wire 1 '# io[3]~input_o $end
$var wire 1 (# inst|inst|15~combout $end
$var wire 1 )# inst10|inst|15~combout $end
$var wire 1 *# inst13|inst6|inst|11~1_combout $end
$var wire 1 +# inst13|inst|inst1|16~q $end
$var wire 1 ,# inst13|inst6|inst|11~2_combout $end
$var wire 1 -# inst13|inst6|inst|11~3_combout $end
$var wire 1 .# inst13|inst6|inst|11~4_combout $end
$var wire 1 /# inst|inst|14~combout $end
$var wire 1 0# inst13|inst6|inst|10~1_combout $end
$var wire 1 1# inst13|inst3|inst9|82~combout $end
$var wire 1 2# inst13|inst6|inst|10~2_combout $end
$var wire 1 3# io[0]~input_o $end
$var wire 1 4# inst13|inst|inst1|19~q $end
$var wire 1 5# inst13|inst2|inst1|19~q $end
$var wire 1 6# inst13|inst3|inst9|43~0_combout $end
$var wire 1 7# inst13|inst3|inst9|79~0_combout $end
$var wire 1 8# io[1]~input_o $end
$var wire 1 9# inst13|inst|inst1|18~q $end
$var wire 1 :# inst13|inst2|inst1|18~q $end
$var wire 1 ;# inst13|inst3|inst9|44~0_combout $end
$var wire 1 <# inst13|inst3|inst9|81~combout $end
$var wire 1 =# inst|inst|13~combout $end
$var wire 1 ># inst10|inst|13~combout $end
$var wire 1 ?# inst13|inst6|inst|6~1_combout $end
$var wire 1 @# inst13|inst6|inst|6~2_combout $end
$var wire 1 A# inst13|inst3|inst9|80~0_combout $end
$var wire 1 B# inst|inst|12~combout $end
$var wire 1 C# inst13|inst6|inst|1~1_combout $end
$var wire 1 D# inst13|inst6|inst|1~2_combout $end
$var wire 1 E# CLKA~input_o $end
$var wire 1 F# CLKA~inputclkctrl_outclk $end
$var wire 1 G# inst13|inst|inst1|15~q $end
$var wire 1 H# CLKB~input_o $end
$var wire 1 I# CLKB~inputclkctrl_outclk $end
$var wire 1 J# inst13|inst2|inst1|16~feeder_combout $end
$var wire 1 K# inst13|inst2|inst1|16~q $end
$upscope $end
$upscope $end
$enddefinitions $end
#0
$dumpvars
1!
0"
0#
1$
0%
b1110000010 &
b0 '
b11 (
0)
1*
0+
0,
1-
0.
0>
0=
0<
0;
0:
09
08
07
06
05
04
03
02
01
00
0/
0N
0M
0L
0K
0J
0I
0H
0G
0F
0E
0D
0C
0B
0A
0@
0?
0^
1]
0\
0[
0Z
0Y
0X
1W
1V
1U
0T
0S
0R
0Q
0P
0O
x_
0`
1a
xb
1c
1d
1e
0f
1g
0h
0i
0j
0k
0l
0m
0n
0o
0p
0q
1r
xs
xt
xu
xv
xw
xx
xy
xz
x{
x|
x}
z~
z!!
z"!
z#!
z$!
z%!
z&!
z'!
z(!
z)!
z*!
z+!
z,!
z-!
z.!
z/!
00!
01!
02!
03!
04!
05!
06!
07!
08!
09!
0:!
0;!
0<!
0=!
0>!
0?!
0@!
0A!
0B!
0C!
0D!
0E!
0F!
0G!
0H!
0I!
0J!
0K!
0L!
0M!
0N!
0O!
0P!
1Q!
0R!
1S!
1T!
0U!
0V!
1W!
0X!
0Y!
0Z!
0[!
0\!
0]!
0^!
0_!
0`!
0a!
0b!
0c!
0d!
0e!
0f!
0g!
0h!
0i!
0j!
0k!
0l!
1m!
1n!
0o!
0p!
xq!
1r!
1s!
1t!
1u!
0v!
xw!
1x!
1y!
0z!
0{!
1|!
0}!
0~!
x!"
x""
1#"
1$"
0%"
1&"
1'"
1("
x)"
x*"
1+"
0,"
1-"
0."
0/"
00"
01"
02"
03"
04"
05"
06"
07"
08"
19"
0:"
0;"
0<"
1="
0>"
0?"
0@"
1A"
1B"
xC"
1D"
1E"
xF"
1G"
1H"
1I"
xJ"
1K"
0L"
0M"
1N"
1O"
0P"
1Q"
xR"
1S"
0T"
0U"
1V"
1W"
0X"
0Y"
0Z"
0["
0\"
x]"
x^"
1_"
0`"
0a"
0b"
0c"
0d"
0e"
0f"
0g"
1h"
1i"
1j"
0k"
0l"
0m"
xn"
1o"
1p"
xq"
1r"
0s"
0t"
0u"
0v"
1w"
1x"
0y"
1z"
1{"
x|"
1}"
1~"
0!#
0"#
0##
0$#
0%#
1&#
0'#
x(#
x)#
1*#
0+#
0,#
0-#
1.#
x/#
10#
11#
12#
03#
04#
05#
06#
17#
18#
09#
0:#
0;#
1<#
x=#
x>#
1?#
1@#
0A#
xB#
1C#
1D#
0E#
0F#
0G#
0H#
0I#
0J#
0K#
$end
#10000
b1 '
1o!
1p!
0_
0B#
1=#
0/#
0(#
0|"
0q"
0n"
1]"
1J"
0F"
0)"
0""
0w!
0q!
1x
0u
#20000
b0 '
0o!
0p!
1_
#60000
b1000001110000010 &
b1100001110000010 &
b1100001100000010 &
b1100001100100010 &
b1100001100110010 &
1Z
1Y
0W
1P
1O
1s"
1c"
0W"
1]!
1R!
0_
#80000
b10 '
1}!
1~!
1_
1>#
0)#
0^"
1R"
0C"
0*"
0!"
0}
0|
1{
1z
0y
1w
0v
1t
1s
#90000
b0 '
0}!
0~!
0_
#100000
b11z0001100110010 &
b11zz001100110010 &
b11zzz01100110010 &
b11zzzz1100110010 &
b11zzzzz100110010 &
b11zzzzzz00110010 &
b11zzzzzz0z110010 &
b11zzzzzz0z11z010 &
b11zzzzzz0z11zz10 &
b11zzzzzz0z11zzz0 &
b11zzzzzz0z11zzzz &
b10 (
bz1zzzzzz0z11zzzz &
bz0z11zzzz &
bz11zzzz &
bz1zzzz &
bz &
z^
z]
z\
z[
zZ
zY
zX
zW
zV
zU
zT
zS
zR
zQ
zP
zO
0r!
z3#
z8#
z!#
z'#
zs"
zc"
z`"
zW"
z="
z9"
z4"
z."
za!
ze!
z]!
zR!
1_
0C#
00#
0*#
0}"
0r"
0o"
0G"
0D"
0+"
0#"
0x!
0t!
xJ#
1v!
1/!
1.!
1-!
1,!
1+!
1*!
1)!
1(!
1'!
1&!
1%!
1$!
1#!
1"!
1!!
1~
1^
1]
1\
1[
1Z
1Y
1X
1W
1V
1U
1T
1S
1R
1Q
1P
1O
0D#
02#
0.#
0~"
0z"
0p"
0I"
0E"
0-"
0("
0|!
0u!
13#
18#
1!#
1'#
1s"
1c"
1`"
1W"
1="
19"
14"
1."
1a!
1e!
1]!
1R!
0/!
0-!
0,!
0+!
0*!
0)!
0%!
0$!
0#!
0"!
0!!
0~
0^
0\
0[
0Z
0Y
0X
0T
0S
0R
0Q
0P
0O
1J#
03#
0!#
0'#
0s"
0c"
0`"
04"
0."
0a!
0e!
0]!
0R!
0J#
#110000
1"
1E#
1F#
0_
19#
1X"
1>"
1;"
1;#
1Z"
1?"
1<"
1?!
19!
18!
17!
1=
17
16
15
0<#
1\"
1U"
#120000
0"
0E#
0F#
1_
#130000
b11 (
1r!
0_
1C#
10#
1*#
1}"
1r"
1o"
1G"
1D"
1+"
1#"
1x!
1t!
0v!
z/!
z.!
z-!
z,!
z+!
z*!
z)!
z(!
z'!
z&!
z%!
z$!
z#!
z"!
z!!
z~
z^
z]
z\
z[
zZ
zY
zX
zW
zV
zU
zT
zS
zR
zQ
zP
zO
1D#
12#
1.#
1~"
1z"
1p"
1I"
1E"
1-"
1("
1|!
1u!
z3#
z8#
z!#
z'#
zs"
zc"
z`"
zW"
z="
z9"
z4"
z."
za!
ze!
z]!
zR!
xJ#
#140000
b1 (
0s!
1_
0C#
00#
0*#
0o"
0_"
0G"
0D"
0+"
0#"
1v!
1/!
1.!
1-!
1,!
1+!
1*!
1)!
1(!
1'!
1&!
1%!
1$!
1#!
1"!
1!!
1~
1^
1]
1\
1[
1Z
1Y
1X
1W
1V
1U
1T
1S
1R
1Q
1P
1O
0D#
02#
0.#
0p"
0j"
0I"
0E"
0-"
0("
13#
18#
1!#
1'#
1s"
1c"
1`"
1W"
1="
19"
14"
1."
1a!
1e!
1]!
1R!
0/!
0-!
0,!
0)!
0(!
0%!
0$!
0#!
0"!
0^
0\
0[
0X
0W
0T
0S
0R
0Q
1J#
03#
0!#
0'#
0`"
0W"
04"
0."
0a!
0e!
0J#
#150000
1#
1H#
1I#
0_
1:#
1t"
1d"
1L"
1:"
1^!
1V!
1q
1j
1f"
1M"
1@"
1{!
1Z!
1O!
1L!
1K!
1H!
1G!
1B!
1A!
1M
1J
1I
1F
1E
1@
1?
1<#
0r
1y"
0U"
0O"
1P"
0N"
0A"
1[!
01#
0P"
0H"
#160000
0#
0H#
0I#
1_
#170000
b11 (
1s!
0_
1C#
10#
1*#
1o"
1_"
1G"
1D"
1+"
1#"
0v!
z/!
z.!
z-!
z,!
z+!
z*!
z)!
z(!
z'!
z&!
z%!
z$!
z#!
z"!
z!!
z~
z^
z]
z\
z[
zZ
zY
zX
zW
zV
zU
zT
zS
zR
zQ
zP
zO
1D#
12#
1.#
1p"
1j"
1I"
1E"
1-"
1("
z3#
z8#
z!#
z'#
zs"
zc"
z`"
zW"
z="
z9"
z4"
z."
za!
ze!
z]!
zR!
xJ#
#180000
0!
0Q!
1_
0'"
0@#
0.#
0p"
0V"
0E"
0-"
1v!
0.!
0,!
0)!
0'!
0$!
0#!
1/!
1-!
1+!
1*!
1(!
1&!
1%!
1"!
1!!
1~
0]
0[
0X
0V
0S
0R
1^
1\
1Z
1Y
1W
1U
1T
1Q
1P
1O
0("
08#
0'#
0`"
0="
0."
0a!
13#
1!#
1s"
1c"
1W"
19"
14"
1e!
1]!
1R!
0"!
0Q
0J#
0e!
#190000
b1 '
1o!
1p!
0_
1B#
0=#
1/#
1|"
1q"
1F"
1w!
1q!
0x
#200000
b0 '
0o!
0p!
1_
#230000
1!
1Q!
0_
1'"
1@#
1.#
1p"
1V"
1E"
1-"
0v!
z.!
z,!
z)!
z'!
z$!
z#!
z/!
z-!
z+!
z*!
z(!
z&!
z%!
z"!
z!!
z~
z]
z[
zX
zV
zS
zR
z^
z\
zZ
zY
zW
zU
zT
zQ
zP
zO
1("
z8#
z'#
z`"
z="
z."
za!
z3#
z!#
zs"
zc"
zW"
z9"
z4"
ze!
z]!
zR!
xJ#
#270000
b10 (
0r!
1_
0?#
0*#
0o"
0S"
0D"
0+"
0#"
1v!
1/!
1.!
1-!
1,!
1+!
1*!
1)!
1(!
1'!
1&!
1%!
1$!
1#!
1"!
1!!
1~
1^
1]
1\
1[
1Z
1Y
1X
1W
1V
1U
1T
1S
1R
1Q
1P
1O
0@#
0.#
0p"
0V"
0E"
0-"
0("
13#
18#
1!#
1'#
1s"
1c"
1`"
1W"
1="
19"
14"
1."
1a!
1e!
1]!
1R!
0.!
0,!
0)!
0'!
0$!
0#!
0"!
0]
0[
0X
0V
0S
0R
0Q
1J#
08#
0'#
0`"
0="
0."
0a!
0e!
0J#
#370000
b11 (
1r!
0_
1?#
1*#
1o"
1S"
1D"
1+"
1#"
0v!
z/!
z.!
z-!
z,!
z+!
z*!
z)!
z(!
z'!
z&!
z%!
z$!
z#!
z"!
z!!
z~
z^
z]
z\
z[
zZ
zY
zX
zW
zV
zU
zT
zS
zR
zQ
zP
zO
1@#
1.#
1p"
1V"
1E"
1-"
1("
z3#
z8#
z!#
z'#
zs"
zc"
z`"
zW"
z="
z9"
z4"
z."
za!
ze!
z]!
zR!
xJ#
