A44/simulation/qsim/A.msim.vcd
$comment
	File created using the following command:
		vcd file A.msim.vcd -direction
$end
$date
	Mon Dec 04 16:33:28 2017
$end
$version
	ModelSim Version 10.1d
$end
$timescale
	1ps
$end
$scope module shift_vlg_vec_tst $end
$var reg 1 ! CLK $end
$var reg 16 " D [15:0] $end
$var reg 1 # GN $end
$var reg 1 $ LR $end
$var reg 2 % S [1:0] $end
$var wire 1 & Y [15] $end
$var wire 1 ' Y [14] $end
$var wire 1 ( Y [13] $end
$var wire 1 ) Y [12] $end
$var wire 1 * Y [11] $end
$var wire 1 + Y [10] $end
$var wire 1 , Y [9] $end
$var wire 1 - Y [8] $end
$var wire 1 . Y [7] $end
$var wire 1 / Y [6] $end
$var wire 1 0 Y [5] $end
$var wire 1 1 Y [4] $end
$var wire 1 2 Y [3] $end
$var wire 1 3 Y [2] $end
$var wire 1 4 Y [1] $end
$var wire 1 5 Y [0] $end
$var wire 1 6 sampler $end
$scope module i1 $end
$var wire 1 7 gnd $end
$var wire 1 8 vcc $end
$var wire 1 9 unknown $end
$var tri1 1 : devclrn $end
$var tri1 1 ; devpor $end
$var tri1 1 < devoe $end
$var wire 1 = D[14]~input_o $end
$var wire 1 > D[13]~input_o $end
$var wire 1 ? D[12]~input_o $end
$var wire 1 @ D[11]~input_o $end
$var wire 1 A D[10]~input_o $end
$var wire 1 B D[9]~input_o $end
$var wire 1 C Y[15]~output_o $end
$var wire 1 D Y[14]~output_o $end
$var wire 1 E Y[13]~output_o $end
$var wire 1 F Y[12]~output_o $end
$var wire 1 G Y[11]~output_o $end
$var wire 1 H Y[10]~output_o $end
$var wire 1 I Y[9]~output_o $end
$var wire 1 J Y[8]~output_o $end
$var wire 1 K Y[7]~output_o $end
$var wire 1 L Y[6]~output_o $end
$var wire 1 M Y[5]~output_o $end
$var wire 1 N Y[4]~output_o $end
$var wire 1 O Y[3]~output_o $end
$var wire 1 P Y[2]~output_o $end
$var wire 1 Q Y[1]~output_o $end
$var wire 1 R Y[0]~output_o $end
$var wire 1 S CLK~input_o $end
$var wire 1 T CLK~inputclkctrl_outclk $end
$var wire 1 U S[1]~input_o $end
$var wire 1 V S[0]~input_o $end
$var wire 1 W D[15]~input_o $end
$var wire 1 X inst1|inst2|128~0_combout $end
$var wire 1 Y inst1|inst2|128~1_combout $end
$var wire 1 Z inst1|inst2|120~q $end
$var wire 1 [ GN~input_o $end
$var wire 1 \ D[8]~input_o $end
$var wire 1 ] inst1|inst2|121~0_combout $end
$var wire 1 ^ D[7]~input_o $end
$var wire 1 _ D[6]~input_o $end
$var wire 1 ` D[5]~input_o $end
$var wire 1 a D[4]~input_o $end
$var wire 1 b D[3]~input_o $end
$var wire 1 c D[2]~input_o $end
$var wire 1 d D[1]~input_o $end
$var wire 1 e D[0]~input_o $end
$var wire 1 f LR~input_o $end
$var wire 1 g inst1|inst|121~0_combout $end
$var wire 1 h inst1|inst|121~1_combout $end
$var wire 1 i inst1|inst|113~q $end
$var wire 1 j inst1|inst|122~0_combout $end
$var wire 1 k inst1|inst|122~1_combout $end
$var wire 1 l inst1|inst|114~q $end
$var wire 1 m inst1|inst|123~0_combout $end
$var wire 1 n inst1|inst|123~1_combout $end
$var wire 1 o inst1|inst|115~q $end
$var wire 1 p inst1|inst|124~0_combout $end
$var wire 1 q inst1|inst|124~1_combout $end
$var wire 1 r inst1|inst|116~q $end
$var wire 1 s inst1|inst|125~0_combout $end
$var wire 1 t inst1|inst|125~1_combout $end
$var wire 1 u inst1|inst|117~q $end
$var wire 1 v inst1|inst|126~0_combout $end
$var wire 1 w inst1|inst|126~1_combout $end
$var wire 1 x inst1|inst|118~q $end
$var wire 1 y inst1|inst|127~0_combout $end
$var wire 1 z inst1|inst|127~1_combout $end
$var wire 1 { inst1|inst|119~q $end
$var wire 1 | inst1|inst|128~0_combout $end
$var wire 1 } inst1|inst|128~1_combout $end
$var wire 1 ~ inst1|inst|120~q $end
$var wire 1 !! inst1|inst2|121~1_combout $end
$var wire 1 "! inst1|inst2|113~q $end
$var wire 1 #! inst1|inst2|122~0_combout $end
$var wire 1 $! inst1|inst2|122~1_combout $end
$var wire 1 %! inst1|inst2|114~q $end
$var wire 1 &! inst1|inst2|123~0_combout $end
$var wire 1 '! inst1|inst2|123~1_combout $end
$var wire 1 (! inst1|inst2|115~q $end
$var wire 1 )! inst1|inst2|124~0_combout $end
$var wire 1 *! inst1|inst2|124~1_combout $end
$var wire 1 +! inst1|inst2|116~q $end
$var wire 1 ,! inst1|inst2|125~0_combout $end
$var wire 1 -! inst1|inst2|125~1_combout $end
$var wire 1 .! inst1|inst2|117~q $end
$var wire 1 /! inst1|inst2|126~0_combout $end
$var wire 1 0! inst1|inst2|126~1_combout $end
$var wire 1 1! inst1|inst2|118~q $end
$var wire 1 2! inst1|inst2|127~0_combout $end
$var wire 1 3! inst1|inst2|127~1_combout $end
$var wire 1 4! inst1|inst2|119~q $end
$upscope $end
$upscope $end
$enddefinitions $end
#0
$dumpvars
0!
b1100000010000001 "
1#
1$
b11 %
z5
z4
z3
z2
z1
z0
z/
z.
z-
z,
z+
z*
z)
z(
z'
z&
x6
07
18
x9
1:
1;
1<
1=
0>
0?
0@
0A
0B
zC
zD
zE
zF
zG
zH
zI
zJ
zK
zL
zM
zN
zO
zP
zQ
zR
0S
0T
1U
1V
1W
1X
1Y
0Z
1[
0\
1]
1^
0_
0`
0a
0b
0c
0d
1e
1f
1g
1h
0i
1j
0k
0l
1m
0n
0o
1p
0q
0r
1s
0t
0u
1v
0w
0x
1y
0z
0{
1|
1}
0~
0!!
0"!
1#!
0$!
0%!
1&!
0'!
0(!
1)!
0*!
0+!
1,!
0-!
0.!
1/!
00!
01!
12!
13!
04!
$end
#6000
1!
1S
1T
06
14!
1~
1i
1Z
#10000
0#
b1 %
0!
0[
0U
0S
0T
16
02!
10!
0/!
0,!
1*!
0)!
0&!
1$!
0#!
0|
0y
1w
0v
0s
1q
0p
0m
1k
0]
0X
1C
1D
0E
0F
0G
0H
0I
0J
1K
0L
0M
0N
0O
0P
0Q
1R
1&
1'
0(
0)
0*
0+
0,
0-
1.
0/
00
01
02
03
04
15
03!
00!
0*!
0$!
0}
0w
0q
1!!
#16000
1!
1S
1T
06
04!
1"!
0~
1l
0Y
1#!
0!!
1n
0D
1J
0K
1Q
0'
1-
0.
14
1$!
#20000
0!
0S
0T
16
#26000
1!
1S
1T
06
1%!
0"!
1o
0Z
1'!
0#!
1p
1I
0J
1P
0C
1,
0-
13
0&
0$!
1q
#30000
0!
0S
0T
16
#36000
1!
1S
1T
06
1(!
0%!
1r
1)!
0'!
1t
1H
0I
1O
1+
0,
12
1*!
#40000
0!
0S
0T
16
#46000
1!
1S
1T
06
1+!
0(!
1u
1-!
0)!
1v
1G
0H
1N
1*
0+
11
0*!
1w
#50000
0!
0S
0T
16
#56000
1!
1S
1T
06
1.!
0+!
1x
1/!
0-!
1z
1F
0G
1M
1)
0*
10
10!
#60000
0!
0S
0T
16
#66000
1!
1S
1T
06
11!
0.!
1{
12!
0/!
1|
1E
0F
1L
1(
0)
1/
13!
00!
1}
#70000
0!
0S
0T
16
#76000
1!
1S
1T
06
14!
01!
1~
02!
1Y
1!!
1D
0E
1K
1'
0(
1.
03!
#80000
0!
0S
0T
16
#86000
1!
1S
1T
06
04!
1"!
1Z
0Y
1#!
0D
1J
1C
0'
1-
1&
1$!
#90000
0!
0S
0T
16
#96000
1!
1S
1T
06
1%!
0Z
1'!
1I
0C
1,
0&
#100000
0!
0S
0T
16
#106000
1!
1S
1T
06
1(!
1)!
1H
1+
1*!
#110000
0!
0S
0T
16
#116000
1!
1S
1T
06
1+!
1-!
1G
1*
#120000
0!
0S
0T
16
#126000
1!
1S
1T
06
1.!
1/!
1F
1)
10!
#130000
0!
0S
0T
16
#136000
1!
1S
1T
06
11!
12!
1E
1(
13!
#140000
0!
0S
0T
16
#146000
1!
1S
1T
06
14!
1Y
1D
1'
#150000
0!
0S
0T
16
#156000
1!
1S
1T
06
1Z
1C
1&
#160000
0!
0S
0T
16
#166000
1!
1S
1T
06
#170000
0!
0S
0T
16
#176000
1!
1S
1T
06
#180000
0!
0S
0T
16
#186000
1!
1S
1T
06
#190000
0!
0S
0T
16
#196000
1!
1S
1T
06
#200000
0!
0S
0T
16
#206000
1!
1S
1T
06
#210000
0!
0S
0T
16
#216000
1!
1S
1T
06
#220000
0!
0S
0T
16
#226000
1!
1S
1T
06
#230000
0!
0S
0T
16
#236000
1!
1S
1T
06
#240000
0!
0S
0T
16
#246000
1!
1S
1T
06
#250000
0!
0S
0T
16
#256000
1!
1S
1T
06
#260000
0!
0S
0T
16
#266000
1!
1S
1T
06
#270000
0!
0S
0T
16
#276000
1!
1S
1T
06
#280000
0!
0S
0T
16
#286000
1!
1S
1T
06
#290000
0!
0S
0T
16
#296000
1!
1S
1T
06
#300000
0!
0S
0T
16
#306000
1!
1S
1T
06
#310000
0!
0S
0T
16
#316000
1!
1S
1T
06
#320000
0!
0S
0T
16
#326000
1!
1S
1T
06
#330000
0!
0S
0T
16
#336000
1!
1S
1T
06
#340000
0!
0S
0T
16
#346000
1!
1S
1T
06
#350000
0!
0S
0T
16
#356000
1!
1S
1T
06
#360000
0!
0S
0T
16
#366000
1!
1S
1T
06
#370000
0!
0S
0T
16
#376000
1!
1S
1T
06
#380000
0!
0S
0T
16
#386000
1!
1S
1T
06
#390000
0!
0S
0T
16
#396000
1!
1S
1T
06
#400000
b0 %
b10 %
0!
0V
1U
0S
0T
16
02!
0/!
0-!
1,!
0)!
0'!
1&!
0#!
0!!
0|
0z
1y
0v
0t
1s
0p
0n
1m
0j
0g
1]
00!
0*!
0$!
0w
0q
0k
0Y
10!
1-!
1*!
1'!
1$!
1z
1w
1t
1q
1n
1k
1!!
#406000
1!
1S
1T
06
0Z
03!
0C
0&
#410000
0!
0S
0T
16
#416000
1!
1S
1T
06
04!
00!
0D
0'
#420000
0!
0S
0T
16
#426000
1!
1S
1T
06
01!
0,!
0E
0(
0-!
#430000
0!
0S
0T
16
#436000
1!
1S
1T
06
0.!
0*!
0F
0)
#440000
0!
0S
0T
16
#446000
1!
1S
1T
06
0+!
0&!
0G
0*
0'!
#450000
0!
0S
0T
16
#456000
1!
1S
1T
06
0(!
0$!
0H
0+
#460000
1#
0!
1[
0S
0T
16
zC
zD
zE
zF
zG
zH
zI
zJ
zK
zL
zM
zN
zO
zP
zQ
zR
z&
z'
z(
z)
z*
z+
z,
z-
z.
z/
z0
z1
z2
z3
z4
z5
#466000
1!
1S
1T
06
0%!
0]
0!!
#470000
0!
0S
0T
16
#476000
1!
1S
1T
06
0"!
0}
#480000
0!
0S
0T
16
#486000
1!
1S
1T
06
0~
0y
0z
#490000
0!
0S
0T
16
#496000
1!
1S
1T
06
0{
0w
#500000
b1100000010000011 "
b1100000010000010 "
0!
0e
1d
0S
0T
16
#506000
1!
1S
1T
06
0x
0s
0t
#510000
0#
0!
0[
0S
0T
16
0C
0D
0E
0F
0G
0H
0I
0J
0K
0L
0M
1N
1O
1P
1Q
1R
0&
0'
0(
0)
0*
0+
0,
0-
0.
0/
00
11
12
13
14
15
#516000
1!
1S
1T
06
0u
0q
0N
01
#520000
0!
0S
0T
16
#526000
1!
1S
1T
06
0r
0m
0O
02
0n
#530000
0!
0S
0T
16
#536000
1!
1S
1T
06
0o
0k
0P
03
#540000
0!
0S
0T
16
#546000
1!
1S
1T
06
0l
0h
0Q
04
#550000
0!
0S
0T
16
#556000
1!
1S
1T
06
0i
0R
05
#560000
0!
0S
0T
16
#566000
1!
1S
1T
06
#570000
0!
0S
0T
16
#576000
1!
1S
1T
06
#580000
0!
0S
0T
16
#586000
1!
1S
1T
06
#590000
0!
0S
0T
16
#596000
1!
1S
1T
06
#600000
0!
0S
0T
16
#606000
1!
1S
1T
06
#610000
0!
0S
0T
16
#616000
1!
1S
1T
06
#620000
0!
0S
0T
16
#626000
1!
1S
1T
06
#630000
0!
0S
0T
16
#636000
1!
1S
1T
06
#640000
0!
0S
0T
16
#646000
1!
1S
1T
06
#650000
0!
0S
0T
16
#656000
1!
1S
1T
06
#660000
0!
0S
0T
16
#666000
1!
1S
1T
06
#670000
0!
0S
0T
16
#676000
1!
1S
1T
06
#680000
0!
0S
0T
16
#686000
1!
1S
1T
06
#690000
0!
0S
0T
16
#696000
1!
1S
1T
06
#700000
0!
0S
0T
16
#706000
1!
1S
1T
06
#710000
0!
0S
0T
16
#716000
1!
1S
1T
06
#720000
0!
0S
0T
16
#726000
1!
1S
1T
06
#730000
0!
0S
0T
16
#736000
1!
1S
1T
06
#740000
0!
0S
0T
16
#746000
1!
1S
1T
06
#750000
0!
0S
0T
16
#756000
1!
1S
1T
06
#760000
0!
0S
0T
16
#766000
1!
1S
1T
06
#770000
0!
0S
0T
16
#776000
1!
1S
1T
06
#780000
0!
0S
0T
16
#786000
1!
1S
1T
06
#790000
0!
0S
0T
16
#796000
1!
1S
1T
06
#800000
b11 %
0!
1V
0S
0T
16
12!
1/!
1,!
1)!
1&!
1#!
1|
1y
1v
1s
1p
1m
1j
1g
1]
1X
13!
1}
1k
1Y
#806000
1!
1S
1T
06
14!
1~
1l
1Z
1D
1K
1Q
1C
1'
1.
14
1&
#810000
0!
0S
0T
16
#816000
1!
1S
1T
06
#820000
0!
0S
0T
16
#826000
1!
1S
1T
06
#830000
0!
0S
0T
16
#836000
1!
1S
1T
06
#840000
0!
0S
0T
16
#846000
1!
1S
1T
06
#850000
0!
0S
0T
16
#856000
1!
1S
1T
06
#860000
0!
0S
0T
16
#866000
1!
1S
1T
06
#870000
0!
0S
0T
16
#876000
1!
1S
1T
06
#880000
0!
0S
0T
16
#886000
1!
1S
1T
06
#890000
0!
0S
0T
16
#896000
1!
1S
1T
06
#900000
0!
0S
0T
16
#906000
1!
1S
1T
06
#910000
0!
0S
0T
16
#916000
1!
1S
1T
06
#920000
0!
0S
0T
16
#926000
1!
1S
1T
06
#930000
0!
0S
0T
16
#936000
1!
1S
1T
06
#940000
0!
0S
0T
16
#946000
1!
1S
1T
06
#950000
0!
0S
0T
16
#956000
1!
1S
1T
06
#960000
1#
0!
1[
0S
0T
16
zC
zD
zE
zF
zG
zH
zI
zJ
zK
zL
zM
zN
zO
zP
zQ
zR
z&
z'
z(
z)
z*
z+
z,
z-
z.
z/
z0
z1
z2
z3
z4
z5
#966000
1!
1S
1T
06
#970000
0!
0S
0T
16
#976000
1!
1S
1T
06
#980000
0!
0S
0T
16
#986000
1!
1S
1T
06
#990000
0!
0S
0T
16
#996000
1!
1S
1T
06
